{
  "hierarchy" : {
    "paths" : [
      [
        "doc:\/\/FanapPodChatSDK\/documentation\/FanapPodChatSDK",
        "doc:\/\/FanapPodChatSDK\/documentation\/FanapPodChatSDK\/LogResult"
      ]
    ]
  },
  "identifier" : {
    "interfaceLanguage" : "swift",
    "url" : "doc:\/\/FanapPodChatSDK\/documentation\/FanapPodChatSDK\/LogResult\/init(json:receive:)"
  },
  "kind" : "symbol",
  "metadata" : {
    "externalID" : "s:15FanapPodChatSDK9LogResultV4json7receiveACSS_Sbtcfc",
    "fragments" : [
      {
        "kind" : "identifier",
        "text" : "init"
      },
      {
        "kind" : "text",
        "text" : "("
      },
      {
        "kind" : "externalParam",
        "text" : "json"
      },
      {
        "kind" : "text",
        "text" : ": "
      },
      {
        "kind" : "typeIdentifier",
        "preciseIdentifier" : "s:SS",
        "text" : "String"
      },
      {
        "kind" : "text",
        "text" : ", "
      },
      {
        "kind" : "externalParam",
        "text" : "receive"
      },
      {
        "kind" : "text",
        "text" : ": "
      },
      {
        "kind" : "typeIdentifier",
        "preciseIdentifier" : "s:Sb",
        "text" : "Bool"
      },
      {
        "kind" : "text",
        "text" : ")"
      }
    ],
    "modules" : [
      {
        "name" : "FanapPodChatSDK"
      }
    ],
    "role" : "symbol",
    "roleHeading" : "Initializer",
    "symbolKind" : "init",
    "title" : "init(json:receive:)"
  },
  "primaryContentSections" : [
    {
      "declarations" : [
        {
          "languages" : [
            "swift"
          ],
          "platforms" : [
            "macOS"
          ],
          "tokens" : [
            {
              "kind" : "keyword",
              "text" : "init"
            },
            {
              "kind" : "text",
              "text" : "("
            },
            {
              "kind" : "externalParam",
              "text" : "json"
            },
            {
              "kind" : "text",
              "text" : ": "
            },
            {
              "kind" : "typeIdentifier",
              "preciseIdentifier" : "s:SS",
              "text" : "String"
            },
            {
              "kind" : "text",
              "text" : ", "
            },
            {
              "kind" : "externalParam",
              "text" : "receive"
            },
            {
              "kind" : "text",
              "text" : ": "
            },
            {
              "kind" : "typeIdentifier",
              "preciseIdentifier" : "s:Sb",
              "text" : "Bool"
            },
            {
              "kind" : "text",
              "text" : ")"
            }
          ]
        }
      ],
      "kind" : "declarations"
    }
  ],
  "schemaVersion" : {
    "major" : 0,
    "minor" : 3,
    "patch" : 0
  },
  "sections" : [

  ],
  "variants" : [
    {
      "paths" : [
        "\/documentation\/fanappodchatsdk\/logresult\/init(json:receive:)"
      ],
      "traits" : [
        {
          "interfaceLanguage" : "swift"
        }
      ]
    }
  ]
, 
"references": {
"doc://FanapPodChatSDK/documentation/FanapPodChatSDK": {
  "abstract" : [
    {
      "text" : "With Fanap Chat SDK you could connect to the chat server without managing the socket state and send or receive messages.",
      "type" : "text"
    }
  ],
  "identifier" : "doc:\/\/FanapPodChatSDK\/documentation\/FanapPodChatSDK",
  "kind" : "symbol",
  "role" : "collection",
  "title" : "FanapPodChatSDK",
  "type" : "topic",
  "url" : "\/documentation\/fanappodchatsdk"
},
"doc://FanapPodChatSDK/documentation/FanapPodChatSDK/LogResult": {
  "abstract" : [

  ],
  "fragments" : [
    {
      "kind" : "keyword",
      "text" : "struct"
    },
    {
      "kind" : "text",
      "text" : " "
    },
    {
      "kind" : "identifier",
      "text" : "LogResult"
    }
  ],
  "identifier" : "doc:\/\/FanapPodChatSDK\/documentation\/FanapPodChatSDK\/LogResult",
  "kind" : "symbol",
  "navigatorTitle" : [
    {
      "kind" : "identifier",
      "text" : "LogResult"
    }
  ],
  "role" : "symbol",
  "title" : "LogResult",
  "type" : "topic",
  "url" : "\/documentation\/fanappodchatsdk\/logresult"
},
"doc://FanapPodChatSDK/documentation/FanapPodChatSDK/LogResult/init(json:receive:)": {
  "abstract" : [

  ],
  "fragments" : [
    {
      "kind" : "identifier",
      "text" : "init"
    },
    {
      "kind" : "text",
      "text" : "("
    },
    {
      "kind" : "externalParam",
      "text" : "json"
    },
    {
      "kind" : "text",
      "text" : ": "
    },
    {
      "kind" : "typeIdentifier",
      "preciseIdentifier" : "s:SS",
      "text" : "String"
    },
    {
      "kind" : "text",
      "text" : ", "
    },
    {
      "kind" : "externalParam",
      "text" : "receive"
    },
    {
      "kind" : "text",
      "text" : ": "
    },
    {
      "kind" : "typeIdentifier",
      "preciseIdentifier" : "s:Sb",
      "text" : "Bool"
    },
    {
      "kind" : "text",
      "text" : ")"
    }
  ],
  "identifier" : "doc:\/\/FanapPodChatSDK\/documentation\/FanapPodChatSDK\/LogResult\/init(json:receive:)",
  "kind" : "symbol",
  "role" : "symbol",
  "title" : "init(json:receive:)",
  "type" : "topic",
  "url" : "\/documentation\/fanappodchatsdk\/logresult\/init(json:receive:)"
}
}
}