{
  "hierarchy" : {
    "paths" : [
      [
        "doc:\/\/FanapPodChatSDK\/documentation\/FanapPodChatSDK",
        "doc:\/\/FanapPodChatSDK\/documentation\/FanapPodChatSDK\/CMPinMessage"
      ]
    ]
  },
  "identifier" : {
    "interfaceLanguage" : "swift",
    "url" : "doc:\/\/FanapPodChatSDK\/documentation\/FanapPodChatSDK\/CMPinMessage\/insertOrUpdate(pinMessage:resultEntity:)"
  },
  "kind" : "symbol",
  "metadata" : {
    "extendedModule" : "FanapPodChatSDK",
    "externalID" : "s:15FanapPodChatSDK12CMPinMessageC14insertOrUpdate03pinF012resultEntityyAA08PinUnpinF0C_yACcSgtFZ",
    "fragments" : [
      {
        "kind" : "keyword",
        "text" : "class"
      },
      {
        "kind" : "text",
        "text" : " "
      },
      {
        "kind" : "keyword",
        "text" : "func"
      },
      {
        "kind" : "text",
        "text" : " "
      },
      {
        "kind" : "identifier",
        "text" : "insertOrUpdate"
      },
      {
        "kind" : "text",
        "text" : "("
      },
      {
        "kind" : "externalParam",
        "text" : "pinMessage"
      },
      {
        "kind" : "text",
        "text" : ": "
      },
      {
        "kind" : "typeIdentifier",
        "preciseIdentifier" : "s:15FanapPodChatSDK15PinUnpinMessageC",
        "text" : "PinUnpinMessage"
      },
      {
        "kind" : "text",
        "text" : ", "
      },
      {
        "kind" : "externalParam",
        "text" : "resultEntity"
      },
      {
        "kind" : "text",
        "text" : ": (("
      },
      {
        "kind" : "typeIdentifier",
        "preciseIdentifier" : "c:@M@FanapPodChatSDK@objc(cs)CMPinMessage",
        "text" : "CMPinMessage"
      },
      {
        "kind" : "text",
        "text" : ") -> ())?)"
      }
    ],
    "modules" : [
      {
        "name" : "FanapPodChatSDK"
      }
    ],
    "role" : "symbol",
    "roleHeading" : "Type Method",
    "symbolKind" : "method",
    "title" : "insertOrUpdate(pinMessage:resultEntity:)"
  },
  "primaryContentSections" : [
    {
      "declarations" : [
        {
          "languages" : [
            "swift"
          ],
          "platforms" : [
            "macOS"
          ],
          "tokens" : [
            {
              "kind" : "keyword",
              "text" : "class"
            },
            {
              "kind" : "text",
              "text" : " "
            },
            {
              "kind" : "keyword",
              "text" : "func"
            },
            {
              "kind" : "text",
              "text" : " "
            },
            {
              "kind" : "identifier",
              "text" : "insertOrUpdate"
            },
            {
              "kind" : "text",
              "text" : "("
            },
            {
              "kind" : "externalParam",
              "text" : "pinMessage"
            },
            {
              "kind" : "text",
              "text" : ": "
            },
            {
              "identifier" : "doc:\/\/FanapPodChatSDK\/documentation\/FanapPodChatSDK\/PinUnpinMessage",
              "kind" : "typeIdentifier",
              "preciseIdentifier" : "s:15FanapPodChatSDK15PinUnpinMessageC",
              "text" : "PinUnpinMessage"
            },
            {
              "kind" : "text",
              "text" : ", "
            },
            {
              "kind" : "externalParam",
              "text" : "resultEntity"
            },
            {
              "kind" : "text",
              "text" : ": (("
            },
            {
              "identifier" : "doc:\/\/FanapPodChatSDK\/documentation\/FanapPodChatSDK\/CMPinMessage",
              "kind" : "typeIdentifier",
              "preciseIdentifier" : "c:@M@FanapPodChatSDK@objc(cs)CMPinMessage",
              "text" : "CMPinMessage"
            },
            {
              "kind" : "text",
              "text" : ") -> ())? = nil)"
            }
          ]
        }
      ],
      "kind" : "declarations"
    }
  ],
  "schemaVersion" : {
    "major" : 0,
    "minor" : 3,
    "patch" : 0
  },
  "sections" : [

  ],
  "variants" : [
    {
      "paths" : [
        "\/documentation\/fanappodchatsdk\/cmpinmessage\/insertorupdate(pinmessage:resultentity:)"
      ],
      "traits" : [
        {
          "interfaceLanguage" : "swift"
        }
      ]
    }
  ]
, 
"references": {
"doc://FanapPodChatSDK/documentation/FanapPodChatSDK": {
  "abstract" : [
    {
      "text" : "With Fanap Chat SDK you could connect to the chat server without managing the socket state and send or receive messages.",
      "type" : "text"
    }
  ],
  "identifier" : "doc:\/\/FanapPodChatSDK\/documentation\/FanapPodChatSDK",
  "kind" : "symbol",
  "role" : "collection",
  "title" : "FanapPodChatSDK",
  "type" : "topic",
  "url" : "\/documentation\/fanappodchatsdk"
},
"doc://FanapPodChatSDK/documentation/FanapPodChatSDK/CMPinMessage": {
  "abstract" : [

  ],
  "fragments" : [
    {
      "kind" : "keyword",
      "text" : "class"
    },
    {
      "kind" : "text",
      "text" : " "
    },
    {
      "kind" : "identifier",
      "text" : "CMPinMessage"
    }
  ],
  "identifier" : "doc:\/\/FanapPodChatSDK\/documentation\/FanapPodChatSDK\/CMPinMessage",
  "kind" : "symbol",
  "navigatorTitle" : [
    {
      "kind" : "identifier",
      "text" : "CMPinMessage"
    }
  ],
  "role" : "symbol",
  "title" : "CMPinMessage",
  "type" : "topic",
  "url" : "\/documentation\/fanappodchatsdk\/cmpinmessage"
},
"doc://FanapPodChatSDK/documentation/FanapPodChatSDK/CMPinMessage/insertOrUpdate(pinMessage:resultEntity:)": {
  "abstract" : [

  ],
  "fragments" : [
    {
      "kind" : "keyword",
      "text" : "class"
    },
    {
      "kind" : "text",
      "text" : " "
    },
    {
      "kind" : "keyword",
      "text" : "func"
    },
    {
      "kind" : "text",
      "text" : " "
    },
    {
      "kind" : "identifier",
      "text" : "insertOrUpdate"
    },
    {
      "kind" : "text",
      "text" : "("
    },
    {
      "kind" : "externalParam",
      "text" : "pinMessage"
    },
    {
      "kind" : "text",
      "text" : ": "
    },
    {
      "kind" : "typeIdentifier",
      "preciseIdentifier" : "s:15FanapPodChatSDK15PinUnpinMessageC",
      "text" : "PinUnpinMessage"
    },
    {
      "kind" : "text",
      "text" : ", "
    },
    {
      "kind" : "externalParam",
      "text" : "resultEntity"
    },
    {
      "kind" : "text",
      "text" : ": (("
    },
    {
      "kind" : "typeIdentifier",
      "preciseIdentifier" : "c:@M@FanapPodChatSDK@objc(cs)CMPinMessage",
      "text" : "CMPinMessage"
    },
    {
      "kind" : "text",
      "text" : ") -> ())?)"
    }
  ],
  "identifier" : "doc:\/\/FanapPodChatSDK\/documentation\/FanapPodChatSDK\/CMPinMessage\/insertOrUpdate(pinMessage:resultEntity:)",
  "kind" : "symbol",
  "role" : "symbol",
  "title" : "insertOrUpdate(pinMessage:resultEntity:)",
  "type" : "topic",
  "url" : "\/documentation\/fanappodchatsdk\/cmpinmessage\/insertorupdate(pinmessage:resultentity:)"
},
"doc://FanapPodChatSDK/documentation/FanapPodChatSDK/PinUnpinMessage": {
  "abstract" : [

  ],
  "fragments" : [
    {
      "kind" : "keyword",
      "text" : "class"
    },
    {
      "kind" : "text",
      "text" : " "
    },
    {
      "kind" : "identifier",
      "text" : "PinUnpinMessage"
    }
  ],
  "identifier" : "doc:\/\/FanapPodChatSDK\/documentation\/FanapPodChatSDK\/PinUnpinMessage",
  "kind" : "symbol",
  "navigatorTitle" : [
    {
      "kind" : "identifier",
      "text" : "PinUnpinMessage"
    }
  ],
  "role" : "symbol",
  "title" : "PinUnpinMessage",
  "type" : "topic",
  "url" : "\/documentation\/fanappodchatsdk\/pinunpinmessage"
}
}
}