{
  "hierarchy" : {
    "paths" : [
      [
        "doc:\/\/FanapPodChatSDK\/documentation\/FanapPodChatSDK",
        "doc:\/\/FanapPodChatSDK\/documentation\/FanapPodChatSDK\/RemoveTagParticipantsRequest"
      ]
    ]
  },
  "identifier" : {
    "interfaceLanguage" : "swift",
    "url" : "doc:\/\/FanapPodChatSDK\/documentation\/FanapPodChatSDK\/RemoveTagParticipantsRequest\/tagParticipants"
  },
  "kind" : "symbol",
  "metadata" : {
    "externalID" : "s:15FanapPodChatSDK28RemoveTagParticipantsRequestC03tagG0SayAA0F11ParticipantVGvp",
    "fragments" : [
      {
        "kind" : "keyword",
        "text" : "var"
      },
      {
        "kind" : "text",
        "text" : " "
      },
      {
        "kind" : "identifier",
        "text" : "tagParticipants"
      },
      {
        "kind" : "text",
        "text" : ": ["
      },
      {
        "kind" : "typeIdentifier",
        "preciseIdentifier" : "s:15FanapPodChatSDK14TagParticipantV",
        "text" : "TagParticipant"
      },
      {
        "kind" : "text",
        "text" : "]"
      }
    ],
    "modules" : [
      {
        "name" : "FanapPodChatSDK"
      }
    ],
    "role" : "symbol",
    "roleHeading" : "Instance Property",
    "symbolKind" : "property",
    "title" : "tagParticipants"
  },
  "primaryContentSections" : [
    {
      "declarations" : [
        {
          "languages" : [
            "swift"
          ],
          "platforms" : [
            "macOS"
          ],
          "tokens" : [
            {
              "kind" : "keyword",
              "text" : "var"
            },
            {
              "kind" : "text",
              "text" : " "
            },
            {
              "kind" : "identifier",
              "text" : "tagParticipants"
            },
            {
              "kind" : "text",
              "text" : ": ["
            },
            {
              "identifier" : "doc:\/\/FanapPodChatSDK\/documentation\/FanapPodChatSDK\/TagParticipant",
              "kind" : "typeIdentifier",
              "preciseIdentifier" : "s:15FanapPodChatSDK14TagParticipantV",
              "text" : "TagParticipant"
            },
            {
              "kind" : "text",
              "text" : "]"
            }
          ]
        }
      ],
      "kind" : "declarations"
    }
  ],
  "schemaVersion" : {
    "major" : 0,
    "minor" : 3,
    "patch" : 0
  },
  "sections" : [

  ],
  "variants" : [
    {
      "paths" : [
        "\/documentation\/fanappodchatsdk\/removetagparticipantsrequest\/tagparticipants"
      ],
      "traits" : [
        {
          "interfaceLanguage" : "swift"
        }
      ]
    }
  ]
, 
"references": {
"doc://FanapPodChatSDK/documentation/FanapPodChatSDK": {
  "abstract" : [
    {
      "text" : "With Fanap Chat SDK you could connect to the chat server without managing the socket state and send or receive messages.",
      "type" : "text"
    }
  ],
  "identifier" : "doc:\/\/FanapPodChatSDK\/documentation\/FanapPodChatSDK",
  "kind" : "symbol",
  "role" : "collection",
  "title" : "FanapPodChatSDK",
  "type" : "topic",
  "url" : "\/documentation\/fanappodchatsdk"
},
"doc://FanapPodChatSDK/documentation/FanapPodChatSDK/RemoveTagParticipantsRequest": {
  "abstract" : [

  ],
  "fragments" : [
    {
      "kind" : "keyword",
      "text" : "class"
    },
    {
      "kind" : "text",
      "text" : " "
    },
    {
      "kind" : "identifier",
      "text" : "RemoveTagParticipantsRequest"
    }
  ],
  "identifier" : "doc:\/\/FanapPodChatSDK\/documentation\/FanapPodChatSDK\/RemoveTagParticipantsRequest",
  "kind" : "symbol",
  "navigatorTitle" : [
    {
      "kind" : "identifier",
      "text" : "RemoveTagParticipantsRequest"
    }
  ],
  "role" : "symbol",
  "title" : "RemoveTagParticipantsRequest",
  "type" : "topic",
  "url" : "\/documentation\/fanappodchatsdk\/removetagparticipantsrequest"
},
"doc://FanapPodChatSDK/documentation/FanapPodChatSDK/RemoveTagParticipantsRequest/tagParticipants": {
  "abstract" : [

  ],
  "fragments" : [
    {
      "kind" : "keyword",
      "text" : "var"
    },
    {
      "kind" : "text",
      "text" : " "
    },
    {
      "kind" : "identifier",
      "text" : "tagParticipants"
    },
    {
      "kind" : "text",
      "text" : ": ["
    },
    {
      "kind" : "typeIdentifier",
      "preciseIdentifier" : "s:15FanapPodChatSDK14TagParticipantV",
      "text" : "TagParticipant"
    },
    {
      "kind" : "text",
      "text" : "]"
    }
  ],
  "identifier" : "doc:\/\/FanapPodChatSDK\/documentation\/FanapPodChatSDK\/RemoveTagParticipantsRequest\/tagParticipants",
  "kind" : "symbol",
  "role" : "symbol",
  "title" : "tagParticipants",
  "type" : "topic",
  "url" : "\/documentation\/fanappodchatsdk\/removetagparticipantsrequest\/tagparticipants"
},
"doc://FanapPodChatSDK/documentation/FanapPodChatSDK/TagParticipant": {
  "abstract" : [

  ],
  "fragments" : [
    {
      "kind" : "keyword",
      "text" : "struct"
    },
    {
      "kind" : "text",
      "text" : " "
    },
    {
      "kind" : "identifier",
      "text" : "TagParticipant"
    }
  ],
  "identifier" : "doc:\/\/FanapPodChatSDK\/documentation\/FanapPodChatSDK\/TagParticipant",
  "kind" : "symbol",
  "navigatorTitle" : [
    {
      "kind" : "identifier",
      "text" : "TagParticipant"
    }
  ],
  "role" : "symbol",
  "title" : "TagParticipant",
  "type" : "topic",
  "url" : "\/documentation\/fanappodchatsdk\/tagparticipant"
}
}
}