{
  "hierarchy" : {
    "paths" : [
      [
        "doc:\/\/FanapPodChatSDK\/documentation\/FanapPodChatSDK",
        "doc:\/\/FanapPodChatSDK\/documentation\/FanapPodChatSDK\/BotEventTypes"
      ]
    ]
  },
  "identifier" : {
    "interfaceLanguage" : "swift",
    "url" : "doc:\/\/FanapPodChatSDK\/documentation\/FanapPodChatSDK\/BotEventTypes\/CREATE_BOT_COMMAND(_:)"
  },
  "kind" : "symbol",
  "metadata" : {
    "externalID" : "s:15FanapPodChatSDK13BotEventTypesO18CREATE_BOT_COMMANDyAcA0E4InfoCcACmF",
    "fragments" : [
      {
        "kind" : "keyword",
        "text" : "case"
      },
      {
        "kind" : "text",
        "text" : " "
      },
      {
        "kind" : "identifier",
        "text" : "CREATE_BOT_COMMAND"
      },
      {
        "kind" : "text",
        "text" : "("
      },
      {
        "kind" : "typeIdentifier",
        "preciseIdentifier" : "s:15FanapPodChatSDK7BotInfoC",
        "text" : "BotInfo"
      },
      {
        "kind" : "text",
        "text" : ")"
      }
    ],
    "modules" : [
      {
        "name" : "FanapPodChatSDK"
      }
    ],
    "role" : "symbol",
    "roleHeading" : "Case",
    "symbolKind" : "case",
    "title" : "BotEventTypes.CREATE_BOT_COMMAND(_:)"
  },
  "primaryContentSections" : [
    {
      "declarations" : [
        {
          "languages" : [
            "swift"
          ],
          "platforms" : [
            "macOS"
          ],
          "tokens" : [
            {
              "kind" : "keyword",
              "text" : "case"
            },
            {
              "kind" : "text",
              "text" : " "
            },
            {
              "kind" : "identifier",
              "text" : "CREATE_BOT_COMMAND"
            },
            {
              "kind" : "text",
              "text" : "("
            },
            {
              "identifier" : "doc:\/\/FanapPodChatSDK\/documentation\/FanapPodChatSDK\/BotInfo",
              "kind" : "typeIdentifier",
              "preciseIdentifier" : "s:15FanapPodChatSDK7BotInfoC",
              "text" : "BotInfo"
            },
            {
              "kind" : "text",
              "text" : ")"
            }
          ]
        }
      ],
      "kind" : "declarations"
    }
  ],
  "schemaVersion" : {
    "major" : 0,
    "minor" : 3,
    "patch" : 0
  },
  "sections" : [

  ],
  "variants" : [
    {
      "paths" : [
        "\/documentation\/fanappodchatsdk\/boteventtypes\/create_bot_command(_:)"
      ],
      "traits" : [
        {
          "interfaceLanguage" : "swift"
        }
      ]
    }
  ]
, 
"references": {
"doc://FanapPodChatSDK/documentation/FanapPodChatSDK": {
  "abstract" : [
    {
      "text" : "With Fanap Chat SDK you could connect to the chat server without managing the socket state and send or receive messages.",
      "type" : "text"
    }
  ],
  "identifier" : "doc:\/\/FanapPodChatSDK\/documentation\/FanapPodChatSDK",
  "kind" : "symbol",
  "role" : "collection",
  "title" : "FanapPodChatSDK",
  "type" : "topic",
  "url" : "\/documentation\/fanappodchatsdk"
},
"doc://FanapPodChatSDK/documentation/FanapPodChatSDK/BotEventTypes": {
  "abstract" : [

  ],
  "fragments" : [
    {
      "kind" : "keyword",
      "text" : "enum"
    },
    {
      "kind" : "text",
      "text" : " "
    },
    {
      "kind" : "identifier",
      "text" : "BotEventTypes"
    }
  ],
  "identifier" : "doc:\/\/FanapPodChatSDK\/documentation\/FanapPodChatSDK\/BotEventTypes",
  "kind" : "symbol",
  "navigatorTitle" : [
    {
      "kind" : "identifier",
      "text" : "BotEventTypes"
    }
  ],
  "role" : "symbol",
  "title" : "BotEventTypes",
  "type" : "topic",
  "url" : "\/documentation\/fanappodchatsdk\/boteventtypes"
},
"doc://FanapPodChatSDK/documentation/FanapPodChatSDK/BotEventTypes/CREATE_BOT_COMMAND(_:)": {
  "abstract" : [

  ],
  "fragments" : [
    {
      "kind" : "keyword",
      "text" : "case"
    },
    {
      "kind" : "text",
      "text" : " "
    },
    {
      "kind" : "identifier",
      "text" : "CREATE_BOT_COMMAND"
    },
    {
      "kind" : "text",
      "text" : "("
    },
    {
      "kind" : "typeIdentifier",
      "preciseIdentifier" : "s:15FanapPodChatSDK7BotInfoC",
      "text" : "BotInfo"
    },
    {
      "kind" : "text",
      "text" : ")"
    }
  ],
  "identifier" : "doc:\/\/FanapPodChatSDK\/documentation\/FanapPodChatSDK\/BotEventTypes\/CREATE_BOT_COMMAND(_:)",
  "kind" : "symbol",
  "role" : "symbol",
  "title" : "BotEventTypes.CREATE_BOT_COMMAND(_:)",
  "type" : "topic",
  "url" : "\/documentation\/fanappodchatsdk\/boteventtypes\/create_bot_command(_:)"
},
"doc://FanapPodChatSDK/documentation/FanapPodChatSDK/BotInfo": {
  "abstract" : [
    {
      "text" : "Bot more information.",
      "type" : "text"
    }
  ],
  "fragments" : [
    {
      "kind" : "keyword",
      "text" : "class"
    },
    {
      "kind" : "text",
      "text" : " "
    },
    {
      "kind" : "identifier",
      "text" : "BotInfo"
    }
  ],
  "identifier" : "doc:\/\/FanapPodChatSDK\/documentation\/FanapPodChatSDK\/BotInfo",
  "kind" : "symbol",
  "navigatorTitle" : [
    {
      "kind" : "identifier",
      "text" : "BotInfo"
    }
  ],
  "role" : "symbol",
  "title" : "BotInfo",
  "type" : "topic",
  "url" : "\/documentation\/fanappodchatsdk\/botinfo"
}
}
}