{
  "hierarchy" : {
    "paths" : [
      [
        "doc:\/\/FanapPodChatSDK\/documentation\/FanapPodChatSDK",
        "doc:\/\/FanapPodChatSDK\/documentation\/FanapPodChatSDK\/QueueOfUploadFiles"
      ]
    ]
  },
  "identifier" : {
    "interfaceLanguage" : "swift",
    "url" : "doc:\/\/FanapPodChatSDK\/documentation\/FanapPodChatSDK\/QueueOfUploadFiles\/crud"
  },
  "kind" : "symbol",
  "metadata" : {
    "extendedModule" : "FanapPodChatSDK",
    "externalID" : "s:15FanapPodChatSDK18QueueOfUploadFilesC4crudAA12CoreDataCrudCyACGvpZ",
    "fragments" : [
      {
        "kind" : "keyword",
        "text" : "static"
      },
      {
        "kind" : "text",
        "text" : " "
      },
      {
        "kind" : "keyword",
        "text" : "let"
      },
      {
        "kind" : "text",
        "text" : " "
      },
      {
        "kind" : "identifier",
        "text" : "crud"
      },
      {
        "kind" : "text",
        "text" : ": "
      },
      {
        "kind" : "typeIdentifier",
        "preciseIdentifier" : "s:15FanapPodChatSDK12CoreDataCrudC",
        "text" : "CoreDataCrud"
      },
      {
        "kind" : "text",
        "text" : "<"
      },
      {
        "kind" : "typeIdentifier",
        "preciseIdentifier" : "c:@M@FanapPodChatSDK@objc(cs)QueueOfUploadFiles",
        "text" : "QueueOfUploadFiles"
      },
      {
        "kind" : "text",
        "text" : ">"
      }
    ],
    "modules" : [
      {
        "name" : "FanapPodChatSDK"
      }
    ],
    "role" : "symbol",
    "roleHeading" : "Type Property",
    "symbolKind" : "property",
    "title" : "crud"
  },
  "primaryContentSections" : [
    {
      "declarations" : [
        {
          "languages" : [
            "swift"
          ],
          "platforms" : [
            "macOS"
          ],
          "tokens" : [
            {
              "kind" : "keyword",
              "text" : "static"
            },
            {
              "kind" : "text",
              "text" : " "
            },
            {
              "kind" : "keyword",
              "text" : "let"
            },
            {
              "kind" : "text",
              "text" : " "
            },
            {
              "kind" : "identifier",
              "text" : "crud"
            },
            {
              "kind" : "text",
              "text" : ": "
            },
            {
              "identifier" : "doc:\/\/FanapPodChatSDK\/documentation\/FanapPodChatSDK\/CoreDataCrud",
              "kind" : "typeIdentifier",
              "preciseIdentifier" : "s:15FanapPodChatSDK12CoreDataCrudC",
              "text" : "CoreDataCrud"
            },
            {
              "kind" : "text",
              "text" : "<"
            },
            {
              "identifier" : "doc:\/\/FanapPodChatSDK\/documentation\/FanapPodChatSDK\/QueueOfUploadFiles",
              "kind" : "typeIdentifier",
              "preciseIdentifier" : "c:@M@FanapPodChatSDK@objc(cs)QueueOfUploadFiles",
              "text" : "QueueOfUploadFiles"
            },
            {
              "kind" : "text",
              "text" : ">"
            }
          ]
        }
      ],
      "kind" : "declarations"
    }
  ],
  "schemaVersion" : {
    "major" : 0,
    "minor" : 3,
    "patch" : 0
  },
  "sections" : [

  ],
  "variants" : [
    {
      "paths" : [
        "\/documentation\/fanappodchatsdk\/queueofuploadfiles\/crud"
      ],
      "traits" : [
        {
          "interfaceLanguage" : "swift"
        }
      ]
    }
  ]
, 
"references": {
"doc://FanapPodChatSDK/documentation/FanapPodChatSDK": {
  "abstract" : [
    {
      "text" : "With Fanap Chat SDK you could connect to the chat server without managing the socket state and send or receive messages.",
      "type" : "text"
    }
  ],
  "identifier" : "doc:\/\/FanapPodChatSDK\/documentation\/FanapPodChatSDK",
  "kind" : "symbol",
  "role" : "collection",
  "title" : "FanapPodChatSDK",
  "type" : "topic",
  "url" : "\/documentation\/fanappodchatsdk"
},
"doc://FanapPodChatSDK/documentation/FanapPodChatSDK/CoreDataCrud": {
  "abstract" : [

  ],
  "fragments" : [
    {
      "kind" : "keyword",
      "text" : "class"
    },
    {
      "kind" : "text",
      "text" : " "
    },
    {
      "kind" : "identifier",
      "text" : "CoreDataCrud"
    }
  ],
  "identifier" : "doc:\/\/FanapPodChatSDK\/documentation\/FanapPodChatSDK\/CoreDataCrud",
  "kind" : "symbol",
  "navigatorTitle" : [
    {
      "kind" : "identifier",
      "text" : "CoreDataCrud"
    }
  ],
  "role" : "symbol",
  "title" : "CoreDataCrud",
  "type" : "topic",
  "url" : "\/documentation\/fanappodchatsdk\/coredatacrud"
},
"doc://FanapPodChatSDK/documentation/FanapPodChatSDK/QueueOfUploadFiles": {
  "abstract" : [

  ],
  "fragments" : [
    {
      "kind" : "keyword",
      "text" : "class"
    },
    {
      "kind" : "text",
      "text" : " "
    },
    {
      "kind" : "identifier",
      "text" : "QueueOfUploadFiles"
    }
  ],
  "identifier" : "doc:\/\/FanapPodChatSDK\/documentation\/FanapPodChatSDK\/QueueOfUploadFiles",
  "kind" : "symbol",
  "navigatorTitle" : [
    {
      "kind" : "identifier",
      "text" : "QueueOfUploadFiles"
    }
  ],
  "role" : "symbol",
  "title" : "QueueOfUploadFiles",
  "type" : "topic",
  "url" : "\/documentation\/fanappodchatsdk\/queueofuploadfiles"
},
"doc://FanapPodChatSDK/documentation/FanapPodChatSDK/QueueOfUploadFiles/crud": {
  "abstract" : [

  ],
  "fragments" : [
    {
      "kind" : "keyword",
      "text" : "static"
    },
    {
      "kind" : "text",
      "text" : " "
    },
    {
      "kind" : "keyword",
      "text" : "let"
    },
    {
      "kind" : "text",
      "text" : " "
    },
    {
      "kind" : "identifier",
      "text" : "crud"
    },
    {
      "kind" : "text",
      "text" : ": "
    },
    {
      "kind" : "typeIdentifier",
      "preciseIdentifier" : "s:15FanapPodChatSDK12CoreDataCrudC",
      "text" : "CoreDataCrud"
    },
    {
      "kind" : "text",
      "text" : "<"
    },
    {
      "kind" : "typeIdentifier",
      "preciseIdentifier" : "c:@M@FanapPodChatSDK@objc(cs)QueueOfUploadFiles",
      "text" : "QueueOfUploadFiles"
    },
    {
      "kind" : "text",
      "text" : ">"
    }
  ],
  "identifier" : "doc:\/\/FanapPodChatSDK\/documentation\/FanapPodChatSDK\/QueueOfUploadFiles\/crud",
  "kind" : "symbol",
  "role" : "symbol",
  "title" : "crud",
  "type" : "topic",
  "url" : "\/documentation\/fanappodchatsdk\/queueofuploadfiles\/crud"
}
}
}