{
  "hierarchy" : {
    "paths" : [
      [
        "doc:\/\/FanapPodChatSDK\/documentation\/FanapPodChatSDK",
        "doc:\/\/FanapPodChatSDK\/documentation\/FanapPodChatSDK\/CacheFactory",
        "doc:\/\/FanapPodChatSDK\/documentation\/FanapPodChatSDK\/CacheFactory\/WriteCacheType"
      ]
    ]
  },
  "identifier" : {
    "interfaceLanguage" : "swift",
    "url" : "doc:\/\/FanapPodChatSDK\/documentation\/FanapPodChatSDK\/CacheFactory\/WriteCacheType\/INSERT_OR_UPDATE_ASSISTANTS(_:)"
  },
  "kind" : "symbol",
  "metadata" : {
    "externalID" : "s:15FanapPodChatSDK12CacheFactoryC05WriteE4TypeO27INSERT_OR_UPDATE_ASSISTANTSyAESayAA9AssistantCGcAEmF",
    "fragments" : [
      {
        "kind" : "keyword",
        "text" : "case"
      },
      {
        "kind" : "text",
        "text" : " "
      },
      {
        "kind" : "identifier",
        "text" : "INSERT_OR_UPDATE_ASSISTANTS"
      },
      {
        "kind" : "text",
        "text" : "(["
      },
      {
        "kind" : "typeIdentifier",
        "preciseIdentifier" : "s:15FanapPodChatSDK9AssistantC",
        "text" : "Assistant"
      },
      {
        "kind" : "text",
        "text" : "])"
      }
    ],
    "modules" : [
      {
        "name" : "FanapPodChatSDK"
      }
    ],
    "role" : "symbol",
    "roleHeading" : "Case",
    "symbolKind" : "case",
    "title" : "CacheFactory.WriteCacheType.INSERT_OR_UPDATE_ASSISTANTS(_:)"
  },
  "primaryContentSections" : [
    {
      "declarations" : [
        {
          "languages" : [
            "swift"
          ],
          "platforms" : [
            "macOS"
          ],
          "tokens" : [
            {
              "kind" : "keyword",
              "text" : "case"
            },
            {
              "kind" : "text",
              "text" : " "
            },
            {
              "kind" : "identifier",
              "text" : "INSERT_OR_UPDATE_ASSISTANTS"
            },
            {
              "kind" : "text",
              "text" : "("
            },
            {
              "kind" : "externalParam",
              "text" : "_"
            },
            {
              "kind" : "text",
              "text" : ": ["
            },
            {
              "identifier" : "doc:\/\/FanapPodChatSDK\/documentation\/FanapPodChatSDK\/Assistant",
              "kind" : "typeIdentifier",
              "preciseIdentifier" : "s:15FanapPodChatSDK9AssistantC",
              "text" : "Assistant"
            },
            {
              "kind" : "text",
              "text" : "])"
            }
          ]
        }
      ],
      "kind" : "declarations"
    }
  ],
  "schemaVersion" : {
    "major" : 0,
    "minor" : 3,
    "patch" : 0
  },
  "sections" : [

  ],
  "variants" : [
    {
      "paths" : [
        "\/documentation\/fanappodchatsdk\/cachefactory\/writecachetype\/insert_or_update_assistants(_:)"
      ],
      "traits" : [
        {
          "interfaceLanguage" : "swift"
        }
      ]
    }
  ]
, 
"references": {
"doc://FanapPodChatSDK/documentation/FanapPodChatSDK": {
  "abstract" : [
    {
      "text" : "With Fanap Chat SDK you could connect to the chat server without managing the socket state and send or receive messages.",
      "type" : "text"
    }
  ],
  "identifier" : "doc:\/\/FanapPodChatSDK\/documentation\/FanapPodChatSDK",
  "kind" : "symbol",
  "role" : "collection",
  "title" : "FanapPodChatSDK",
  "type" : "topic",
  "url" : "\/documentation\/fanappodchatsdk"
},
"doc://FanapPodChatSDK/documentation/FanapPodChatSDK/Assistant": {
  "abstract" : [

  ],
  "fragments" : [
    {
      "kind" : "keyword",
      "text" : "class"
    },
    {
      "kind" : "text",
      "text" : " "
    },
    {
      "kind" : "identifier",
      "text" : "Assistant"
    }
  ],
  "identifier" : "doc:\/\/FanapPodChatSDK\/documentation\/FanapPodChatSDK\/Assistant",
  "kind" : "symbol",
  "navigatorTitle" : [
    {
      "kind" : "identifier",
      "text" : "Assistant"
    }
  ],
  "role" : "symbol",
  "title" : "Assistant",
  "type" : "topic",
  "url" : "\/documentation\/fanappodchatsdk\/assistant"
},
"doc://FanapPodChatSDK/documentation/FanapPodChatSDK/CacheFactory": {
  "abstract" : [

  ],
  "fragments" : [
    {
      "kind" : "keyword",
      "text" : "class"
    },
    {
      "kind" : "text",
      "text" : " "
    },
    {
      "kind" : "identifier",
      "text" : "CacheFactory"
    }
  ],
  "identifier" : "doc:\/\/FanapPodChatSDK\/documentation\/FanapPodChatSDK\/CacheFactory",
  "kind" : "symbol",
  "navigatorTitle" : [
    {
      "kind" : "identifier",
      "text" : "CacheFactory"
    }
  ],
  "role" : "symbol",
  "title" : "CacheFactory",
  "type" : "topic",
  "url" : "\/documentation\/fanappodchatsdk\/cachefactory"
},
"doc://FanapPodChatSDK/documentation/FanapPodChatSDK/CacheFactory/WriteCacheType": {
  "abstract" : [

  ],
  "fragments" : [
    {
      "kind" : "keyword",
      "text" : "enum"
    },
    {
      "kind" : "text",
      "text" : " "
    },
    {
      "kind" : "identifier",
      "text" : "WriteCacheType"
    }
  ],
  "identifier" : "doc:\/\/FanapPodChatSDK\/documentation\/FanapPodChatSDK\/CacheFactory\/WriteCacheType",
  "kind" : "symbol",
  "navigatorTitle" : [
    {
      "kind" : "identifier",
      "text" : "WriteCacheType"
    }
  ],
  "role" : "symbol",
  "title" : "CacheFactory.WriteCacheType",
  "type" : "topic",
  "url" : "\/documentation\/fanappodchatsdk\/cachefactory\/writecachetype"
},
"doc://FanapPodChatSDK/documentation/FanapPodChatSDK/CacheFactory/WriteCacheType/INSERT_OR_UPDATE_ASSISTANTS(_:)": {
  "abstract" : [

  ],
  "fragments" : [
    {
      "kind" : "keyword",
      "text" : "case"
    },
    {
      "kind" : "text",
      "text" : " "
    },
    {
      "kind" : "identifier",
      "text" : "INSERT_OR_UPDATE_ASSISTANTS"
    },
    {
      "kind" : "text",
      "text" : "(["
    },
    {
      "kind" : "typeIdentifier",
      "preciseIdentifier" : "s:15FanapPodChatSDK9AssistantC",
      "text" : "Assistant"
    },
    {
      "kind" : "text",
      "text" : "])"
    }
  ],
  "identifier" : "doc:\/\/FanapPodChatSDK\/documentation\/FanapPodChatSDK\/CacheFactory\/WriteCacheType\/INSERT_OR_UPDATE_ASSISTANTS(_:)",
  "kind" : "symbol",
  "role" : "symbol",
  "title" : "CacheFactory.WriteCacheType.INSERT_OR_UPDATE_ASSISTANTS(_:)",
  "type" : "topic",
  "url" : "\/documentation\/fanappodchatsdk\/cachefactory\/writecachetype\/insert_or_update_assistants(_:)"
}
}
}