{
  "hierarchy" : {
    "paths" : [
      [
        "doc:\/\/FanapPodChatSDK\/documentation\/FanapPodChatSDK",
        "doc:\/\/FanapPodChatSDK\/documentation\/FanapPodChatSDK\/CacheFactory",
        "doc:\/\/FanapPodChatSDK\/documentation\/FanapPodChatSDK\/CacheFactory\/WriteCacheType"
      ]
    ]
  },
  "identifier" : {
    "interfaceLanguage" : "swift",
    "url" : "doc:\/\/FanapPodChatSDK\/documentation\/FanapPodChatSDK\/CacheFactory\/WriteCacheType\/SEND_FILE_MESSAGE_QUEUE(_:_:)"
  },
  "kind" : "symbol",
  "metadata" : {
    "externalID" : "s:15FanapPodChatSDK12CacheFactoryC05WriteE4TypeO23SEND_FILE_MESSAGE_QUEUEyAeA17UploadFileRequestC_AA015SendTextMessageO0CtcAEmF",
    "fragments" : [
      {
        "kind" : "keyword",
        "text" : "case"
      },
      {
        "kind" : "text",
        "text" : " "
      },
      {
        "kind" : "identifier",
        "text" : "SEND_FILE_MESSAGE_QUEUE"
      },
      {
        "kind" : "text",
        "text" : "("
      },
      {
        "kind" : "typeIdentifier",
        "preciseIdentifier" : "s:15FanapPodChatSDK17UploadFileRequestC",
        "text" : "UploadFileRequest"
      },
      {
        "kind" : "text",
        "text" : ", "
      },
      {
        "kind" : "typeIdentifier",
        "preciseIdentifier" : "s:15FanapPodChatSDK22SendTextMessageRequestC",
        "text" : "SendTextMessageRequest"
      },
      {
        "kind" : "text",
        "text" : ")"
      }
    ],
    "modules" : [
      {
        "name" : "FanapPodChatSDK"
      }
    ],
    "role" : "symbol",
    "roleHeading" : "Case",
    "symbolKind" : "case",
    "title" : "CacheFactory.WriteCacheType.SEND_FILE_MESSAGE_QUEUE(_:_:)"
  },
  "primaryContentSections" : [
    {
      "declarations" : [
        {
          "languages" : [
            "swift"
          ],
          "platforms" : [
            "macOS"
          ],
          "tokens" : [
            {
              "kind" : "keyword",
              "text" : "case"
            },
            {
              "kind" : "text",
              "text" : " "
            },
            {
              "kind" : "identifier",
              "text" : "SEND_FILE_MESSAGE_QUEUE"
            },
            {
              "kind" : "text",
              "text" : "("
            },
            {
              "kind" : "externalParam",
              "text" : "_"
            },
            {
              "kind" : "text",
              "text" : ": "
            },
            {
              "identifier" : "doc:\/\/FanapPodChatSDK\/documentation\/FanapPodChatSDK\/UploadFileRequest",
              "kind" : "typeIdentifier",
              "preciseIdentifier" : "s:15FanapPodChatSDK17UploadFileRequestC",
              "text" : "UploadFileRequest"
            },
            {
              "kind" : "text",
              "text" : ", "
            },
            {
              "kind" : "externalParam",
              "text" : "_"
            },
            {
              "kind" : "text",
              "text" : ": "
            },
            {
              "identifier" : "doc:\/\/FanapPodChatSDK\/documentation\/FanapPodChatSDK\/SendTextMessageRequest",
              "kind" : "typeIdentifier",
              "preciseIdentifier" : "s:15FanapPodChatSDK22SendTextMessageRequestC",
              "text" : "SendTextMessageRequest"
            },
            {
              "kind" : "text",
              "text" : ")"
            }
          ]
        }
      ],
      "kind" : "declarations"
    }
  ],
  "schemaVersion" : {
    "major" : 0,
    "minor" : 3,
    "patch" : 0
  },
  "sections" : [

  ],
  "variants" : [
    {
      "paths" : [
        "\/documentation\/fanappodchatsdk\/cachefactory\/writecachetype\/send_file_message_queue(_:_:)"
      ],
      "traits" : [
        {
          "interfaceLanguage" : "swift"
        }
      ]
    }
  ]
, 
"references": {
"doc://FanapPodChatSDK/documentation/FanapPodChatSDK": {
  "abstract" : [
    {
      "text" : "With Fanap Chat SDK you could connect to the chat server without managing the socket state and send or receive messages.",
      "type" : "text"
    }
  ],
  "identifier" : "doc:\/\/FanapPodChatSDK\/documentation\/FanapPodChatSDK",
  "kind" : "symbol",
  "role" : "collection",
  "title" : "FanapPodChatSDK",
  "type" : "topic",
  "url" : "\/documentation\/fanappodchatsdk"
},
"doc://FanapPodChatSDK/documentation/FanapPodChatSDK/CacheFactory": {
  "abstract" : [

  ],
  "fragments" : [
    {
      "kind" : "keyword",
      "text" : "class"
    },
    {
      "kind" : "text",
      "text" : " "
    },
    {
      "kind" : "identifier",
      "text" : "CacheFactory"
    }
  ],
  "identifier" : "doc:\/\/FanapPodChatSDK\/documentation\/FanapPodChatSDK\/CacheFactory",
  "kind" : "symbol",
  "navigatorTitle" : [
    {
      "kind" : "identifier",
      "text" : "CacheFactory"
    }
  ],
  "role" : "symbol",
  "title" : "CacheFactory",
  "type" : "topic",
  "url" : "\/documentation\/fanappodchatsdk\/cachefactory"
},
"doc://FanapPodChatSDK/documentation/FanapPodChatSDK/CacheFactory/WriteCacheType": {
  "abstract" : [

  ],
  "fragments" : [
    {
      "kind" : "keyword",
      "text" : "enum"
    },
    {
      "kind" : "text",
      "text" : " "
    },
    {
      "kind" : "identifier",
      "text" : "WriteCacheType"
    }
  ],
  "identifier" : "doc:\/\/FanapPodChatSDK\/documentation\/FanapPodChatSDK\/CacheFactory\/WriteCacheType",
  "kind" : "symbol",
  "navigatorTitle" : [
    {
      "kind" : "identifier",
      "text" : "WriteCacheType"
    }
  ],
  "role" : "symbol",
  "title" : "CacheFactory.WriteCacheType",
  "type" : "topic",
  "url" : "\/documentation\/fanappodchatsdk\/cachefactory\/writecachetype"
},
"doc://FanapPodChatSDK/documentation/FanapPodChatSDK/CacheFactory/WriteCacheType/SEND_FILE_MESSAGE_QUEUE(_:_:)": {
  "abstract" : [

  ],
  "fragments" : [
    {
      "kind" : "keyword",
      "text" : "case"
    },
    {
      "kind" : "text",
      "text" : " "
    },
    {
      "kind" : "identifier",
      "text" : "SEND_FILE_MESSAGE_QUEUE"
    },
    {
      "kind" : "text",
      "text" : "("
    },
    {
      "kind" : "typeIdentifier",
      "preciseIdentifier" : "s:15FanapPodChatSDK17UploadFileRequestC",
      "text" : "UploadFileRequest"
    },
    {
      "kind" : "text",
      "text" : ", "
    },
    {
      "kind" : "typeIdentifier",
      "preciseIdentifier" : "s:15FanapPodChatSDK22SendTextMessageRequestC",
      "text" : "SendTextMessageRequest"
    },
    {
      "kind" : "text",
      "text" : ")"
    }
  ],
  "identifier" : "doc:\/\/FanapPodChatSDK\/documentation\/FanapPodChatSDK\/CacheFactory\/WriteCacheType\/SEND_FILE_MESSAGE_QUEUE(_:_:)",
  "kind" : "symbol",
  "role" : "symbol",
  "title" : "CacheFactory.WriteCacheType.SEND_FILE_MESSAGE_QUEUE(_:_:)",
  "type" : "topic",
  "url" : "\/documentation\/fanappodchatsdk\/cachefactory\/writecachetype\/send_file_message_queue(_:_:)"
},
"doc://FanapPodChatSDK/documentation/FanapPodChatSDK/SendTextMessageRequest": {
  "abstract" : [

  ],
  "fragments" : [
    {
      "kind" : "keyword",
      "text" : "class"
    },
    {
      "kind" : "text",
      "text" : " "
    },
    {
      "kind" : "identifier",
      "text" : "SendTextMessageRequest"
    }
  ],
  "identifier" : "doc:\/\/FanapPodChatSDK\/documentation\/FanapPodChatSDK\/SendTextMessageRequest",
  "kind" : "symbol",
  "navigatorTitle" : [
    {
      "kind" : "identifier",
      "text" : "SendTextMessageRequest"
    }
  ],
  "role" : "symbol",
  "title" : "SendTextMessageRequest",
  "type" : "topic",
  "url" : "\/documentation\/fanappodchatsdk\/sendtextmessagerequest"
},
"doc://FanapPodChatSDK/documentation/FanapPodChatSDK/UploadFileRequest": {
  "abstract" : [

  ],
  "fragments" : [
    {
      "kind" : "keyword",
      "text" : "class"
    },
    {
      "kind" : "text",
      "text" : " "
    },
    {
      "kind" : "identifier",
      "text" : "UploadFileRequest"
    }
  ],
  "identifier" : "doc:\/\/FanapPodChatSDK\/documentation\/FanapPodChatSDK\/UploadFileRequest",
  "kind" : "symbol",
  "navigatorTitle" : [
    {
      "kind" : "identifier",
      "text" : "UploadFileRequest"
    }
  ],
  "role" : "symbol",
  "title" : "UploadFileRequest",
  "type" : "topic",
  "url" : "\/documentation\/fanappodchatsdk\/uploadfilerequest"
}
}
}