{
  "abstract" : [
    {
      "text" : "Only when can’t decode a type.",
      "type" : "text"
    }
  ],
  "hierarchy" : {
    "paths" : [
      [
        "doc:\/\/FanapPodChatSDK\/documentation\/FanapPodChatSDK",
        "doc:\/\/FanapPodChatSDK\/documentation\/FanapPodChatSDK\/Roles"
      ]
    ]
  },
  "identifier" : {
    "interfaceLanguage" : "swift",
    "url" : "doc:\/\/FanapPodChatSDK\/documentation\/FanapPodChatSDK\/Roles\/UNKNOWN"
  },
  "kind" : "symbol",
  "metadata" : {
    "externalID" : "s:15FanapPodChatSDK5RolesO7UNKNOWNyA2CmF",
    "fragments" : [
      {
        "kind" : "keyword",
        "text" : "case"
      },
      {
        "kind" : "text",
        "text" : " "
      },
      {
        "kind" : "identifier",
        "text" : "UNKNOWN"
      }
    ],
    "modules" : [
      {
        "name" : "FanapPodChatSDK"
      }
    ],
    "role" : "symbol",
    "roleHeading" : "Case",
    "symbolKind" : "case",
    "title" : "Roles.UNKNOWN"
  },
  "primaryContentSections" : [
    {
      "declarations" : [
        {
          "languages" : [
            "swift"
          ],
          "platforms" : [
            "macOS"
          ],
          "tokens" : [
            {
              "kind" : "keyword",
              "text" : "case"
            },
            {
              "kind" : "text",
              "text" : " "
            },
            {
              "kind" : "identifier",
              "text" : "UNKNOWN"
            }
          ]
        }
      ],
      "kind" : "declarations"
    },
    {
      "content" : [
        {
          "anchor" : "discussion",
          "level" : 2,
          "text" : "Discussion",
          "type" : "heading"
        },
        {
          "inlineContent" : [
            {
              "text" : "Do not remove or move this property to the top of the enum, it must be the last enum because it uses ",
              "type" : "text"
            },
            {
              "identifier" : "doc:\/\/FanapPodChatSDK\/documentation\/FanapPodChatSDK\/SafeDecodable",
              "isActive" : true,
              "type" : "reference"
            },
            {
              "text" : " to decode the last item if no match found.",
              "type" : "text"
            }
          ],
          "type" : "paragraph"
        }
      ],
      "kind" : "content"
    }
  ],
  "schemaVersion" : {
    "major" : 0,
    "minor" : 3,
    "patch" : 0
  },
  "sections" : [

  ],
  "variants" : [
    {
      "paths" : [
        "\/documentation\/fanappodchatsdk\/roles\/unknown"
      ],
      "traits" : [
        {
          "interfaceLanguage" : "swift"
        }
      ]
    }
  ]
, 
"references": {
"doc://FanapPodChatSDK/documentation/FanapPodChatSDK": {
  "abstract" : [
    {
      "text" : "With Fanap Chat SDK you could connect to the chat server without managing the socket state and send or receive messages.",
      "type" : "text"
    }
  ],
  "identifier" : "doc:\/\/FanapPodChatSDK\/documentation\/FanapPodChatSDK",
  "kind" : "symbol",
  "role" : "collection",
  "title" : "FanapPodChatSDK",
  "type" : "topic",
  "url" : "\/documentation\/fanappodchatsdk"
},
"doc://FanapPodChatSDK/documentation/FanapPodChatSDK/Roles": {
  "abstract" : [

  ],
  "fragments" : [
    {
      "kind" : "keyword",
      "text" : "enum"
    },
    {
      "kind" : "text",
      "text" : " "
    },
    {
      "kind" : "identifier",
      "text" : "Roles"
    }
  ],
  "identifier" : "doc:\/\/FanapPodChatSDK\/documentation\/FanapPodChatSDK\/Roles",
  "kind" : "symbol",
  "navigatorTitle" : [
    {
      "kind" : "identifier",
      "text" : "Roles"
    }
  ],
  "role" : "symbol",
  "title" : "Roles",
  "type" : "topic",
  "url" : "\/documentation\/fanappodchatsdk\/roles"
},
"doc://FanapPodChatSDK/documentation/FanapPodChatSDK/Roles/UNKNOWN": {
  "abstract" : [
    {
      "text" : "Only when can’t decode a type.",
      "type" : "text"
    }
  ],
  "fragments" : [
    {
      "kind" : "keyword",
      "text" : "case"
    },
    {
      "kind" : "text",
      "text" : " "
    },
    {
      "kind" : "identifier",
      "text" : "UNKNOWN"
    }
  ],
  "identifier" : "doc:\/\/FanapPodChatSDK\/documentation\/FanapPodChatSDK\/Roles\/UNKNOWN",
  "kind" : "symbol",
  "role" : "symbol",
  "title" : "Roles.UNKNOWN",
  "type" : "topic",
  "url" : "\/documentation\/fanappodchatsdk\/roles\/unknown"
},
"doc://FanapPodChatSDK/documentation/FanapPodChatSDK/SafeDecodable": {
  "abstract" : [

  ],
  "fragments" : [
    {
      "kind" : "keyword",
      "text" : "protocol"
    },
    {
      "kind" : "text",
      "text" : " "
    },
    {
      "kind" : "identifier",
      "text" : "SafeDecodable"
    }
  ],
  "identifier" : "doc:\/\/FanapPodChatSDK\/documentation\/FanapPodChatSDK\/SafeDecodable",
  "kind" : "symbol",
  "navigatorTitle" : [
    {
      "kind" : "identifier",
      "text" : "SafeDecodable"
    }
  ],
  "role" : "symbol",
  "title" : "SafeDecodable",
  "type" : "topic",
  "url" : "\/documentation\/fanappodchatsdk\/safedecodable"
}
}
}