{
  "abstract" : [
    {
      "text" : "Inherited from ",
      "type" : "text"
    },
    {
      "code" : "RawRepresentable.hash(into:)",
      "type" : "codeVoice"
    },
    {
      "text" : ".",
      "type" : "text"
    }
  ],
  "hierarchy" : {
    "paths" : [
      [
        "doc:\/\/FanapPodChatSDK\/documentation\/FanapPodChatSDK",
        "doc:\/\/FanapPodChatSDK\/documentation\/FanapPodChatSDK\/RoleOperations",
        "doc:\/\/FanapPodChatSDK\/documentation\/FanapPodChatSDK\/RoleOperations\/RawRepresentable-Implementations"
      ]
    ]
  },
  "identifier" : {
    "interfaceLanguage" : "swift",
    "url" : "doc:\/\/FanapPodChatSDK\/documentation\/FanapPodChatSDK\/RoleOperations\/hash(into:)"
  },
  "kind" : "symbol",
  "metadata" : {
    "conformance" : {
      "availabilityPrefix" : [
        {
          "text" : "Available when",
          "type" : "text"
        }
      ],
      "conformancePrefix" : [
        {
          "text" : "Conforms when",
          "type" : "text"
        }
      ],
      "constraints" : [
        {
          "code" : "Self",
          "type" : "codeVoice"
        },
        {
          "text" : " conforms to ",
          "type" : "text"
        },
        {
          "code" : "Hashable",
          "type" : "codeVoice"
        },
        {
          "text" : " and ",
          "type" : "text"
        },
        {
          "code" : "RawValue",
          "type" : "codeVoice"
        },
        {
          "text" : " conforms to ",
          "type" : "text"
        },
        {
          "code" : "Hashable",
          "type" : "codeVoice"
        },
        {
          "text" : ".",
          "type" : "text"
        }
      ]
    },
    "extendedModule" : "Swift",
    "externalID" : "s:SYsSHRzSH8RawValueSYRpzrlE4hash4intoys6HasherVz_tF::SYNTHESIZED::s:15FanapPodChatSDK14RoleOperationsO",
    "fragments" : [
      {
        "kind" : "keyword",
        "text" : "func"
      },
      {
        "kind" : "text",
        "text" : " "
      },
      {
        "kind" : "identifier",
        "text" : "hash"
      },
      {
        "kind" : "text",
        "text" : "("
      },
      {
        "kind" : "externalParam",
        "text" : "into"
      },
      {
        "kind" : "text",
        "text" : ": "
      },
      {
        "kind" : "keyword",
        "text" : "inout"
      },
      {
        "kind" : "text",
        "text" : " "
      },
      {
        "kind" : "typeIdentifier",
        "preciseIdentifier" : "s:s6HasherV",
        "text" : "Hasher"
      },
      {
        "kind" : "text",
        "text" : ")"
      }
    ],
    "modules" : [
      {
        "name" : "FanapPodChatSDK"
      }
    ],
    "role" : "symbol",
    "roleHeading" : "Instance Method",
    "symbolKind" : "method",
    "title" : "hash(into:)"
  },
  "primaryContentSections" : [
    {
      "declarations" : [
        {
          "languages" : [
            "swift"
          ],
          "platforms" : [
            "macOS"
          ],
          "tokens" : [
            {
              "kind" : "keyword",
              "text" : "func"
            },
            {
              "kind" : "text",
              "text" : " "
            },
            {
              "kind" : "identifier",
              "text" : "hash"
            },
            {
              "kind" : "text",
              "text" : "("
            },
            {
              "kind" : "externalParam",
              "text" : "into"
            },
            {
              "kind" : "text",
              "text" : " "
            },
            {
              "kind" : "internalParam",
              "text" : "hasher"
            },
            {
              "kind" : "text",
              "text" : ": "
            },
            {
              "kind" : "keyword",
              "text" : "inout"
            },
            {
              "kind" : "text",
              "text" : " "
            },
            {
              "kind" : "typeIdentifier",
              "preciseIdentifier" : "s:s6HasherV",
              "text" : "Hasher"
            },
            {
              "kind" : "text",
              "text" : ")"
            }
          ]
        }
      ],
      "kind" : "declarations"
    }
  ],
  "schemaVersion" : {
    "major" : 0,
    "minor" : 3,
    "patch" : 0
  },
  "sections" : [

  ],
  "variants" : [
    {
      "paths" : [
        "\/documentation\/fanappodchatsdk\/roleoperations\/hash(into:)"
      ],
      "traits" : [
        {
          "interfaceLanguage" : "swift"
        }
      ]
    }
  ]
, 
"references": {
"doc://FanapPodChatSDK/documentation/FanapPodChatSDK": {
  "abstract" : [
    {
      "text" : "With Fanap Chat SDK you could connect to the chat server without managing the socket state and send or receive messages.",
      "type" : "text"
    }
  ],
  "identifier" : "doc:\/\/FanapPodChatSDK\/documentation\/FanapPodChatSDK",
  "kind" : "symbol",
  "role" : "collection",
  "title" : "FanapPodChatSDK",
  "type" : "topic",
  "url" : "\/documentation\/fanappodchatsdk"
},
"doc://FanapPodChatSDK/documentation/FanapPodChatSDK/RoleOperations": {
  "abstract" : [

  ],
  "fragments" : [
    {
      "kind" : "keyword",
      "text" : "enum"
    },
    {
      "kind" : "text",
      "text" : " "
    },
    {
      "kind" : "identifier",
      "text" : "RoleOperations"
    }
  ],
  "identifier" : "doc:\/\/FanapPodChatSDK\/documentation\/FanapPodChatSDK\/RoleOperations",
  "kind" : "symbol",
  "navigatorTitle" : [
    {
      "kind" : "identifier",
      "text" : "RoleOperations"
    }
  ],
  "role" : "symbol",
  "title" : "RoleOperations",
  "type" : "topic",
  "url" : "\/documentation\/fanappodchatsdk\/roleoperations"
},
"doc://FanapPodChatSDK/documentation/FanapPodChatSDK/RoleOperations/RawRepresentable-Implementations": {
  "abstract" : [

  ],
  "identifier" : "doc:\/\/FanapPodChatSDK\/documentation\/FanapPodChatSDK\/RoleOperations\/RawRepresentable-Implementations",
  "kind" : "article",
  "role" : "collectionGroup",
  "title" : "RawRepresentable Implementations",
  "type" : "topic",
  "url" : "\/documentation\/fanappodchatsdk\/roleoperations\/rawrepresentable-implementations"
},
"doc://FanapPodChatSDK/documentation/FanapPodChatSDK/RoleOperations/hash(into:)": {
  "abstract" : [

  ],
  "conformance" : {
    "availabilityPrefix" : [
      {
        "text" : "Available when",
        "type" : "text"
      }
    ],
    "conformancePrefix" : [
      {
        "text" : "Conforms when",
        "type" : "text"
      }
    ],
    "constraints" : [
      {
        "code" : "Self",
        "type" : "codeVoice"
      },
      {
        "text" : " conforms to ",
        "type" : "text"
      },
      {
        "code" : "Hashable",
        "type" : "codeVoice"
      },
      {
        "text" : " and ",
        "type" : "text"
      },
      {
        "code" : "RawValue",
        "type" : "codeVoice"
      },
      {
        "text" : " conforms to ",
        "type" : "text"
      },
      {
        "code" : "Hashable",
        "type" : "codeVoice"
      },
      {
        "text" : ".",
        "type" : "text"
      }
    ]
  },
  "fragments" : [
    {
      "kind" : "keyword",
      "text" : "func"
    },
    {
      "kind" : "text",
      "text" : " "
    },
    {
      "kind" : "identifier",
      "text" : "hash"
    },
    {
      "kind" : "text",
      "text" : "("
    },
    {
      "kind" : "externalParam",
      "text" : "into"
    },
    {
      "kind" : "text",
      "text" : ": "
    },
    {
      "kind" : "keyword",
      "text" : "inout"
    },
    {
      "kind" : "text",
      "text" : " "
    },
    {
      "kind" : "typeIdentifier",
      "preciseIdentifier" : "s:s6HasherV",
      "text" : "Hasher"
    },
    {
      "kind" : "text",
      "text" : ")"
    }
  ],
  "identifier" : "doc:\/\/FanapPodChatSDK\/documentation\/FanapPodChatSDK\/RoleOperations\/hash(into:)",
  "kind" : "symbol",
  "role" : "symbol",
  "title" : "hash(into:)",
  "type" : "topic",
  "url" : "\/documentation\/fanappodchatsdk\/roleoperations\/hash(into:)"
}
}
}