{
  "hierarchy" : {
    "paths" : [
      [
        "doc:\/\/FanapPodChatSDK\/documentation\/FanapPodChatSDK",
        "doc:\/\/FanapPodChatSDK\/documentation\/FanapPodChatSDK\/CMTag"
      ]
    ]
  },
  "identifier" : {
    "interfaceLanguage" : "swift",
    "url" : "doc:\/\/FanapPodChatSDK\/documentation\/FanapPodChatSDK\/CMTag\/addParticipant(tagId:tagParticipant:)"
  },
  "kind" : "symbol",
  "metadata" : {
    "extendedModule" : "FanapPodChatSDK",
    "externalID" : "s:15FanapPodChatSDK5CMTagC14addParticipant5tagId0hG0ySi_AA0eG0CtFZ",
    "fragments" : [
      {
        "kind" : "keyword",
        "text" : "class"
      },
      {
        "kind" : "text",
        "text" : " "
      },
      {
        "kind" : "keyword",
        "text" : "func"
      },
      {
        "kind" : "text",
        "text" : " "
      },
      {
        "kind" : "identifier",
        "text" : "addParticipant"
      },
      {
        "kind" : "text",
        "text" : "("
      },
      {
        "kind" : "externalParam",
        "text" : "tagId"
      },
      {
        "kind" : "text",
        "text" : ": "
      },
      {
        "kind" : "typeIdentifier",
        "preciseIdentifier" : "s:Si",
        "text" : "Int"
      },
      {
        "kind" : "text",
        "text" : ", "
      },
      {
        "kind" : "externalParam",
        "text" : "tagParticipant"
      },
      {
        "kind" : "text",
        "text" : ": "
      },
      {
        "kind" : "typeIdentifier",
        "preciseIdentifier" : "c:@M@FanapPodChatSDK@objc(cs)CMTagParticipant",
        "text" : "CMTagParticipant"
      },
      {
        "kind" : "text",
        "text" : ")"
      }
    ],
    "modules" : [
      {
        "name" : "FanapPodChatSDK"
      }
    ],
    "role" : "symbol",
    "roleHeading" : "Type Method",
    "symbolKind" : "method",
    "title" : "addParticipant(tagId:tagParticipant:)"
  },
  "primaryContentSections" : [
    {
      "declarations" : [
        {
          "languages" : [
            "swift"
          ],
          "platforms" : [
            "macOS"
          ],
          "tokens" : [
            {
              "kind" : "keyword",
              "text" : "class"
            },
            {
              "kind" : "text",
              "text" : " "
            },
            {
              "kind" : "keyword",
              "text" : "func"
            },
            {
              "kind" : "text",
              "text" : " "
            },
            {
              "kind" : "identifier",
              "text" : "addParticipant"
            },
            {
              "kind" : "text",
              "text" : "("
            },
            {
              "kind" : "externalParam",
              "text" : "tagId"
            },
            {
              "kind" : "text",
              "text" : ": "
            },
            {
              "kind" : "typeIdentifier",
              "preciseIdentifier" : "s:Si",
              "text" : "Int"
            },
            {
              "kind" : "text",
              "text" : ", "
            },
            {
              "kind" : "externalParam",
              "text" : "tagParticipant"
            },
            {
              "kind" : "text",
              "text" : ": "
            },
            {
              "identifier" : "doc:\/\/FanapPodChatSDK\/documentation\/FanapPodChatSDK\/CMTagParticipant",
              "kind" : "typeIdentifier",
              "preciseIdentifier" : "c:@M@FanapPodChatSDK@objc(cs)CMTagParticipant",
              "text" : "CMTagParticipant"
            },
            {
              "kind" : "text",
              "text" : ")"
            }
          ]
        }
      ],
      "kind" : "declarations"
    }
  ],
  "schemaVersion" : {
    "major" : 0,
    "minor" : 3,
    "patch" : 0
  },
  "sections" : [

  ],
  "variants" : [
    {
      "paths" : [
        "\/documentation\/fanappodchatsdk\/cmtag\/addparticipant(tagid:tagparticipant:)"
      ],
      "traits" : [
        {
          "interfaceLanguage" : "swift"
        }
      ]
    }
  ]
, 
"references": {
"doc://FanapPodChatSDK/documentation/FanapPodChatSDK": {
  "abstract" : [
    {
      "text" : "With Fanap Chat SDK you could connect to the chat server without managing the socket state and send or receive messages.",
      "type" : "text"
    }
  ],
  "identifier" : "doc:\/\/FanapPodChatSDK\/documentation\/FanapPodChatSDK",
  "kind" : "symbol",
  "role" : "collection",
  "title" : "FanapPodChatSDK",
  "type" : "topic",
  "url" : "\/documentation\/fanappodchatsdk"
},
"doc://FanapPodChatSDK/documentation/FanapPodChatSDK/CMTag": {
  "abstract" : [

  ],
  "fragments" : [
    {
      "kind" : "keyword",
      "text" : "class"
    },
    {
      "kind" : "text",
      "text" : " "
    },
    {
      "kind" : "identifier",
      "text" : "CMTag"
    }
  ],
  "identifier" : "doc:\/\/FanapPodChatSDK\/documentation\/FanapPodChatSDK\/CMTag",
  "kind" : "symbol",
  "navigatorTitle" : [
    {
      "kind" : "identifier",
      "text" : "CMTag"
    }
  ],
  "role" : "symbol",
  "title" : "CMTag",
  "type" : "topic",
  "url" : "\/documentation\/fanappodchatsdk\/cmtag"
},
"doc://FanapPodChatSDK/documentation/FanapPodChatSDK/CMTag/addParticipant(tagId:tagParticipant:)": {
  "abstract" : [

  ],
  "fragments" : [
    {
      "kind" : "keyword",
      "text" : "class"
    },
    {
      "kind" : "text",
      "text" : " "
    },
    {
      "kind" : "keyword",
      "text" : "func"
    },
    {
      "kind" : "text",
      "text" : " "
    },
    {
      "kind" : "identifier",
      "text" : "addParticipant"
    },
    {
      "kind" : "text",
      "text" : "("
    },
    {
      "kind" : "externalParam",
      "text" : "tagId"
    },
    {
      "kind" : "text",
      "text" : ": "
    },
    {
      "kind" : "typeIdentifier",
      "preciseIdentifier" : "s:Si",
      "text" : "Int"
    },
    {
      "kind" : "text",
      "text" : ", "
    },
    {
      "kind" : "externalParam",
      "text" : "tagParticipant"
    },
    {
      "kind" : "text",
      "text" : ": "
    },
    {
      "kind" : "typeIdentifier",
      "preciseIdentifier" : "c:@M@FanapPodChatSDK@objc(cs)CMTagParticipant",
      "text" : "CMTagParticipant"
    },
    {
      "kind" : "text",
      "text" : ")"
    }
  ],
  "identifier" : "doc:\/\/FanapPodChatSDK\/documentation\/FanapPodChatSDK\/CMTag\/addParticipant(tagId:tagParticipant:)",
  "kind" : "symbol",
  "role" : "symbol",
  "title" : "addParticipant(tagId:tagParticipant:)",
  "type" : "topic",
  "url" : "\/documentation\/fanappodchatsdk\/cmtag\/addparticipant(tagid:tagparticipant:)"
},
"doc://FanapPodChatSDK/documentation/FanapPodChatSDK/CMTagParticipant": {
  "abstract" : [

  ],
  "fragments" : [
    {
      "kind" : "keyword",
      "text" : "class"
    },
    {
      "kind" : "text",
      "text" : " "
    },
    {
      "kind" : "identifier",
      "text" : "CMTagParticipant"
    }
  ],
  "identifier" : "doc:\/\/FanapPodChatSDK\/documentation\/FanapPodChatSDK\/CMTagParticipant",
  "kind" : "symbol",
  "navigatorTitle" : [
    {
      "kind" : "identifier",
      "text" : "CMTagParticipant"
    }
  ],
  "role" : "symbol",
  "title" : "CMTagParticipant",
  "type" : "topic",
  "url" : "\/documentation\/fanappodchatsdk\/cmtagparticipant"
}
}
}