{
  "hierarchy" : {
    "paths" : [
      [
        "doc:\/\/FanapPodChatSDK\/documentation\/FanapPodChatSDK",
        "doc:\/\/FanapPodChatSDK\/documentation\/FanapPodChatSDK\/Assistant"
      ]
    ]
  },
  "identifier" : {
    "interfaceLanguage" : "swift",
    "url" : "doc:\/\/FanapPodChatSDK\/documentation\/FanapPodChatSDK\/Assistant\/assistant"
  },
  "kind" : "symbol",
  "metadata" : {
    "externalID" : "s:15FanapPodChatSDK9AssistantC9assistantAA7InviteeCSgvp",
    "fragments" : [
      {
        "kind" : "keyword",
        "text" : "var"
      },
      {
        "kind" : "text",
        "text" : " "
      },
      {
        "kind" : "identifier",
        "text" : "assistant"
      },
      {
        "kind" : "text",
        "text" : ": "
      },
      {
        "kind" : "typeIdentifier",
        "preciseIdentifier" : "s:15FanapPodChatSDK7InviteeC",
        "text" : "Invitee"
      },
      {
        "kind" : "text",
        "text" : "?"
      }
    ],
    "modules" : [
      {
        "name" : "FanapPodChatSDK"
      }
    ],
    "role" : "symbol",
    "roleHeading" : "Instance Property",
    "symbolKind" : "property",
    "title" : "assistant"
  },
  "primaryContentSections" : [
    {
      "declarations" : [
        {
          "languages" : [
            "swift"
          ],
          "platforms" : [
            "macOS"
          ],
          "tokens" : [
            {
              "kind" : "keyword",
              "text" : "var"
            },
            {
              "kind" : "text",
              "text" : " "
            },
            {
              "kind" : "identifier",
              "text" : "assistant"
            },
            {
              "kind" : "text",
              "text" : ": "
            },
            {
              "identifier" : "doc:\/\/FanapPodChatSDK\/documentation\/FanapPodChatSDK\/Invitee",
              "kind" : "typeIdentifier",
              "preciseIdentifier" : "s:15FanapPodChatSDK7InviteeC",
              "text" : "Invitee"
            },
            {
              "kind" : "text",
              "text" : "?"
            }
          ]
        }
      ],
      "kind" : "declarations"
    }
  ],
  "schemaVersion" : {
    "major" : 0,
    "minor" : 3,
    "patch" : 0
  },
  "sections" : [

  ],
  "variants" : [
    {
      "paths" : [
        "\/documentation\/fanappodchatsdk\/assistant\/assistant"
      ],
      "traits" : [
        {
          "interfaceLanguage" : "swift"
        }
      ]
    }
  ]
, 
"references": {
"doc://FanapPodChatSDK/documentation/FanapPodChatSDK": {
  "abstract" : [
    {
      "text" : "With Fanap Chat SDK you could connect to the chat server without managing the socket state and send or receive messages.",
      "type" : "text"
    }
  ],
  "identifier" : "doc:\/\/FanapPodChatSDK\/documentation\/FanapPodChatSDK",
  "kind" : "symbol",
  "role" : "collection",
  "title" : "FanapPodChatSDK",
  "type" : "topic",
  "url" : "\/documentation\/fanappodchatsdk"
},
"doc://FanapPodChatSDK/documentation/FanapPodChatSDK/Assistant": {
  "abstract" : [

  ],
  "fragments" : [
    {
      "kind" : "keyword",
      "text" : "class"
    },
    {
      "kind" : "text",
      "text" : " "
    },
    {
      "kind" : "identifier",
      "text" : "Assistant"
    }
  ],
  "identifier" : "doc:\/\/FanapPodChatSDK\/documentation\/FanapPodChatSDK\/Assistant",
  "kind" : "symbol",
  "navigatorTitle" : [
    {
      "kind" : "identifier",
      "text" : "Assistant"
    }
  ],
  "role" : "symbol",
  "title" : "Assistant",
  "type" : "topic",
  "url" : "\/documentation\/fanappodchatsdk\/assistant"
},
"doc://FanapPodChatSDK/documentation/FanapPodChatSDK/Assistant/assistant": {
  "abstract" : [

  ],
  "fragments" : [
    {
      "kind" : "keyword",
      "text" : "var"
    },
    {
      "kind" : "text",
      "text" : " "
    },
    {
      "kind" : "identifier",
      "text" : "assistant"
    },
    {
      "kind" : "text",
      "text" : ": "
    },
    {
      "kind" : "typeIdentifier",
      "preciseIdentifier" : "s:15FanapPodChatSDK7InviteeC",
      "text" : "Invitee"
    },
    {
      "kind" : "text",
      "text" : "?"
    }
  ],
  "identifier" : "doc:\/\/FanapPodChatSDK\/documentation\/FanapPodChatSDK\/Assistant\/assistant",
  "kind" : "symbol",
  "role" : "symbol",
  "title" : "assistant",
  "type" : "topic",
  "url" : "\/documentation\/fanappodchatsdk\/assistant\/assistant"
},
"doc://FanapPodChatSDK/documentation/FanapPodChatSDK/Invitee": {
  "abstract" : [

  ],
  "fragments" : [
    {
      "kind" : "keyword",
      "text" : "class"
    },
    {
      "kind" : "text",
      "text" : " "
    },
    {
      "kind" : "identifier",
      "text" : "Invitee"
    }
  ],
  "identifier" : "doc:\/\/FanapPodChatSDK\/documentation\/FanapPodChatSDK\/Invitee",
  "kind" : "symbol",
  "navigatorTitle" : [
    {
      "kind" : "identifier",
      "text" : "Invitee"
    }
  ],
  "role" : "symbol",
  "title" : "Invitee",
  "type" : "topic",
  "url" : "\/documentation\/fanappodchatsdk\/invitee"
}
}
}