{
  "abstract" : [
    {
      "text" : "Inherited from ",
      "type" : "text"
    },
    {
      "code" : "RawRepresentable.hashValue",
      "type" : "codeVoice"
    },
    {
      "text" : ".",
      "type" : "text"
    }
  ],
  "hierarchy" : {
    "paths" : [
      [
        "doc:\/\/FanapPodChatSDK\/documentation\/FanapPodChatSDK",
        "doc:\/\/FanapPodChatSDK\/documentation\/FanapPodChatSDK\/ChatMessageVOTypes",
        "doc:\/\/FanapPodChatSDK\/documentation\/FanapPodChatSDK\/ChatMessageVOTypes\/RawRepresentable-Implementations"
      ]
    ]
  },
  "identifier" : {
    "interfaceLanguage" : "swift",
    "url" : "doc:\/\/FanapPodChatSDK\/documentation\/FanapPodChatSDK\/ChatMessageVOTypes\/hashValue"
  },
  "kind" : "symbol",
  "metadata" : {
    "conformance" : {
      "availabilityPrefix" : [
        {
          "text" : "Available when",
          "type" : "text"
        }
      ],
      "conformancePrefix" : [
        {
          "text" : "Conforms when",
          "type" : "text"
        }
      ],
      "constraints" : [
        {
          "code" : "Self",
          "type" : "codeVoice"
        },
        {
          "text" : " conforms to ",
          "type" : "text"
        },
        {
          "code" : "Hashable",
          "type" : "codeVoice"
        },
        {
          "text" : " and ",
          "type" : "text"
        },
        {
          "code" : "RawValue",
          "type" : "codeVoice"
        },
        {
          "text" : " conforms to ",
          "type" : "text"
        },
        {
          "code" : "Hashable",
          "type" : "codeVoice"
        },
        {
          "text" : ".",
          "type" : "text"
        }
      ]
    },
    "extendedModule" : "Swift",
    "externalID" : "s:SYsSHRzSH8RawValueSYRpzrlE04hashB0Sivp::SYNTHESIZED::s:15FanapPodChatSDK0C14MessageVOTypesO",
    "fragments" : [
      {
        "kind" : "keyword",
        "text" : "var"
      },
      {
        "kind" : "text",
        "text" : " "
      },
      {
        "kind" : "identifier",
        "text" : "hashValue"
      },
      {
        "kind" : "text",
        "text" : ": "
      },
      {
        "kind" : "typeIdentifier",
        "preciseIdentifier" : "s:Si",
        "text" : "Int"
      }
    ],
    "modules" : [
      {
        "name" : "FanapPodChatSDK"
      }
    ],
    "role" : "symbol",
    "roleHeading" : "Instance Property",
    "symbolKind" : "property",
    "title" : "hashValue"
  },
  "primaryContentSections" : [
    {
      "declarations" : [
        {
          "languages" : [
            "swift"
          ],
          "platforms" : [
            "macOS"
          ],
          "tokens" : [
            {
              "kind" : "keyword",
              "text" : "var"
            },
            {
              "kind" : "text",
              "text" : " "
            },
            {
              "kind" : "identifier",
              "text" : "hashValue"
            },
            {
              "kind" : "text",
              "text" : ": "
            },
            {
              "kind" : "typeIdentifier",
              "preciseIdentifier" : "s:Si",
              "text" : "Int"
            },
            {
              "kind" : "text",
              "text" : " { "
            },
            {
              "kind" : "keyword",
              "text" : "get"
            },
            {
              "kind" : "text",
              "text" : " }"
            }
          ]
        }
      ],
      "kind" : "declarations"
    }
  ],
  "schemaVersion" : {
    "major" : 0,
    "minor" : 3,
    "patch" : 0
  },
  "sections" : [

  ],
  "variants" : [
    {
      "paths" : [
        "\/documentation\/fanappodchatsdk\/chatmessagevotypes\/hashvalue"
      ],
      "traits" : [
        {
          "interfaceLanguage" : "swift"
        }
      ]
    }
  ]
, 
"references": {
"doc://FanapPodChatSDK/documentation/FanapPodChatSDK": {
  "abstract" : [
    {
      "text" : "With Fanap Chat SDK you could connect to the chat server without managing the socket state and send or receive messages.",
      "type" : "text"
    }
  ],
  "identifier" : "doc:\/\/FanapPodChatSDK\/documentation\/FanapPodChatSDK",
  "kind" : "symbol",
  "role" : "collection",
  "title" : "FanapPodChatSDK",
  "type" : "topic",
  "url" : "\/documentation\/fanappodchatsdk"
},
"doc://FanapPodChatSDK/documentation/FanapPodChatSDK/ChatMessageVOTypes": {
  "abstract" : [

  ],
  "fragments" : [
    {
      "kind" : "keyword",
      "text" : "enum"
    },
    {
      "kind" : "text",
      "text" : " "
    },
    {
      "kind" : "identifier",
      "text" : "ChatMessageVOTypes"
    }
  ],
  "identifier" : "doc:\/\/FanapPodChatSDK\/documentation\/FanapPodChatSDK\/ChatMessageVOTypes",
  "kind" : "symbol",
  "navigatorTitle" : [
    {
      "kind" : "identifier",
      "text" : "ChatMessageVOTypes"
    }
  ],
  "role" : "symbol",
  "title" : "ChatMessageVOTypes",
  "type" : "topic",
  "url" : "\/documentation\/fanappodchatsdk\/chatmessagevotypes"
},
"doc://FanapPodChatSDK/documentation/FanapPodChatSDK/ChatMessageVOTypes/RawRepresentable-Implementations": {
  "abstract" : [

  ],
  "identifier" : "doc:\/\/FanapPodChatSDK\/documentation\/FanapPodChatSDK\/ChatMessageVOTypes\/RawRepresentable-Implementations",
  "kind" : "article",
  "role" : "collectionGroup",
  "title" : "RawRepresentable Implementations",
  "type" : "topic",
  "url" : "\/documentation\/fanappodchatsdk\/chatmessagevotypes\/rawrepresentable-implementations"
},
"doc://FanapPodChatSDK/documentation/FanapPodChatSDK/ChatMessageVOTypes/hashValue": {
  "abstract" : [

  ],
  "conformance" : {
    "availabilityPrefix" : [
      {
        "text" : "Available when",
        "type" : "text"
      }
    ],
    "conformancePrefix" : [
      {
        "text" : "Conforms when",
        "type" : "text"
      }
    ],
    "constraints" : [
      {
        "code" : "Self",
        "type" : "codeVoice"
      },
      {
        "text" : " conforms to ",
        "type" : "text"
      },
      {
        "code" : "Hashable",
        "type" : "codeVoice"
      },
      {
        "text" : " and ",
        "type" : "text"
      },
      {
        "code" : "RawValue",
        "type" : "codeVoice"
      },
      {
        "text" : " conforms to ",
        "type" : "text"
      },
      {
        "code" : "Hashable",
        "type" : "codeVoice"
      },
      {
        "text" : ".",
        "type" : "text"
      }
    ]
  },
  "fragments" : [
    {
      "kind" : "keyword",
      "text" : "var"
    },
    {
      "kind" : "text",
      "text" : " "
    },
    {
      "kind" : "identifier",
      "text" : "hashValue"
    },
    {
      "kind" : "text",
      "text" : ": "
    },
    {
      "kind" : "typeIdentifier",
      "preciseIdentifier" : "s:Si",
      "text" : "Int"
    }
  ],
  "identifier" : "doc:\/\/FanapPodChatSDK\/documentation\/FanapPodChatSDK\/ChatMessageVOTypes\/hashValue",
  "kind" : "symbol",
  "role" : "symbol",
  "title" : "hashValue",
  "type" : "topic",
  "url" : "\/documentation\/fanappodchatsdk\/chatmessagevotypes\/hashvalue"
}
}
}