{
  "abstract" : [
    {
      "text" : "Inherited from ",
      "type" : "text"
    },
    {
      "code" : "Encodable.string",
      "type" : "codeVoice"
    },
    {
      "text" : ".",
      "type" : "text"
    }
  ],
  "hierarchy" : {
    "paths" : [
      [
        "doc:\/\/FanapPodChatSDK\/documentation\/FanapPodChatSDK",
        "doc:\/\/FanapPodChatSDK\/documentation\/FanapPodChatSDK\/NotifyDeliveredMessageRequest",
        "doc:\/\/FanapPodChatSDK\/documentation\/FanapPodChatSDK\/NotifyDeliveredMessageRequest\/Encodable-Implementations"
      ]
    ]
  },
  "identifier" : {
    "interfaceLanguage" : "swift",
    "url" : "doc:\/\/FanapPodChatSDK\/documentation\/FanapPodChatSDK\/NotifyDeliveredMessageRequest\/string"
  },
  "kind" : "symbol",
  "metadata" : {
    "extendedModule" : "Swift",
    "externalID" : "s:SE16FanapPodAsyncSDKE6stringSSSgvp::SYNTHESIZED::s:15FanapPodChatSDK29NotifyDeliveredMessageRequestV",
    "fragments" : [
      {
        "kind" : "keyword",
        "text" : "var"
      },
      {
        "kind" : "text",
        "text" : " "
      },
      {
        "kind" : "identifier",
        "text" : "string"
      },
      {
        "kind" : "text",
        "text" : ": "
      },
      {
        "kind" : "typeIdentifier",
        "preciseIdentifier" : "s:SS",
        "text" : "String"
      },
      {
        "kind" : "text",
        "text" : "?"
      }
    ],
    "modules" : [
      {
        "name" : "FanapPodChatSDK"
      }
    ],
    "role" : "symbol",
    "roleHeading" : "Instance Property",
    "symbolKind" : "property",
    "title" : "string"
  },
  "primaryContentSections" : [
    {
      "declarations" : [
        {
          "languages" : [
            "swift"
          ],
          "platforms" : [
            "macOS"
          ],
          "tokens" : [
            {
              "kind" : "keyword",
              "text" : "var"
            },
            {
              "kind" : "text",
              "text" : " "
            },
            {
              "kind" : "identifier",
              "text" : "string"
            },
            {
              "kind" : "text",
              "text" : ": "
            },
            {
              "kind" : "typeIdentifier",
              "preciseIdentifier" : "s:SS",
              "text" : "String"
            },
            {
              "kind" : "text",
              "text" : "? { "
            },
            {
              "kind" : "keyword",
              "text" : "get"
            },
            {
              "kind" : "text",
              "text" : " }"
            }
          ]
        }
      ],
      "kind" : "declarations"
    }
  ],
  "schemaVersion" : {
    "major" : 0,
    "minor" : 3,
    "patch" : 0
  },
  "sections" : [

  ],
  "variants" : [
    {
      "paths" : [
        "\/documentation\/fanappodchatsdk\/notifydeliveredmessagerequest\/string"
      ],
      "traits" : [
        {
          "interfaceLanguage" : "swift"
        }
      ]
    }
  ]
, 
"references": {
"doc://FanapPodChatSDK/documentation/FanapPodChatSDK": {
  "abstract" : [
    {
      "text" : "With Fanap Chat SDK you could connect to the chat server without managing the socket state and send or receive messages.",
      "type" : "text"
    }
  ],
  "identifier" : "doc:\/\/FanapPodChatSDK\/documentation\/FanapPodChatSDK",
  "kind" : "symbol",
  "role" : "collection",
  "title" : "FanapPodChatSDK",
  "type" : "topic",
  "url" : "\/documentation\/fanappodchatsdk"
},
"doc://FanapPodChatSDK/documentation/FanapPodChatSDK/NotifyDeliveredMessageRequest": {
  "abstract" : [

  ],
  "fragments" : [
    {
      "kind" : "keyword",
      "text" : "struct"
    },
    {
      "kind" : "text",
      "text" : " "
    },
    {
      "kind" : "identifier",
      "text" : "NotifyDeliveredMessageRequest"
    }
  ],
  "identifier" : "doc:\/\/FanapPodChatSDK\/documentation\/FanapPodChatSDK\/NotifyDeliveredMessageRequest",
  "kind" : "symbol",
  "navigatorTitle" : [
    {
      "kind" : "identifier",
      "text" : "NotifyDeliveredMessageRequest"
    }
  ],
  "role" : "symbol",
  "title" : "NotifyDeliveredMessageRequest",
  "type" : "topic",
  "url" : "\/documentation\/fanappodchatsdk\/notifydeliveredmessagerequest"
},
"doc://FanapPodChatSDK/documentation/FanapPodChatSDK/NotifyDeliveredMessageRequest/Encodable-Implementations": {
  "abstract" : [

  ],
  "identifier" : "doc:\/\/FanapPodChatSDK\/documentation\/FanapPodChatSDK\/NotifyDeliveredMessageRequest\/Encodable-Implementations",
  "kind" : "article",
  "role" : "collectionGroup",
  "title" : "Encodable Implementations",
  "type" : "topic",
  "url" : "\/documentation\/fanappodchatsdk\/notifydeliveredmessagerequest\/encodable-implementations"
},
"doc://FanapPodChatSDK/documentation/FanapPodChatSDK/NotifyDeliveredMessageRequest/string": {
  "abstract" : [

  ],
  "fragments" : [
    {
      "kind" : "keyword",
      "text" : "var"
    },
    {
      "kind" : "text",
      "text" : " "
    },
    {
      "kind" : "identifier",
      "text" : "string"
    },
    {
      "kind" : "text",
      "text" : ": "
    },
    {
      "kind" : "typeIdentifier",
      "preciseIdentifier" : "s:SS",
      "text" : "String"
    },
    {
      "kind" : "text",
      "text" : "?"
    }
  ],
  "identifier" : "doc:\/\/FanapPodChatSDK\/documentation\/FanapPodChatSDK\/NotifyDeliveredMessageRequest\/string",
  "kind" : "symbol",
  "role" : "symbol",
  "title" : "string",
  "type" : "topic",
  "url" : "\/documentation\/fanappodchatsdk\/notifydeliveredmessagerequest\/string"
}
}
}