{
  "hierarchy" : {
    "paths" : [
      [
        "doc:\/\/FanapPodChatSDK\/documentation\/FanapPodChatSDK"
      ]
    ]
  },
  "identifier" : {
    "interfaceLanguage" : "swift",
    "url" : "doc:\/\/FanapPodChatSDK\/documentation\/FanapPodChatSDK\/BotEventTypes"
  },
  "kind" : "symbol",
  "metadata" : {
    "externalID" : "s:15FanapPodChatSDK13BotEventTypesO",
    "fragments" : [
      {
        "kind" : "keyword",
        "text" : "enum"
      },
      {
        "kind" : "text",
        "text" : " "
      },
      {
        "kind" : "identifier",
        "text" : "BotEventTypes"
      }
    ],
    "modules" : [
      {
        "name" : "FanapPodChatSDK"
      }
    ],
    "navigatorTitle" : [
      {
        "kind" : "identifier",
        "text" : "BotEventTypes"
      }
    ],
    "role" : "symbol",
    "roleHeading" : "Enumeration",
    "symbolKind" : "enum",
    "title" : "BotEventTypes"
  },
  "primaryContentSections" : [
    {
      "declarations" : [
        {
          "languages" : [
            "swift"
          ],
          "platforms" : [
            "macOS"
          ],
          "tokens" : [
            {
              "kind" : "keyword",
              "text" : "enum"
            },
            {
              "kind" : "text",
              "text" : " "
            },
            {
              "kind" : "identifier",
              "text" : "BotEventTypes"
            }
          ]
        }
      ],
      "kind" : "declarations"
    }
  ],
  "schemaVersion" : {
    "major" : 0,
    "minor" : 3,
    "patch" : 0
  },
  "sections" : [

  ],
  "topicSections" : [
    {
      "identifiers" : [
        "doc:\/\/FanapPodChatSDK\/documentation\/FanapPodChatSDK\/BotEventTypes\/BOT_MESSAGE(_:)",
        "doc:\/\/FanapPodChatSDK\/documentation\/FanapPodChatSDK\/BotEventTypes\/CREATE_BOT(_:)",
        "doc:\/\/FanapPodChatSDK\/documentation\/FanapPodChatSDK\/BotEventTypes\/CREATE_BOT_COMMAND(_:)",
        "doc:\/\/FanapPodChatSDK\/documentation\/FanapPodChatSDK\/BotEventTypes\/REMOVE_BOT_COMMAND(_:)",
        "doc:\/\/FanapPodChatSDK\/documentation\/FanapPodChatSDK\/BotEventTypes\/START_BOT(_:)",
        "doc:\/\/FanapPodChatSDK\/documentation\/FanapPodChatSDK\/BotEventTypes\/STOP_BOT(_:)"
      ],
      "title" : "Enumeration Cases"
    }
  ],
  "variants" : [
    {
      "paths" : [
        "\/documentation\/fanappodchatsdk\/boteventtypes"
      ],
      "traits" : [
        {
          "interfaceLanguage" : "swift"
        }
      ]
    }
  ]
, 
"references": {
"doc://FanapPodChatSDK/documentation/FanapPodChatSDK": {
  "abstract" : [
    {
      "text" : "With Fanap Chat SDK you could connect to the chat server without managing the socket state and send or receive messages.",
      "type" : "text"
    }
  ],
  "identifier" : "doc:\/\/FanapPodChatSDK\/documentation\/FanapPodChatSDK",
  "kind" : "symbol",
  "role" : "collection",
  "title" : "FanapPodChatSDK",
  "type" : "topic",
  "url" : "\/documentation\/fanappodchatsdk"
},
"doc://FanapPodChatSDK/documentation/FanapPodChatSDK/BotEventTypes": {
  "abstract" : [

  ],
  "fragments" : [
    {
      "kind" : "keyword",
      "text" : "enum"
    },
    {
      "kind" : "text",
      "text" : " "
    },
    {
      "kind" : "identifier",
      "text" : "BotEventTypes"
    }
  ],
  "identifier" : "doc:\/\/FanapPodChatSDK\/documentation\/FanapPodChatSDK\/BotEventTypes",
  "kind" : "symbol",
  "navigatorTitle" : [
    {
      "kind" : "identifier",
      "text" : "BotEventTypes"
    }
  ],
  "role" : "symbol",
  "title" : "BotEventTypes",
  "type" : "topic",
  "url" : "\/documentation\/fanappodchatsdk\/boteventtypes"
},
"doc://FanapPodChatSDK/documentation/FanapPodChatSDK/BotEventTypes/BOT_MESSAGE(_:)": {
  "abstract" : [

  ],
  "fragments" : [
    {
      "kind" : "keyword",
      "text" : "case"
    },
    {
      "kind" : "text",
      "text" : " "
    },
    {
      "kind" : "identifier",
      "text" : "BOT_MESSAGE"
    },
    {
      "kind" : "text",
      "text" : "("
    },
    {
      "kind" : "typeIdentifier",
      "preciseIdentifier" : "s:SS",
      "text" : "String"
    },
    {
      "kind" : "text",
      "text" : "?)"
    }
  ],
  "identifier" : "doc:\/\/FanapPodChatSDK\/documentation\/FanapPodChatSDK\/BotEventTypes\/BOT_MESSAGE(_:)",
  "kind" : "symbol",
  "role" : "symbol",
  "title" : "BotEventTypes.BOT_MESSAGE(_:)",
  "type" : "topic",
  "url" : "\/documentation\/fanappodchatsdk\/boteventtypes\/bot_message(_:)"
},
"doc://FanapPodChatSDK/documentation/FanapPodChatSDK/BotEventTypes/CREATE_BOT(_:)": {
  "abstract" : [

  ],
  "fragments" : [
    {
      "kind" : "keyword",
      "text" : "case"
    },
    {
      "kind" : "text",
      "text" : " "
    },
    {
      "kind" : "identifier",
      "text" : "CREATE_BOT"
    },
    {
      "kind" : "text",
      "text" : "("
    },
    {
      "kind" : "typeIdentifier",
      "preciseIdentifier" : "s:15FanapPodChatSDK3BotC",
      "text" : "Bot"
    },
    {
      "kind" : "text",
      "text" : ")"
    }
  ],
  "identifier" : "doc:\/\/FanapPodChatSDK\/documentation\/FanapPodChatSDK\/BotEventTypes\/CREATE_BOT(_:)",
  "kind" : "symbol",
  "role" : "symbol",
  "title" : "BotEventTypes.CREATE_BOT(_:)",
  "type" : "topic",
  "url" : "\/documentation\/fanappodchatsdk\/boteventtypes\/create_bot(_:)"
},
"doc://FanapPodChatSDK/documentation/FanapPodChatSDK/BotEventTypes/CREATE_BOT_COMMAND(_:)": {
  "abstract" : [

  ],
  "fragments" : [
    {
      "kind" : "keyword",
      "text" : "case"
    },
    {
      "kind" : "text",
      "text" : " "
    },
    {
      "kind" : "identifier",
      "text" : "CREATE_BOT_COMMAND"
    },
    {
      "kind" : "text",
      "text" : "("
    },
    {
      "kind" : "typeIdentifier",
      "preciseIdentifier" : "s:15FanapPodChatSDK7BotInfoC",
      "text" : "BotInfo"
    },
    {
      "kind" : "text",
      "text" : ")"
    }
  ],
  "identifier" : "doc:\/\/FanapPodChatSDK\/documentation\/FanapPodChatSDK\/BotEventTypes\/CREATE_BOT_COMMAND(_:)",
  "kind" : "symbol",
  "role" : "symbol",
  "title" : "BotEventTypes.CREATE_BOT_COMMAND(_:)",
  "type" : "topic",
  "url" : "\/documentation\/fanappodchatsdk\/boteventtypes\/create_bot_command(_:)"
},
"doc://FanapPodChatSDK/documentation/FanapPodChatSDK/BotEventTypes/REMOVE_BOT_COMMAND(_:)": {
  "abstract" : [

  ],
  "fragments" : [
    {
      "kind" : "keyword",
      "text" : "case"
    },
    {
      "kind" : "text",
      "text" : " "
    },
    {
      "kind" : "identifier",
      "text" : "REMOVE_BOT_COMMAND"
    },
    {
      "kind" : "text",
      "text" : "("
    },
    {
      "kind" : "typeIdentifier",
      "preciseIdentifier" : "s:15FanapPodChatSDK7BotInfoC",
      "text" : "BotInfo"
    },
    {
      "kind" : "text",
      "text" : ")"
    }
  ],
  "identifier" : "doc:\/\/FanapPodChatSDK\/documentation\/FanapPodChatSDK\/BotEventTypes\/REMOVE_BOT_COMMAND(_:)",
  "kind" : "symbol",
  "role" : "symbol",
  "title" : "BotEventTypes.REMOVE_BOT_COMMAND(_:)",
  "type" : "topic",
  "url" : "\/documentation\/fanappodchatsdk\/boteventtypes\/remove_bot_command(_:)"
},
"doc://FanapPodChatSDK/documentation/FanapPodChatSDK/BotEventTypes/START_BOT(_:)": {
  "abstract" : [

  ],
  "fragments" : [
    {
      "kind" : "keyword",
      "text" : "case"
    },
    {
      "kind" : "text",
      "text" : " "
    },
    {
      "kind" : "identifier",
      "text" : "START_BOT"
    },
    {
      "kind" : "text",
      "text" : "("
    },
    {
      "kind" : "typeIdentifier",
      "preciseIdentifier" : "s:SS",
      "text" : "String"
    },
    {
      "kind" : "text",
      "text" : ")"
    }
  ],
  "identifier" : "doc:\/\/FanapPodChatSDK\/documentation\/FanapPodChatSDK\/BotEventTypes\/START_BOT(_:)",
  "kind" : "symbol",
  "role" : "symbol",
  "title" : "BotEventTypes.START_BOT(_:)",
  "type" : "topic",
  "url" : "\/documentation\/fanappodchatsdk\/boteventtypes\/start_bot(_:)"
},
"doc://FanapPodChatSDK/documentation/FanapPodChatSDK/BotEventTypes/STOP_BOT(_:)": {
  "abstract" : [

  ],
  "fragments" : [
    {
      "kind" : "keyword",
      "text" : "case"
    },
    {
      "kind" : "text",
      "text" : " "
    },
    {
      "kind" : "identifier",
      "text" : "STOP_BOT"
    },
    {
      "kind" : "text",
      "text" : "("
    },
    {
      "kind" : "typeIdentifier",
      "preciseIdentifier" : "s:SS",
      "text" : "String"
    },
    {
      "kind" : "text",
      "text" : ")"
    }
  ],
  "identifier" : "doc:\/\/FanapPodChatSDK\/documentation\/FanapPodChatSDK\/BotEventTypes\/STOP_BOT(_:)",
  "kind" : "symbol",
  "role" : "symbol",
  "title" : "BotEventTypes.STOP_BOT(_:)",
  "type" : "topic",
  "url" : "\/documentation\/fanappodchatsdk\/boteventtypes\/stop_bot(_:)"
}
}
}