{
  "hierarchy" : {
    "paths" : [
      [
        "doc:\/\/FanapPodChatSDK\/documentation\/FanapPodChatSDK"
      ]
    ]
  },
  "identifier" : {
    "interfaceLanguage" : "swift",
    "url" : "doc:\/\/FanapPodChatSDK\/documentation\/FanapPodChatSDK\/ChatMessageVOTypes"
  },
  "kind" : "symbol",
  "metadata" : {
    "externalID" : "s:15FanapPodChatSDK0C14MessageVOTypesO",
    "fragments" : [
      {
        "kind" : "keyword",
        "text" : "enum"
      },
      {
        "kind" : "text",
        "text" : " "
      },
      {
        "kind" : "identifier",
        "text" : "ChatMessageVOTypes"
      }
    ],
    "modules" : [
      {
        "name" : "FanapPodChatSDK"
      }
    ],
    "navigatorTitle" : [
      {
        "kind" : "identifier",
        "text" : "ChatMessageVOTypes"
      }
    ],
    "role" : "symbol",
    "roleHeading" : "Enumeration",
    "symbolKind" : "enum",
    "title" : "ChatMessageVOTypes"
  },
  "primaryContentSections" : [
    {
      "declarations" : [
        {
          "languages" : [
            "swift"
          ],
          "platforms" : [
            "macOS"
          ],
          "tokens" : [
            {
              "kind" : "keyword",
              "text" : "enum"
            },
            {
              "kind" : "text",
              "text" : " "
            },
            {
              "kind" : "identifier",
              "text" : "ChatMessageVOTypes"
            }
          ]
        }
      ],
      "kind" : "declarations"
    }
  ],
  "relationshipsSections" : [
    {
      "identifiers" : [
        "doc:\/\/FanapPodChatSDK\/documentation\/FanapPodChatSDK\/SafeDecodable",
        "doc:\/\/FanapPodChatSDK\/s12CaseIterableP",
        "doc:\/\/FanapPodChatSDK\/Se",
        "doc:\/\/FanapPodChatSDK\/SE",
        "doc:\/\/FanapPodChatSDK\/SQ",
        "doc:\/\/FanapPodChatSDK\/SH",
        "doc:\/\/FanapPodChatSDK\/SY"
      ],
      "kind" : "relationships",
      "title" : "Conforms To",
      "type" : "conformsTo"
    }
  ],
  "schemaVersion" : {
    "major" : 0,
    "minor" : 3,
    "patch" : 0
  },
  "sections" : [

  ],
  "topicSections" : [
    {
      "identifiers" : [
        "doc:\/\/FanapPodChatSDK\/documentation\/FanapPodChatSDK\/ChatMessageVOTypes\/ADD_PARTICIPANT",
        "doc:\/\/FanapPodChatSDK\/documentation\/FanapPodChatSDK\/ChatMessageVOTypes\/ADD_TAG_PARTICIPANTS",
        "doc:\/\/FanapPodChatSDK\/documentation\/FanapPodChatSDK\/ChatMessageVOTypes\/ALL_UNREAD_MESSAGE_COUNT",
        "doc:\/\/FanapPodChatSDK\/documentation\/FanapPodChatSDK\/ChatMessageVOTypes\/BLOCK",
        "doc:\/\/FanapPodChatSDK\/documentation\/FanapPodChatSDK\/ChatMessageVOTypes\/BLOCKED_ASSISTNTS",
        "doc:\/\/FanapPodChatSDK\/documentation\/FanapPodChatSDK\/ChatMessageVOTypes\/BLOCK_ASSISTANT",
        "doc:\/\/FanapPodChatSDK\/documentation\/FanapPodChatSDK\/ChatMessageVOTypes\/BOT_MESSAGE",
        "doc:\/\/FanapPodChatSDK\/documentation\/FanapPodChatSDK\/ChatMessageVOTypes\/CHANGE_THREAD_TYPE",
        "doc:\/\/FanapPodChatSDK\/documentation\/FanapPodChatSDK\/ChatMessageVOTypes\/CHANGE_TYPE",
        "doc:\/\/FanapPodChatSDK\/documentation\/FanapPodChatSDK\/ChatMessageVOTypes\/CLEAR_HISTORY",
        "doc:\/\/FanapPodChatSDK\/documentation\/FanapPodChatSDK\/ChatMessageVOTypes\/CLOSE_THREAD",
        "doc:\/\/FanapPodChatSDK\/documentation\/FanapPodChatSDK\/ChatMessageVOTypes\/CONTACTS_LAST_SEEN",
        "doc:\/\/FanapPodChatSDK\/documentation\/FanapPodChatSDK\/ChatMessageVOTypes\/CONTACT_SYNCED",
        "doc:\/\/FanapPodChatSDK\/documentation\/FanapPodChatSDK\/ChatMessageVOTypes\/CREATE_BOT",
        "doc:\/\/FanapPodChatSDK\/documentation\/FanapPodChatSDK\/ChatMessageVOTypes\/CREATE_TAG",
        "doc:\/\/FanapPodChatSDK\/documentation\/FanapPodChatSDK\/ChatMessageVOTypes\/CREATE_THREAD",
        "doc:\/\/FanapPodChatSDK\/documentation\/FanapPodChatSDK\/ChatMessageVOTypes\/DEACTICVE_ASSISTANT",
        "doc:\/\/FanapPodChatSDK\/documentation\/FanapPodChatSDK\/ChatMessageVOTypes\/DEFINE_BOT_COMMAND",
        "doc:\/\/FanapPodChatSDK\/documentation\/FanapPodChatSDK\/ChatMessageVOTypes\/DELETE_MESSAGE",
        "doc:\/\/FanapPodChatSDK\/documentation\/FanapPodChatSDK\/ChatMessageVOTypes\/DELETE_TAG",
        "doc:\/\/FanapPodChatSDK\/documentation\/FanapPodChatSDK\/ChatMessageVOTypes\/DELETE_THREAD",
        "doc:\/\/FanapPodChatSDK\/documentation\/FanapPodChatSDK\/ChatMessageVOTypes\/DELIVERY",
        "doc:\/\/FanapPodChatSDK\/documentation\/FanapPodChatSDK\/ChatMessageVOTypes\/EDIT_MESSAGE",
        "doc:\/\/FanapPodChatSDK\/documentation\/FanapPodChatSDK\/ChatMessageVOTypes\/EDIT_TAG",
        "doc:\/\/FanapPodChatSDK\/documentation\/FanapPodChatSDK\/ChatMessageVOTypes\/ERROR",
        "doc:\/\/FanapPodChatSDK\/documentation\/FanapPodChatSDK\/ChatMessageVOTypes\/EXPORT_CHATS",
        "doc:\/\/FanapPodChatSDK\/documentation\/FanapPodChatSDK\/ChatMessageVOTypes\/FORWARD_MESSAGE",
        "doc:\/\/FanapPodChatSDK\/documentation\/FanapPodChatSDK\/ChatMessageVOTypes\/GET_ASSISTANTS",
        "doc:\/\/FanapPodChatSDK\/documentation\/FanapPodChatSDK\/ChatMessageVOTypes\/GET_ASSISTANT_HISTORY",
        "doc:\/\/FanapPodChatSDK\/documentation\/FanapPodChatSDK\/ChatMessageVOTypes\/GET_BLOCKED",
        "doc:\/\/FanapPodChatSDK\/documentation\/FanapPodChatSDK\/ChatMessageVOTypes\/GET_CONTACTS",
        "doc:\/\/FanapPodChatSDK\/documentation\/FanapPodChatSDK\/ChatMessageVOTypes\/GET_CURRENT_USER_ROLES",
        "doc:\/\/FanapPodChatSDK\/documentation\/FanapPodChatSDK\/ChatMessageVOTypes\/GET_HISTORY",
        "doc:\/\/FanapPodChatSDK\/documentation\/FanapPodChatSDK\/ChatMessageVOTypes\/GET_MESSAGE_DELEVERY_PARTICIPANTS",
        "doc:\/\/FanapPodChatSDK\/documentation\/FanapPodChatSDK\/ChatMessageVOTypes\/GET_MESSAGE_SEEN_PARTICIPANTS",
        "doc:\/\/FanapPodChatSDK\/documentation\/FanapPodChatSDK\/ChatMessageVOTypes\/GET_NOT_SEEN_DURATION",
        "doc:\/\/FanapPodChatSDK\/documentation\/FanapPodChatSDK\/ChatMessageVOTypes\/GET_REPORT_REASONS",
        "doc:\/\/FanapPodChatSDK\/documentation\/FanapPodChatSDK\/ChatMessageVOTypes\/GET_STATUS",
        "doc:\/\/FanapPodChatSDK\/documentation\/FanapPodChatSDK\/ChatMessageVOTypes\/GET_TAG_PARTICIPANTS",
        "doc:\/\/FanapPodChatSDK\/documentation\/FanapPodChatSDK\/ChatMessageVOTypes\/GET_THREADS",
        "doc:\/\/FanapPodChatSDK\/documentation\/FanapPodChatSDK\/ChatMessageVOTypes\/GET_USER_BOTS",
        "doc:\/\/FanapPodChatSDK\/documentation\/FanapPodChatSDK\/ChatMessageVOTypes\/IS_NAME_AVAILABLE",
        "doc:\/\/FanapPodChatSDK\/documentation\/FanapPodChatSDK\/ChatMessageVOTypes\/JOIN_THREAD",
        "doc:\/\/FanapPodChatSDK\/documentation\/FanapPodChatSDK\/ChatMessageVOTypes\/LAST_SEEN_UPDATED",
        "doc:\/\/FanapPodChatSDK\/documentation\/FanapPodChatSDK\/ChatMessageVOTypes\/LEAVE_THREAD",
        "doc:\/\/FanapPodChatSDK\/documentation\/FanapPodChatSDK\/ChatMessageVOTypes\/LOGOUT",
        "doc:\/\/FanapPodChatSDK\/documentation\/FanapPodChatSDK\/ChatMessageVOTypes\/MESSAGE",
        "doc:\/\/FanapPodChatSDK\/documentation\/FanapPodChatSDK\/ChatMessageVOTypes\/MUTE_THREAD",
        "doc:\/\/FanapPodChatSDK\/documentation\/FanapPodChatSDK\/ChatMessageVOTypes\/MUTUAL_GROUPS",
        "doc:\/\/FanapPodChatSDK\/documentation\/FanapPodChatSDK\/ChatMessageVOTypes\/PING",
        "doc:\/\/FanapPodChatSDK\/documentation\/FanapPodChatSDK\/ChatMessageVOTypes\/PIN_MESSAGE",
        "doc:\/\/FanapPodChatSDK\/documentation\/FanapPodChatSDK\/ChatMessageVOTypes\/PIN_THREAD",
        "doc:\/\/FanapPodChatSDK\/documentation\/FanapPodChatSDK\/ChatMessageVOTypes\/REGISTER_ASSISTANT",
        "doc:\/\/FanapPodChatSDK\/documentation\/FanapPodChatSDK\/ChatMessageVOTypes\/RELATION_INFO",
        "doc:\/\/FanapPodChatSDK\/documentation\/FanapPodChatSDK\/ChatMessageVOTypes\/REMOVED_FROM_THREAD",
        "doc:\/\/FanapPodChatSDK\/documentation\/FanapPodChatSDK\/ChatMessageVOTypes\/REMOVE_BOT_COMMANDS",
        "doc:\/\/FanapPodChatSDK\/documentation\/FanapPodChatSDK\/ChatMessageVOTypes\/REMOVE_PARTICIPANT",
        "doc:\/\/FanapPodChatSDK\/documentation\/FanapPodChatSDK\/ChatMessageVOTypes\/REMOVE_ROLE_FROM_USER",
        "doc:\/\/FanapPodChatSDK\/documentation\/FanapPodChatSDK\/ChatMessageVOTypes\/REMOVE_TAG_PARTICIPANTS",
        "doc:\/\/FanapPodChatSDK\/documentation\/FanapPodChatSDK\/ChatMessageVOTypes\/RENAME",
        "doc:\/\/FanapPodChatSDK\/documentation\/FanapPodChatSDK\/ChatMessageVOTypes\/REPORT_MESSAGE",
        "doc:\/\/FanapPodChatSDK\/documentation\/FanapPodChatSDK\/ChatMessageVOTypes\/REPORT_THREAD",
        "doc:\/\/FanapPodChatSDK\/documentation\/FanapPodChatSDK\/ChatMessageVOTypes\/REPORT_USER",
        "doc:\/\/FanapPodChatSDK\/documentation\/FanapPodChatSDK\/ChatMessageVOTypes\/SEEN",
        "doc:\/\/FanapPodChatSDK\/documentation\/FanapPodChatSDK\/ChatMessageVOTypes\/SENT",
        "doc:\/\/FanapPodChatSDK\/documentation\/FanapPodChatSDK\/ChatMessageVOTypes\/SET_PROFILE",
        "doc:\/\/FanapPodChatSDK\/documentation\/FanapPodChatSDK\/ChatMessageVOTypes\/SET_RULE_TO_USER",
        "doc:\/\/FanapPodChatSDK\/documentation\/FanapPodChatSDK\/ChatMessageVOTypes\/SPAM_PV_THREAD",
        "doc:\/\/FanapPodChatSDK\/documentation\/FanapPodChatSDK\/ChatMessageVOTypes\/START_BOT",
        "doc:\/\/FanapPodChatSDK\/documentation\/FanapPodChatSDK\/ChatMessageVOTypes\/STATUS_PING",
        "doc:\/\/FanapPodChatSDK\/documentation\/FanapPodChatSDK\/ChatMessageVOTypes\/STOP_BOT",
        "doc:\/\/FanapPodChatSDK\/documentation\/FanapPodChatSDK\/ChatMessageVOTypes\/SYSTEM_MESSAGE",
        "doc:\/\/FanapPodChatSDK\/documentation\/FanapPodChatSDK\/ChatMessageVOTypes\/TAG_LIST",
        "doc:\/\/FanapPodChatSDK\/documentation\/FanapPodChatSDK\/ChatMessageVOTypes\/THREAD_INFO_UPDATED",
        "doc:\/\/FanapPodChatSDK\/documentation\/FanapPodChatSDK\/ChatMessageVOTypes\/THREAD_PARTICIPANTS",
        "doc:\/\/FanapPodChatSDK\/documentation\/FanapPodChatSDK\/ChatMessageVOTypes\/UNBLOCK",
        "doc:\/\/FanapPodChatSDK\/documentation\/FanapPodChatSDK\/ChatMessageVOTypes\/UNBLOCK_ASSISTANT",
        "doc:\/\/FanapPodChatSDK\/documentation\/FanapPodChatSDK\/ChatMessageVOTypes\/UNKNOWN",
        "doc:\/\/FanapPodChatSDK\/documentation\/FanapPodChatSDK\/ChatMessageVOTypes\/UNMUTE_THREAD",
        "doc:\/\/FanapPodChatSDK\/documentation\/FanapPodChatSDK\/ChatMessageVOTypes\/UNPIN_MESSAGE",
        "doc:\/\/FanapPodChatSDK\/documentation\/FanapPodChatSDK\/ChatMessageVOTypes\/UNPIN_THREAD",
        "doc:\/\/FanapPodChatSDK\/documentation\/FanapPodChatSDK\/ChatMessageVOTypes\/UPDATE_THREAD_INFO",
        "doc:\/\/FanapPodChatSDK\/documentation\/FanapPodChatSDK\/ChatMessageVOTypes\/USER_INFO",
        "doc:\/\/FanapPodChatSDK\/documentation\/FanapPodChatSDK\/ChatMessageVOTypes\/USER_STATUS"
      ],
      "title" : "Enumeration Cases"
    },
    {
      "identifiers" : [
        "doc:\/\/FanapPodChatSDK\/documentation\/FanapPodChatSDK\/ChatMessageVOTypes\/init(rawValue:)"
      ],
      "title" : "Initializers"
    },
    {
      "generated" : true,
      "identifiers" : [
        "doc:\/\/FanapPodChatSDK\/documentation\/FanapPodChatSDK\/ChatMessageVOTypes\/Decodable-Implementations",
        "doc:\/\/FanapPodChatSDK\/documentation\/FanapPodChatSDK\/ChatMessageVOTypes\/Encodable-Implementations",
        "doc:\/\/FanapPodChatSDK\/documentation\/FanapPodChatSDK\/ChatMessageVOTypes\/Equatable-Implementations",
        "doc:\/\/FanapPodChatSDK\/documentation\/FanapPodChatSDK\/ChatMessageVOTypes\/RawRepresentable-Implementations"
      ],
      "title" : "Default Implementations"
    }
  ],
  "variants" : [
    {
      "paths" : [
        "\/documentation\/fanappodchatsdk\/chatmessagevotypes"
      ],
      "traits" : [
        {
          "interfaceLanguage" : "swift"
        }
      ]
    }
  ]
, 
"references": {
"doc://FanapPodChatSDK/SE": {
  "identifier" : "doc:\/\/FanapPodChatSDK\/SE",
  "title" : "Swift.Encodable",
  "type" : "unresolvable"
},
"doc://FanapPodChatSDK/SH": {
  "identifier" : "doc:\/\/FanapPodChatSDK\/SH",
  "title" : "Swift.Hashable",
  "type" : "unresolvable"
},
"doc://FanapPodChatSDK/SQ": {
  "identifier" : "doc:\/\/FanapPodChatSDK\/SQ",
  "title" : "Swift.Equatable",
  "type" : "unresolvable"
},
"doc://FanapPodChatSDK/SY": {
  "identifier" : "doc:\/\/FanapPodChatSDK\/SY",
  "title" : "Swift.RawRepresentable",
  "type" : "unresolvable"
},
"doc://FanapPodChatSDK/Se": {
  "identifier" : "doc:\/\/FanapPodChatSDK\/Se",
  "title" : "Swift.Decodable",
  "type" : "unresolvable"
},
"doc://FanapPodChatSDK/documentation/FanapPodChatSDK": {
  "abstract" : [
    {
      "text" : "With Fanap Chat SDK you could connect to the chat server without managing the socket state and send or receive messages.",
      "type" : "text"
    }
  ],
  "identifier" : "doc:\/\/FanapPodChatSDK\/documentation\/FanapPodChatSDK",
  "kind" : "symbol",
  "role" : "collection",
  "title" : "FanapPodChatSDK",
  "type" : "topic",
  "url" : "\/documentation\/fanappodchatsdk"
},
"doc://FanapPodChatSDK/documentation/FanapPodChatSDK/ChatMessageVOTypes": {
  "abstract" : [

  ],
  "fragments" : [
    {
      "kind" : "keyword",
      "text" : "enum"
    },
    {
      "kind" : "text",
      "text" : " "
    },
    {
      "kind" : "identifier",
      "text" : "ChatMessageVOTypes"
    }
  ],
  "identifier" : "doc:\/\/FanapPodChatSDK\/documentation\/FanapPodChatSDK\/ChatMessageVOTypes",
  "kind" : "symbol",
  "navigatorTitle" : [
    {
      "kind" : "identifier",
      "text" : "ChatMessageVOTypes"
    }
  ],
  "role" : "symbol",
  "title" : "ChatMessageVOTypes",
  "type" : "topic",
  "url" : "\/documentation\/fanappodchatsdk\/chatmessagevotypes"
},
"doc://FanapPodChatSDK/documentation/FanapPodChatSDK/ChatMessageVOTypes/ADD_PARTICIPANT": {
  "abstract" : [

  ],
  "fragments" : [
    {
      "kind" : "keyword",
      "text" : "case"
    },
    {
      "kind" : "text",
      "text" : " "
    },
    {
      "kind" : "identifier",
      "text" : "ADD_PARTICIPANT"
    }
  ],
  "identifier" : "doc:\/\/FanapPodChatSDK\/documentation\/FanapPodChatSDK\/ChatMessageVOTypes\/ADD_PARTICIPANT",
  "kind" : "symbol",
  "role" : "symbol",
  "title" : "ChatMessageVOTypes.ADD_PARTICIPANT",
  "type" : "topic",
  "url" : "\/documentation\/fanappodchatsdk\/chatmessagevotypes\/add_participant"
},
"doc://FanapPodChatSDK/documentation/FanapPodChatSDK/ChatMessageVOTypes/ADD_TAG_PARTICIPANTS": {
  "abstract" : [

  ],
  "fragments" : [
    {
      "kind" : "keyword",
      "text" : "case"
    },
    {
      "kind" : "text",
      "text" : " "
    },
    {
      "kind" : "identifier",
      "text" : "ADD_TAG_PARTICIPANTS"
    }
  ],
  "identifier" : "doc:\/\/FanapPodChatSDK\/documentation\/FanapPodChatSDK\/ChatMessageVOTypes\/ADD_TAG_PARTICIPANTS",
  "kind" : "symbol",
  "role" : "symbol",
  "title" : "ChatMessageVOTypes.ADD_TAG_PARTICIPANTS",
  "type" : "topic",
  "url" : "\/documentation\/fanappodchatsdk\/chatmessagevotypes\/add_tag_participants"
},
"doc://FanapPodChatSDK/documentation/FanapPodChatSDK/ChatMessageVOTypes/ALL_UNREAD_MESSAGE_COUNT": {
  "abstract" : [

  ],
  "fragments" : [
    {
      "kind" : "keyword",
      "text" : "case"
    },
    {
      "kind" : "text",
      "text" : " "
    },
    {
      "kind" : "identifier",
      "text" : "ALL_UNREAD_MESSAGE_COUNT"
    }
  ],
  "identifier" : "doc:\/\/FanapPodChatSDK\/documentation\/FanapPodChatSDK\/ChatMessageVOTypes\/ALL_UNREAD_MESSAGE_COUNT",
  "kind" : "symbol",
  "role" : "symbol",
  "title" : "ChatMessageVOTypes.ALL_UNREAD_MESSAGE_COUNT",
  "type" : "topic",
  "url" : "\/documentation\/fanappodchatsdk\/chatmessagevotypes\/all_unread_message_count"
},
"doc://FanapPodChatSDK/documentation/FanapPodChatSDK/ChatMessageVOTypes/BLOCK": {
  "abstract" : [

  ],
  "fragments" : [
    {
      "kind" : "keyword",
      "text" : "case"
    },
    {
      "kind" : "text",
      "text" : " "
    },
    {
      "kind" : "identifier",
      "text" : "BLOCK"
    }
  ],
  "identifier" : "doc:\/\/FanapPodChatSDK\/documentation\/FanapPodChatSDK\/ChatMessageVOTypes\/BLOCK",
  "kind" : "symbol",
  "role" : "symbol",
  "title" : "ChatMessageVOTypes.BLOCK",
  "type" : "topic",
  "url" : "\/documentation\/fanappodchatsdk\/chatmessagevotypes\/block"
},
"doc://FanapPodChatSDK/documentation/FanapPodChatSDK/ChatMessageVOTypes/BLOCKED_ASSISTNTS": {
  "abstract" : [

  ],
  "fragments" : [
    {
      "kind" : "keyword",
      "text" : "case"
    },
    {
      "kind" : "text",
      "text" : " "
    },
    {
      "kind" : "identifier",
      "text" : "BLOCKED_ASSISTNTS"
    }
  ],
  "identifier" : "doc:\/\/FanapPodChatSDK\/documentation\/FanapPodChatSDK\/ChatMessageVOTypes\/BLOCKED_ASSISTNTS",
  "kind" : "symbol",
  "role" : "symbol",
  "title" : "ChatMessageVOTypes.BLOCKED_ASSISTNTS",
  "type" : "topic",
  "url" : "\/documentation\/fanappodchatsdk\/chatmessagevotypes\/blocked_assistnts"
},
"doc://FanapPodChatSDK/documentation/FanapPodChatSDK/ChatMessageVOTypes/BLOCK_ASSISTANT": {
  "abstract" : [

  ],
  "fragments" : [
    {
      "kind" : "keyword",
      "text" : "case"
    },
    {
      "kind" : "text",
      "text" : " "
    },
    {
      "kind" : "identifier",
      "text" : "BLOCK_ASSISTANT"
    }
  ],
  "identifier" : "doc:\/\/FanapPodChatSDK\/documentation\/FanapPodChatSDK\/ChatMessageVOTypes\/BLOCK_ASSISTANT",
  "kind" : "symbol",
  "role" : "symbol",
  "title" : "ChatMessageVOTypes.BLOCK_ASSISTANT",
  "type" : "topic",
  "url" : "\/documentation\/fanappodchatsdk\/chatmessagevotypes\/block_assistant"
},
"doc://FanapPodChatSDK/documentation/FanapPodChatSDK/ChatMessageVOTypes/BOT_MESSAGE": {
  "abstract" : [

  ],
  "fragments" : [
    {
      "kind" : "keyword",
      "text" : "case"
    },
    {
      "kind" : "text",
      "text" : " "
    },
    {
      "kind" : "identifier",
      "text" : "BOT_MESSAGE"
    }
  ],
  "identifier" : "doc:\/\/FanapPodChatSDK\/documentation\/FanapPodChatSDK\/ChatMessageVOTypes\/BOT_MESSAGE",
  "kind" : "symbol",
  "role" : "symbol",
  "title" : "ChatMessageVOTypes.BOT_MESSAGE",
  "type" : "topic",
  "url" : "\/documentation\/fanappodchatsdk\/chatmessagevotypes\/bot_message"
},
"doc://FanapPodChatSDK/documentation/FanapPodChatSDK/ChatMessageVOTypes/CHANGE_THREAD_TYPE": {
  "abstract" : [

  ],
  "fragments" : [
    {
      "kind" : "keyword",
      "text" : "case"
    },
    {
      "kind" : "text",
      "text" : " "
    },
    {
      "kind" : "identifier",
      "text" : "CHANGE_THREAD_TYPE"
    }
  ],
  "identifier" : "doc:\/\/FanapPodChatSDK\/documentation\/FanapPodChatSDK\/ChatMessageVOTypes\/CHANGE_THREAD_TYPE",
  "kind" : "symbol",
  "role" : "symbol",
  "title" : "ChatMessageVOTypes.CHANGE_THREAD_TYPE",
  "type" : "topic",
  "url" : "\/documentation\/fanappodchatsdk\/chatmessagevotypes\/change_thread_type"
},
"doc://FanapPodChatSDK/documentation/FanapPodChatSDK/ChatMessageVOTypes/CHANGE_TYPE": {
  "abstract" : [

  ],
  "fragments" : [
    {
      "kind" : "keyword",
      "text" : "case"
    },
    {
      "kind" : "text",
      "text" : " "
    },
    {
      "kind" : "identifier",
      "text" : "CHANGE_TYPE"
    }
  ],
  "identifier" : "doc:\/\/FanapPodChatSDK\/documentation\/FanapPodChatSDK\/ChatMessageVOTypes\/CHANGE_TYPE",
  "kind" : "symbol",
  "role" : "symbol",
  "title" : "ChatMessageVOTypes.CHANGE_TYPE",
  "type" : "topic",
  "url" : "\/documentation\/fanappodchatsdk\/chatmessagevotypes\/change_type"
},
"doc://FanapPodChatSDK/documentation/FanapPodChatSDK/ChatMessageVOTypes/CLEAR_HISTORY": {
  "abstract" : [

  ],
  "fragments" : [
    {
      "kind" : "keyword",
      "text" : "case"
    },
    {
      "kind" : "text",
      "text" : " "
    },
    {
      "kind" : "identifier",
      "text" : "CLEAR_HISTORY"
    }
  ],
  "identifier" : "doc:\/\/FanapPodChatSDK\/documentation\/FanapPodChatSDK\/ChatMessageVOTypes\/CLEAR_HISTORY",
  "kind" : "symbol",
  "role" : "symbol",
  "title" : "ChatMessageVOTypes.CLEAR_HISTORY",
  "type" : "topic",
  "url" : "\/documentation\/fanappodchatsdk\/chatmessagevotypes\/clear_history"
},
"doc://FanapPodChatSDK/documentation/FanapPodChatSDK/ChatMessageVOTypes/CLOSE_THREAD": {
  "abstract" : [

  ],
  "fragments" : [
    {
      "kind" : "keyword",
      "text" : "case"
    },
    {
      "kind" : "text",
      "text" : " "
    },
    {
      "kind" : "identifier",
      "text" : "CLOSE_THREAD"
    }
  ],
  "identifier" : "doc:\/\/FanapPodChatSDK\/documentation\/FanapPodChatSDK\/ChatMessageVOTypes\/CLOSE_THREAD",
  "kind" : "symbol",
  "role" : "symbol",
  "title" : "ChatMessageVOTypes.CLOSE_THREAD",
  "type" : "topic",
  "url" : "\/documentation\/fanappodchatsdk\/chatmessagevotypes\/close_thread"
},
"doc://FanapPodChatSDK/documentation/FanapPodChatSDK/ChatMessageVOTypes/CONTACTS_LAST_SEEN": {
  "abstract" : [

  ],
  "fragments" : [
    {
      "kind" : "keyword",
      "text" : "case"
    },
    {
      "kind" : "text",
      "text" : " "
    },
    {
      "kind" : "identifier",
      "text" : "CONTACTS_LAST_SEEN"
    }
  ],
  "identifier" : "doc:\/\/FanapPodChatSDK\/documentation\/FanapPodChatSDK\/ChatMessageVOTypes\/CONTACTS_LAST_SEEN",
  "kind" : "symbol",
  "role" : "symbol",
  "title" : "ChatMessageVOTypes.CONTACTS_LAST_SEEN",
  "type" : "topic",
  "url" : "\/documentation\/fanappodchatsdk\/chatmessagevotypes\/contacts_last_seen"
},
"doc://FanapPodChatSDK/documentation/FanapPodChatSDK/ChatMessageVOTypes/CONTACT_SYNCED": {
  "abstract" : [

  ],
  "fragments" : [
    {
      "kind" : "keyword",
      "text" : "case"
    },
    {
      "kind" : "text",
      "text" : " "
    },
    {
      "kind" : "identifier",
      "text" : "CONTACT_SYNCED"
    }
  ],
  "identifier" : "doc:\/\/FanapPodChatSDK\/documentation\/FanapPodChatSDK\/ChatMessageVOTypes\/CONTACT_SYNCED",
  "kind" : "symbol",
  "role" : "symbol",
  "title" : "ChatMessageVOTypes.CONTACT_SYNCED",
  "type" : "topic",
  "url" : "\/documentation\/fanappodchatsdk\/chatmessagevotypes\/contact_synced"
},
"doc://FanapPodChatSDK/documentation/FanapPodChatSDK/ChatMessageVOTypes/CREATE_BOT": {
  "abstract" : [

  ],
  "fragments" : [
    {
      "kind" : "keyword",
      "text" : "case"
    },
    {
      "kind" : "text",
      "text" : " "
    },
    {
      "kind" : "identifier",
      "text" : "CREATE_BOT"
    }
  ],
  "identifier" : "doc:\/\/FanapPodChatSDK\/documentation\/FanapPodChatSDK\/ChatMessageVOTypes\/CREATE_BOT",
  "kind" : "symbol",
  "role" : "symbol",
  "title" : "ChatMessageVOTypes.CREATE_BOT",
  "type" : "topic",
  "url" : "\/documentation\/fanappodchatsdk\/chatmessagevotypes\/create_bot"
},
"doc://FanapPodChatSDK/documentation/FanapPodChatSDK/ChatMessageVOTypes/CREATE_TAG": {
  "abstract" : [

  ],
  "fragments" : [
    {
      "kind" : "keyword",
      "text" : "case"
    },
    {
      "kind" : "text",
      "text" : " "
    },
    {
      "kind" : "identifier",
      "text" : "CREATE_TAG"
    }
  ],
  "identifier" : "doc:\/\/FanapPodChatSDK\/documentation\/FanapPodChatSDK\/ChatMessageVOTypes\/CREATE_TAG",
  "kind" : "symbol",
  "role" : "symbol",
  "title" : "ChatMessageVOTypes.CREATE_TAG",
  "type" : "topic",
  "url" : "\/documentation\/fanappodchatsdk\/chatmessagevotypes\/create_tag"
},
"doc://FanapPodChatSDK/documentation/FanapPodChatSDK/ChatMessageVOTypes/CREATE_THREAD": {
  "abstract" : [

  ],
  "fragments" : [
    {
      "kind" : "keyword",
      "text" : "case"
    },
    {
      "kind" : "text",
      "text" : " "
    },
    {
      "kind" : "identifier",
      "text" : "CREATE_THREAD"
    }
  ],
  "identifier" : "doc:\/\/FanapPodChatSDK\/documentation\/FanapPodChatSDK\/ChatMessageVOTypes\/CREATE_THREAD",
  "kind" : "symbol",
  "role" : "symbol",
  "title" : "ChatMessageVOTypes.CREATE_THREAD",
  "type" : "topic",
  "url" : "\/documentation\/fanappodchatsdk\/chatmessagevotypes\/create_thread"
},
"doc://FanapPodChatSDK/documentation/FanapPodChatSDK/ChatMessageVOTypes/DEACTICVE_ASSISTANT": {
  "abstract" : [

  ],
  "fragments" : [
    {
      "kind" : "keyword",
      "text" : "case"
    },
    {
      "kind" : "text",
      "text" : " "
    },
    {
      "kind" : "identifier",
      "text" : "DEACTICVE_ASSISTANT"
    }
  ],
  "identifier" : "doc:\/\/FanapPodChatSDK\/documentation\/FanapPodChatSDK\/ChatMessageVOTypes\/DEACTICVE_ASSISTANT",
  "kind" : "symbol",
  "role" : "symbol",
  "title" : "ChatMessageVOTypes.DEACTICVE_ASSISTANT",
  "type" : "topic",
  "url" : "\/documentation\/fanappodchatsdk\/chatmessagevotypes\/deacticve_assistant"
},
"doc://FanapPodChatSDK/documentation/FanapPodChatSDK/ChatMessageVOTypes/DEFINE_BOT_COMMAND": {
  "abstract" : [

  ],
  "fragments" : [
    {
      "kind" : "keyword",
      "text" : "case"
    },
    {
      "kind" : "text",
      "text" : " "
    },
    {
      "kind" : "identifier",
      "text" : "DEFINE_BOT_COMMAND"
    }
  ],
  "identifier" : "doc:\/\/FanapPodChatSDK\/documentation\/FanapPodChatSDK\/ChatMessageVOTypes\/DEFINE_BOT_COMMAND",
  "kind" : "symbol",
  "role" : "symbol",
  "title" : "ChatMessageVOTypes.DEFINE_BOT_COMMAND",
  "type" : "topic",
  "url" : "\/documentation\/fanappodchatsdk\/chatmessagevotypes\/define_bot_command"
},
"doc://FanapPodChatSDK/documentation/FanapPodChatSDK/ChatMessageVOTypes/DELETE_MESSAGE": {
  "abstract" : [

  ],
  "fragments" : [
    {
      "kind" : "keyword",
      "text" : "case"
    },
    {
      "kind" : "text",
      "text" : " "
    },
    {
      "kind" : "identifier",
      "text" : "DELETE_MESSAGE"
    }
  ],
  "identifier" : "doc:\/\/FanapPodChatSDK\/documentation\/FanapPodChatSDK\/ChatMessageVOTypes\/DELETE_MESSAGE",
  "kind" : "symbol",
  "role" : "symbol",
  "title" : "ChatMessageVOTypes.DELETE_MESSAGE",
  "type" : "topic",
  "url" : "\/documentation\/fanappodchatsdk\/chatmessagevotypes\/delete_message"
},
"doc://FanapPodChatSDK/documentation/FanapPodChatSDK/ChatMessageVOTypes/DELETE_TAG": {
  "abstract" : [

  ],
  "fragments" : [
    {
      "kind" : "keyword",
      "text" : "case"
    },
    {
      "kind" : "text",
      "text" : " "
    },
    {
      "kind" : "identifier",
      "text" : "DELETE_TAG"
    }
  ],
  "identifier" : "doc:\/\/FanapPodChatSDK\/documentation\/FanapPodChatSDK\/ChatMessageVOTypes\/DELETE_TAG",
  "kind" : "symbol",
  "role" : "symbol",
  "title" : "ChatMessageVOTypes.DELETE_TAG",
  "type" : "topic",
  "url" : "\/documentation\/fanappodchatsdk\/chatmessagevotypes\/delete_tag"
},
"doc://FanapPodChatSDK/documentation/FanapPodChatSDK/ChatMessageVOTypes/DELETE_THREAD": {
  "abstract" : [

  ],
  "fragments" : [
    {
      "kind" : "keyword",
      "text" : "case"
    },
    {
      "kind" : "text",
      "text" : " "
    },
    {
      "kind" : "identifier",
      "text" : "DELETE_THREAD"
    }
  ],
  "identifier" : "doc:\/\/FanapPodChatSDK\/documentation\/FanapPodChatSDK\/ChatMessageVOTypes\/DELETE_THREAD",
  "kind" : "symbol",
  "role" : "symbol",
  "title" : "ChatMessageVOTypes.DELETE_THREAD",
  "type" : "topic",
  "url" : "\/documentation\/fanappodchatsdk\/chatmessagevotypes\/delete_thread"
},
"doc://FanapPodChatSDK/documentation/FanapPodChatSDK/ChatMessageVOTypes/DELIVERY": {
  "abstract" : [

  ],
  "fragments" : [
    {
      "kind" : "keyword",
      "text" : "case"
    },
    {
      "kind" : "text",
      "text" : " "
    },
    {
      "kind" : "identifier",
      "text" : "DELIVERY"
    }
  ],
  "identifier" : "doc:\/\/FanapPodChatSDK\/documentation\/FanapPodChatSDK\/ChatMessageVOTypes\/DELIVERY",
  "kind" : "symbol",
  "role" : "symbol",
  "title" : "ChatMessageVOTypes.DELIVERY",
  "type" : "topic",
  "url" : "\/documentation\/fanappodchatsdk\/chatmessagevotypes\/delivery"
},
"doc://FanapPodChatSDK/documentation/FanapPodChatSDK/ChatMessageVOTypes/Decodable-Implementations": {
  "abstract" : [

  ],
  "identifier" : "doc:\/\/FanapPodChatSDK\/documentation\/FanapPodChatSDK\/ChatMessageVOTypes\/Decodable-Implementations",
  "kind" : "article",
  "role" : "collectionGroup",
  "title" : "Decodable Implementations",
  "type" : "topic",
  "url" : "\/documentation\/fanappodchatsdk\/chatmessagevotypes\/decodable-implementations"
},
"doc://FanapPodChatSDK/documentation/FanapPodChatSDK/ChatMessageVOTypes/EDIT_MESSAGE": {
  "abstract" : [

  ],
  "fragments" : [
    {
      "kind" : "keyword",
      "text" : "case"
    },
    {
      "kind" : "text",
      "text" : " "
    },
    {
      "kind" : "identifier",
      "text" : "EDIT_MESSAGE"
    }
  ],
  "identifier" : "doc:\/\/FanapPodChatSDK\/documentation\/FanapPodChatSDK\/ChatMessageVOTypes\/EDIT_MESSAGE",
  "kind" : "symbol",
  "role" : "symbol",
  "title" : "ChatMessageVOTypes.EDIT_MESSAGE",
  "type" : "topic",
  "url" : "\/documentation\/fanappodchatsdk\/chatmessagevotypes\/edit_message"
},
"doc://FanapPodChatSDK/documentation/FanapPodChatSDK/ChatMessageVOTypes/EDIT_TAG": {
  "abstract" : [

  ],
  "fragments" : [
    {
      "kind" : "keyword",
      "text" : "case"
    },
    {
      "kind" : "text",
      "text" : " "
    },
    {
      "kind" : "identifier",
      "text" : "EDIT_TAG"
    }
  ],
  "identifier" : "doc:\/\/FanapPodChatSDK\/documentation\/FanapPodChatSDK\/ChatMessageVOTypes\/EDIT_TAG",
  "kind" : "symbol",
  "role" : "symbol",
  "title" : "ChatMessageVOTypes.EDIT_TAG",
  "type" : "topic",
  "url" : "\/documentation\/fanappodchatsdk\/chatmessagevotypes\/edit_tag"
},
"doc://FanapPodChatSDK/documentation/FanapPodChatSDK/ChatMessageVOTypes/ERROR": {
  "abstract" : [

  ],
  "fragments" : [
    {
      "kind" : "keyword",
      "text" : "case"
    },
    {
      "kind" : "text",
      "text" : " "
    },
    {
      "kind" : "identifier",
      "text" : "ERROR"
    }
  ],
  "identifier" : "doc:\/\/FanapPodChatSDK\/documentation\/FanapPodChatSDK\/ChatMessageVOTypes\/ERROR",
  "kind" : "symbol",
  "role" : "symbol",
  "title" : "ChatMessageVOTypes.ERROR",
  "type" : "topic",
  "url" : "\/documentation\/fanappodchatsdk\/chatmessagevotypes\/error"
},
"doc://FanapPodChatSDK/documentation/FanapPodChatSDK/ChatMessageVOTypes/EXPORT_CHATS": {
  "abstract" : [

  ],
  "fragments" : [
    {
      "kind" : "keyword",
      "text" : "case"
    },
    {
      "kind" : "text",
      "text" : " "
    },
    {
      "kind" : "identifier",
      "text" : "EXPORT_CHATS"
    }
  ],
  "identifier" : "doc:\/\/FanapPodChatSDK\/documentation\/FanapPodChatSDK\/ChatMessageVOTypes\/EXPORT_CHATS",
  "kind" : "symbol",
  "role" : "symbol",
  "title" : "ChatMessageVOTypes.EXPORT_CHATS",
  "type" : "topic",
  "url" : "\/documentation\/fanappodchatsdk\/chatmessagevotypes\/export_chats"
},
"doc://FanapPodChatSDK/documentation/FanapPodChatSDK/ChatMessageVOTypes/Encodable-Implementations": {
  "abstract" : [

  ],
  "identifier" : "doc:\/\/FanapPodChatSDK\/documentation\/FanapPodChatSDK\/ChatMessageVOTypes\/Encodable-Implementations",
  "kind" : "article",
  "role" : "collectionGroup",
  "title" : "Encodable Implementations",
  "type" : "topic",
  "url" : "\/documentation\/fanappodchatsdk\/chatmessagevotypes\/encodable-implementations"
},
"doc://FanapPodChatSDK/documentation/FanapPodChatSDK/ChatMessageVOTypes/Equatable-Implementations": {
  "abstract" : [

  ],
  "identifier" : "doc:\/\/FanapPodChatSDK\/documentation\/FanapPodChatSDK\/ChatMessageVOTypes\/Equatable-Implementations",
  "kind" : "article",
  "role" : "collectionGroup",
  "title" : "Equatable Implementations",
  "type" : "topic",
  "url" : "\/documentation\/fanappodchatsdk\/chatmessagevotypes\/equatable-implementations"
},
"doc://FanapPodChatSDK/documentation/FanapPodChatSDK/ChatMessageVOTypes/FORWARD_MESSAGE": {
  "abstract" : [

  ],
  "fragments" : [
    {
      "kind" : "keyword",
      "text" : "case"
    },
    {
      "kind" : "text",
      "text" : " "
    },
    {
      "kind" : "identifier",
      "text" : "FORWARD_MESSAGE"
    }
  ],
  "identifier" : "doc:\/\/FanapPodChatSDK\/documentation\/FanapPodChatSDK\/ChatMessageVOTypes\/FORWARD_MESSAGE",
  "kind" : "symbol",
  "role" : "symbol",
  "title" : "ChatMessageVOTypes.FORWARD_MESSAGE",
  "type" : "topic",
  "url" : "\/documentation\/fanappodchatsdk\/chatmessagevotypes\/forward_message"
},
"doc://FanapPodChatSDK/documentation/FanapPodChatSDK/ChatMessageVOTypes/GET_ASSISTANTS": {
  "abstract" : [

  ],
  "fragments" : [
    {
      "kind" : "keyword",
      "text" : "case"
    },
    {
      "kind" : "text",
      "text" : " "
    },
    {
      "kind" : "identifier",
      "text" : "GET_ASSISTANTS"
    }
  ],
  "identifier" : "doc:\/\/FanapPodChatSDK\/documentation\/FanapPodChatSDK\/ChatMessageVOTypes\/GET_ASSISTANTS",
  "kind" : "symbol",
  "role" : "symbol",
  "title" : "ChatMessageVOTypes.GET_ASSISTANTS",
  "type" : "topic",
  "url" : "\/documentation\/fanappodchatsdk\/chatmessagevotypes\/get_assistants"
},
"doc://FanapPodChatSDK/documentation/FanapPodChatSDK/ChatMessageVOTypes/GET_ASSISTANT_HISTORY": {
  "abstract" : [

  ],
  "fragments" : [
    {
      "kind" : "keyword",
      "text" : "case"
    },
    {
      "kind" : "text",
      "text" : " "
    },
    {
      "kind" : "identifier",
      "text" : "GET_ASSISTANT_HISTORY"
    }
  ],
  "identifier" : "doc:\/\/FanapPodChatSDK\/documentation\/FanapPodChatSDK\/ChatMessageVOTypes\/GET_ASSISTANT_HISTORY",
  "kind" : "symbol",
  "role" : "symbol",
  "title" : "ChatMessageVOTypes.GET_ASSISTANT_HISTORY",
  "type" : "topic",
  "url" : "\/documentation\/fanappodchatsdk\/chatmessagevotypes\/get_assistant_history"
},
"doc://FanapPodChatSDK/documentation/FanapPodChatSDK/ChatMessageVOTypes/GET_BLOCKED": {
  "abstract" : [

  ],
  "fragments" : [
    {
      "kind" : "keyword",
      "text" : "case"
    },
    {
      "kind" : "text",
      "text" : " "
    },
    {
      "kind" : "identifier",
      "text" : "GET_BLOCKED"
    }
  ],
  "identifier" : "doc:\/\/FanapPodChatSDK\/documentation\/FanapPodChatSDK\/ChatMessageVOTypes\/GET_BLOCKED",
  "kind" : "symbol",
  "role" : "symbol",
  "title" : "ChatMessageVOTypes.GET_BLOCKED",
  "type" : "topic",
  "url" : "\/documentation\/fanappodchatsdk\/chatmessagevotypes\/get_blocked"
},
"doc://FanapPodChatSDK/documentation/FanapPodChatSDK/ChatMessageVOTypes/GET_CONTACTS": {
  "abstract" : [

  ],
  "fragments" : [
    {
      "kind" : "keyword",
      "text" : "case"
    },
    {
      "kind" : "text",
      "text" : " "
    },
    {
      "kind" : "identifier",
      "text" : "GET_CONTACTS"
    }
  ],
  "identifier" : "doc:\/\/FanapPodChatSDK\/documentation\/FanapPodChatSDK\/ChatMessageVOTypes\/GET_CONTACTS",
  "kind" : "symbol",
  "role" : "symbol",
  "title" : "ChatMessageVOTypes.GET_CONTACTS",
  "type" : "topic",
  "url" : "\/documentation\/fanappodchatsdk\/chatmessagevotypes\/get_contacts"
},
"doc://FanapPodChatSDK/documentation/FanapPodChatSDK/ChatMessageVOTypes/GET_CURRENT_USER_ROLES": {
  "abstract" : [

  ],
  "fragments" : [
    {
      "kind" : "keyword",
      "text" : "case"
    },
    {
      "kind" : "text",
      "text" : " "
    },
    {
      "kind" : "identifier",
      "text" : "GET_CURRENT_USER_ROLES"
    }
  ],
  "identifier" : "doc:\/\/FanapPodChatSDK\/documentation\/FanapPodChatSDK\/ChatMessageVOTypes\/GET_CURRENT_USER_ROLES",
  "kind" : "symbol",
  "role" : "symbol",
  "title" : "ChatMessageVOTypes.GET_CURRENT_USER_ROLES",
  "type" : "topic",
  "url" : "\/documentation\/fanappodchatsdk\/chatmessagevotypes\/get_current_user_roles"
},
"doc://FanapPodChatSDK/documentation/FanapPodChatSDK/ChatMessageVOTypes/GET_HISTORY": {
  "abstract" : [

  ],
  "fragments" : [
    {
      "kind" : "keyword",
      "text" : "case"
    },
    {
      "kind" : "text",
      "text" : " "
    },
    {
      "kind" : "identifier",
      "text" : "GET_HISTORY"
    }
  ],
  "identifier" : "doc:\/\/FanapPodChatSDK\/documentation\/FanapPodChatSDK\/ChatMessageVOTypes\/GET_HISTORY",
  "kind" : "symbol",
  "role" : "symbol",
  "title" : "ChatMessageVOTypes.GET_HISTORY",
  "type" : "topic",
  "url" : "\/documentation\/fanappodchatsdk\/chatmessagevotypes\/get_history"
},
"doc://FanapPodChatSDK/documentation/FanapPodChatSDK/ChatMessageVOTypes/GET_MESSAGE_DELEVERY_PARTICIPANTS": {
  "abstract" : [

  ],
  "fragments" : [
    {
      "kind" : "keyword",
      "text" : "case"
    },
    {
      "kind" : "text",
      "text" : " "
    },
    {
      "kind" : "identifier",
      "text" : "GET_MESSAGE_DELEVERY_PARTICIPANTS"
    }
  ],
  "identifier" : "doc:\/\/FanapPodChatSDK\/documentation\/FanapPodChatSDK\/ChatMessageVOTypes\/GET_MESSAGE_DELEVERY_PARTICIPANTS",
  "kind" : "symbol",
  "role" : "symbol",
  "title" : "ChatMessageVOTypes.GET_MESSAGE_DELEVERY_PARTICIPANTS",
  "type" : "topic",
  "url" : "\/documentation\/fanappodchatsdk\/chatmessagevotypes\/get_message_delevery_participants"
},
"doc://FanapPodChatSDK/documentation/FanapPodChatSDK/ChatMessageVOTypes/GET_MESSAGE_SEEN_PARTICIPANTS": {
  "abstract" : [

  ],
  "fragments" : [
    {
      "kind" : "keyword",
      "text" : "case"
    },
    {
      "kind" : "text",
      "text" : " "
    },
    {
      "kind" : "identifier",
      "text" : "GET_MESSAGE_SEEN_PARTICIPANTS"
    }
  ],
  "identifier" : "doc:\/\/FanapPodChatSDK\/documentation\/FanapPodChatSDK\/ChatMessageVOTypes\/GET_MESSAGE_SEEN_PARTICIPANTS",
  "kind" : "symbol",
  "role" : "symbol",
  "title" : "ChatMessageVOTypes.GET_MESSAGE_SEEN_PARTICIPANTS",
  "type" : "topic",
  "url" : "\/documentation\/fanappodchatsdk\/chatmessagevotypes\/get_message_seen_participants"
},
"doc://FanapPodChatSDK/documentation/FanapPodChatSDK/ChatMessageVOTypes/GET_NOT_SEEN_DURATION": {
  "abstract" : [

  ],
  "fragments" : [
    {
      "kind" : "keyword",
      "text" : "case"
    },
    {
      "kind" : "text",
      "text" : " "
    },
    {
      "kind" : "identifier",
      "text" : "GET_NOT_SEEN_DURATION"
    }
  ],
  "identifier" : "doc:\/\/FanapPodChatSDK\/documentation\/FanapPodChatSDK\/ChatMessageVOTypes\/GET_NOT_SEEN_DURATION",
  "kind" : "symbol",
  "role" : "symbol",
  "title" : "ChatMessageVOTypes.GET_NOT_SEEN_DURATION",
  "type" : "topic",
  "url" : "\/documentation\/fanappodchatsdk\/chatmessagevotypes\/get_not_seen_duration"
},
"doc://FanapPodChatSDK/documentation/FanapPodChatSDK/ChatMessageVOTypes/GET_REPORT_REASONS": {
  "abstract" : [

  ],
  "fragments" : [
    {
      "kind" : "keyword",
      "text" : "case"
    },
    {
      "kind" : "text",
      "text" : " "
    },
    {
      "kind" : "identifier",
      "text" : "GET_REPORT_REASONS"
    }
  ],
  "identifier" : "doc:\/\/FanapPodChatSDK\/documentation\/FanapPodChatSDK\/ChatMessageVOTypes\/GET_REPORT_REASONS",
  "kind" : "symbol",
  "role" : "symbol",
  "title" : "ChatMessageVOTypes.GET_REPORT_REASONS",
  "type" : "topic",
  "url" : "\/documentation\/fanappodchatsdk\/chatmessagevotypes\/get_report_reasons"
},
"doc://FanapPodChatSDK/documentation/FanapPodChatSDK/ChatMessageVOTypes/GET_STATUS": {
  "abstract" : [

  ],
  "fragments" : [
    {
      "kind" : "keyword",
      "text" : "case"
    },
    {
      "kind" : "text",
      "text" : " "
    },
    {
      "kind" : "identifier",
      "text" : "GET_STATUS"
    }
  ],
  "identifier" : "doc:\/\/FanapPodChatSDK\/documentation\/FanapPodChatSDK\/ChatMessageVOTypes\/GET_STATUS",
  "kind" : "symbol",
  "role" : "symbol",
  "title" : "ChatMessageVOTypes.GET_STATUS",
  "type" : "topic",
  "url" : "\/documentation\/fanappodchatsdk\/chatmessagevotypes\/get_status"
},
"doc://FanapPodChatSDK/documentation/FanapPodChatSDK/ChatMessageVOTypes/GET_TAG_PARTICIPANTS": {
  "abstract" : [

  ],
  "fragments" : [
    {
      "kind" : "keyword",
      "text" : "case"
    },
    {
      "kind" : "text",
      "text" : " "
    },
    {
      "kind" : "identifier",
      "text" : "GET_TAG_PARTICIPANTS"
    }
  ],
  "identifier" : "doc:\/\/FanapPodChatSDK\/documentation\/FanapPodChatSDK\/ChatMessageVOTypes\/GET_TAG_PARTICIPANTS",
  "kind" : "symbol",
  "role" : "symbol",
  "title" : "ChatMessageVOTypes.GET_TAG_PARTICIPANTS",
  "type" : "topic",
  "url" : "\/documentation\/fanappodchatsdk\/chatmessagevotypes\/get_tag_participants"
},
"doc://FanapPodChatSDK/documentation/FanapPodChatSDK/ChatMessageVOTypes/GET_THREADS": {
  "abstract" : [

  ],
  "fragments" : [
    {
      "kind" : "keyword",
      "text" : "case"
    },
    {
      "kind" : "text",
      "text" : " "
    },
    {
      "kind" : "identifier",
      "text" : "GET_THREADS"
    }
  ],
  "identifier" : "doc:\/\/FanapPodChatSDK\/documentation\/FanapPodChatSDK\/ChatMessageVOTypes\/GET_THREADS",
  "kind" : "symbol",
  "role" : "symbol",
  "title" : "ChatMessageVOTypes.GET_THREADS",
  "type" : "topic",
  "url" : "\/documentation\/fanappodchatsdk\/chatmessagevotypes\/get_threads"
},
"doc://FanapPodChatSDK/documentation/FanapPodChatSDK/ChatMessageVOTypes/GET_USER_BOTS": {
  "abstract" : [

  ],
  "fragments" : [
    {
      "kind" : "keyword",
      "text" : "case"
    },
    {
      "kind" : "text",
      "text" : " "
    },
    {
      "kind" : "identifier",
      "text" : "GET_USER_BOTS"
    }
  ],
  "identifier" : "doc:\/\/FanapPodChatSDK\/documentation\/FanapPodChatSDK\/ChatMessageVOTypes\/GET_USER_BOTS",
  "kind" : "symbol",
  "role" : "symbol",
  "title" : "ChatMessageVOTypes.GET_USER_BOTS",
  "type" : "topic",
  "url" : "\/documentation\/fanappodchatsdk\/chatmessagevotypes\/get_user_bots"
},
"doc://FanapPodChatSDK/documentation/FanapPodChatSDK/ChatMessageVOTypes/IS_NAME_AVAILABLE": {
  "abstract" : [

  ],
  "fragments" : [
    {
      "kind" : "keyword",
      "text" : "case"
    },
    {
      "kind" : "text",
      "text" : " "
    },
    {
      "kind" : "identifier",
      "text" : "IS_NAME_AVAILABLE"
    }
  ],
  "identifier" : "doc:\/\/FanapPodChatSDK\/documentation\/FanapPodChatSDK\/ChatMessageVOTypes\/IS_NAME_AVAILABLE",
  "kind" : "symbol",
  "role" : "symbol",
  "title" : "ChatMessageVOTypes.IS_NAME_AVAILABLE",
  "type" : "topic",
  "url" : "\/documentation\/fanappodchatsdk\/chatmessagevotypes\/is_name_available"
},
"doc://FanapPodChatSDK/documentation/FanapPodChatSDK/ChatMessageVOTypes/JOIN_THREAD": {
  "abstract" : [

  ],
  "fragments" : [
    {
      "kind" : "keyword",
      "text" : "case"
    },
    {
      "kind" : "text",
      "text" : " "
    },
    {
      "kind" : "identifier",
      "text" : "JOIN_THREAD"
    }
  ],
  "identifier" : "doc:\/\/FanapPodChatSDK\/documentation\/FanapPodChatSDK\/ChatMessageVOTypes\/JOIN_THREAD",
  "kind" : "symbol",
  "role" : "symbol",
  "title" : "ChatMessageVOTypes.JOIN_THREAD",
  "type" : "topic",
  "url" : "\/documentation\/fanappodchatsdk\/chatmessagevotypes\/join_thread"
},
"doc://FanapPodChatSDK/documentation/FanapPodChatSDK/ChatMessageVOTypes/LAST_SEEN_UPDATED": {
  "abstract" : [

  ],
  "fragments" : [
    {
      "kind" : "keyword",
      "text" : "case"
    },
    {
      "kind" : "text",
      "text" : " "
    },
    {
      "kind" : "identifier",
      "text" : "LAST_SEEN_UPDATED"
    }
  ],
  "identifier" : "doc:\/\/FanapPodChatSDK\/documentation\/FanapPodChatSDK\/ChatMessageVOTypes\/LAST_SEEN_UPDATED",
  "kind" : "symbol",
  "role" : "symbol",
  "title" : "ChatMessageVOTypes.LAST_SEEN_UPDATED",
  "type" : "topic",
  "url" : "\/documentation\/fanappodchatsdk\/chatmessagevotypes\/last_seen_updated"
},
"doc://FanapPodChatSDK/documentation/FanapPodChatSDK/ChatMessageVOTypes/LEAVE_THREAD": {
  "abstract" : [

  ],
  "fragments" : [
    {
      "kind" : "keyword",
      "text" : "case"
    },
    {
      "kind" : "text",
      "text" : " "
    },
    {
      "kind" : "identifier",
      "text" : "LEAVE_THREAD"
    }
  ],
  "identifier" : "doc:\/\/FanapPodChatSDK\/documentation\/FanapPodChatSDK\/ChatMessageVOTypes\/LEAVE_THREAD",
  "kind" : "symbol",
  "role" : "symbol",
  "title" : "ChatMessageVOTypes.LEAVE_THREAD",
  "type" : "topic",
  "url" : "\/documentation\/fanappodchatsdk\/chatmessagevotypes\/leave_thread"
},
"doc://FanapPodChatSDK/documentation/FanapPodChatSDK/ChatMessageVOTypes/LOGOUT": {
  "abstract" : [

  ],
  "fragments" : [
    {
      "kind" : "keyword",
      "text" : "case"
    },
    {
      "kind" : "text",
      "text" : " "
    },
    {
      "kind" : "identifier",
      "text" : "LOGOUT"
    }
  ],
  "identifier" : "doc:\/\/FanapPodChatSDK\/documentation\/FanapPodChatSDK\/ChatMessageVOTypes\/LOGOUT",
  "kind" : "symbol",
  "role" : "symbol",
  "title" : "ChatMessageVOTypes.LOGOUT",
  "type" : "topic",
  "url" : "\/documentation\/fanappodchatsdk\/chatmessagevotypes\/logout"
},
"doc://FanapPodChatSDK/documentation/FanapPodChatSDK/ChatMessageVOTypes/MESSAGE": {
  "abstract" : [

  ],
  "fragments" : [
    {
      "kind" : "keyword",
      "text" : "case"
    },
    {
      "kind" : "text",
      "text" : " "
    },
    {
      "kind" : "identifier",
      "text" : "MESSAGE"
    }
  ],
  "identifier" : "doc:\/\/FanapPodChatSDK\/documentation\/FanapPodChatSDK\/ChatMessageVOTypes\/MESSAGE",
  "kind" : "symbol",
  "role" : "symbol",
  "title" : "ChatMessageVOTypes.MESSAGE",
  "type" : "topic",
  "url" : "\/documentation\/fanappodchatsdk\/chatmessagevotypes\/message"
},
"doc://FanapPodChatSDK/documentation/FanapPodChatSDK/ChatMessageVOTypes/MUTE_THREAD": {
  "abstract" : [

  ],
  "fragments" : [
    {
      "kind" : "keyword",
      "text" : "case"
    },
    {
      "kind" : "text",
      "text" : " "
    },
    {
      "kind" : "identifier",
      "text" : "MUTE_THREAD"
    }
  ],
  "identifier" : "doc:\/\/FanapPodChatSDK\/documentation\/FanapPodChatSDK\/ChatMessageVOTypes\/MUTE_THREAD",
  "kind" : "symbol",
  "role" : "symbol",
  "title" : "ChatMessageVOTypes.MUTE_THREAD",
  "type" : "topic",
  "url" : "\/documentation\/fanappodchatsdk\/chatmessagevotypes\/mute_thread"
},
"doc://FanapPodChatSDK/documentation/FanapPodChatSDK/ChatMessageVOTypes/MUTUAL_GROUPS": {
  "abstract" : [

  ],
  "fragments" : [
    {
      "kind" : "keyword",
      "text" : "case"
    },
    {
      "kind" : "text",
      "text" : " "
    },
    {
      "kind" : "identifier",
      "text" : "MUTUAL_GROUPS"
    }
  ],
  "identifier" : "doc:\/\/FanapPodChatSDK\/documentation\/FanapPodChatSDK\/ChatMessageVOTypes\/MUTUAL_GROUPS",
  "kind" : "symbol",
  "role" : "symbol",
  "title" : "ChatMessageVOTypes.MUTUAL_GROUPS",
  "type" : "topic",
  "url" : "\/documentation\/fanappodchatsdk\/chatmessagevotypes\/mutual_groups"
},
"doc://FanapPodChatSDK/documentation/FanapPodChatSDK/ChatMessageVOTypes/PING": {
  "abstract" : [

  ],
  "fragments" : [
    {
      "kind" : "keyword",
      "text" : "case"
    },
    {
      "kind" : "text",
      "text" : " "
    },
    {
      "kind" : "identifier",
      "text" : "PING"
    }
  ],
  "identifier" : "doc:\/\/FanapPodChatSDK\/documentation\/FanapPodChatSDK\/ChatMessageVOTypes\/PING",
  "kind" : "symbol",
  "role" : "symbol",
  "title" : "ChatMessageVOTypes.PING",
  "type" : "topic",
  "url" : "\/documentation\/fanappodchatsdk\/chatmessagevotypes\/ping"
},
"doc://FanapPodChatSDK/documentation/FanapPodChatSDK/ChatMessageVOTypes/PIN_MESSAGE": {
  "abstract" : [

  ],
  "fragments" : [
    {
      "kind" : "keyword",
      "text" : "case"
    },
    {
      "kind" : "text",
      "text" : " "
    },
    {
      "kind" : "identifier",
      "text" : "PIN_MESSAGE"
    }
  ],
  "identifier" : "doc:\/\/FanapPodChatSDK\/documentation\/FanapPodChatSDK\/ChatMessageVOTypes\/PIN_MESSAGE",
  "kind" : "symbol",
  "role" : "symbol",
  "title" : "ChatMessageVOTypes.PIN_MESSAGE",
  "type" : "topic",
  "url" : "\/documentation\/fanappodchatsdk\/chatmessagevotypes\/pin_message"
},
"doc://FanapPodChatSDK/documentation/FanapPodChatSDK/ChatMessageVOTypes/PIN_THREAD": {
  "abstract" : [

  ],
  "fragments" : [
    {
      "kind" : "keyword",
      "text" : "case"
    },
    {
      "kind" : "text",
      "text" : " "
    },
    {
      "kind" : "identifier",
      "text" : "PIN_THREAD"
    }
  ],
  "identifier" : "doc:\/\/FanapPodChatSDK\/documentation\/FanapPodChatSDK\/ChatMessageVOTypes\/PIN_THREAD",
  "kind" : "symbol",
  "role" : "symbol",
  "title" : "ChatMessageVOTypes.PIN_THREAD",
  "type" : "topic",
  "url" : "\/documentation\/fanappodchatsdk\/chatmessagevotypes\/pin_thread"
},
"doc://FanapPodChatSDK/documentation/FanapPodChatSDK/ChatMessageVOTypes/REGISTER_ASSISTANT": {
  "abstract" : [

  ],
  "fragments" : [
    {
      "kind" : "keyword",
      "text" : "case"
    },
    {
      "kind" : "text",
      "text" : " "
    },
    {
      "kind" : "identifier",
      "text" : "REGISTER_ASSISTANT"
    }
  ],
  "identifier" : "doc:\/\/FanapPodChatSDK\/documentation\/FanapPodChatSDK\/ChatMessageVOTypes\/REGISTER_ASSISTANT",
  "kind" : "symbol",
  "role" : "symbol",
  "title" : "ChatMessageVOTypes.REGISTER_ASSISTANT",
  "type" : "topic",
  "url" : "\/documentation\/fanappodchatsdk\/chatmessagevotypes\/register_assistant"
},
"doc://FanapPodChatSDK/documentation/FanapPodChatSDK/ChatMessageVOTypes/RELATION_INFO": {
  "abstract" : [

  ],
  "fragments" : [
    {
      "kind" : "keyword",
      "text" : "case"
    },
    {
      "kind" : "text",
      "text" : " "
    },
    {
      "kind" : "identifier",
      "text" : "RELATION_INFO"
    }
  ],
  "identifier" : "doc:\/\/FanapPodChatSDK\/documentation\/FanapPodChatSDK\/ChatMessageVOTypes\/RELATION_INFO",
  "kind" : "symbol",
  "role" : "symbol",
  "title" : "ChatMessageVOTypes.RELATION_INFO",
  "type" : "topic",
  "url" : "\/documentation\/fanappodchatsdk\/chatmessagevotypes\/relation_info"
},
"doc://FanapPodChatSDK/documentation/FanapPodChatSDK/ChatMessageVOTypes/REMOVED_FROM_THREAD": {
  "abstract" : [

  ],
  "fragments" : [
    {
      "kind" : "keyword",
      "text" : "case"
    },
    {
      "kind" : "text",
      "text" : " "
    },
    {
      "kind" : "identifier",
      "text" : "REMOVED_FROM_THREAD"
    }
  ],
  "identifier" : "doc:\/\/FanapPodChatSDK\/documentation\/FanapPodChatSDK\/ChatMessageVOTypes\/REMOVED_FROM_THREAD",
  "kind" : "symbol",
  "role" : "symbol",
  "title" : "ChatMessageVOTypes.REMOVED_FROM_THREAD",
  "type" : "topic",
  "url" : "\/documentation\/fanappodchatsdk\/chatmessagevotypes\/removed_from_thread"
},
"doc://FanapPodChatSDK/documentation/FanapPodChatSDK/ChatMessageVOTypes/REMOVE_BOT_COMMANDS": {
  "abstract" : [

  ],
  "fragments" : [
    {
      "kind" : "keyword",
      "text" : "case"
    },
    {
      "kind" : "text",
      "text" : " "
    },
    {
      "kind" : "identifier",
      "text" : "REMOVE_BOT_COMMANDS"
    }
  ],
  "identifier" : "doc:\/\/FanapPodChatSDK\/documentation\/FanapPodChatSDK\/ChatMessageVOTypes\/REMOVE_BOT_COMMANDS",
  "kind" : "symbol",
  "role" : "symbol",
  "title" : "ChatMessageVOTypes.REMOVE_BOT_COMMANDS",
  "type" : "topic",
  "url" : "\/documentation\/fanappodchatsdk\/chatmessagevotypes\/remove_bot_commands"
},
"doc://FanapPodChatSDK/documentation/FanapPodChatSDK/ChatMessageVOTypes/REMOVE_PARTICIPANT": {
  "abstract" : [

  ],
  "fragments" : [
    {
      "kind" : "keyword",
      "text" : "case"
    },
    {
      "kind" : "text",
      "text" : " "
    },
    {
      "kind" : "identifier",
      "text" : "REMOVE_PARTICIPANT"
    }
  ],
  "identifier" : "doc:\/\/FanapPodChatSDK\/documentation\/FanapPodChatSDK\/ChatMessageVOTypes\/REMOVE_PARTICIPANT",
  "kind" : "symbol",
  "role" : "symbol",
  "title" : "ChatMessageVOTypes.REMOVE_PARTICIPANT",
  "type" : "topic",
  "url" : "\/documentation\/fanappodchatsdk\/chatmessagevotypes\/remove_participant"
},
"doc://FanapPodChatSDK/documentation/FanapPodChatSDK/ChatMessageVOTypes/REMOVE_ROLE_FROM_USER": {
  "abstract" : [

  ],
  "fragments" : [
    {
      "kind" : "keyword",
      "text" : "case"
    },
    {
      "kind" : "text",
      "text" : " "
    },
    {
      "kind" : "identifier",
      "text" : "REMOVE_ROLE_FROM_USER"
    }
  ],
  "identifier" : "doc:\/\/FanapPodChatSDK\/documentation\/FanapPodChatSDK\/ChatMessageVOTypes\/REMOVE_ROLE_FROM_USER",
  "kind" : "symbol",
  "role" : "symbol",
  "title" : "ChatMessageVOTypes.REMOVE_ROLE_FROM_USER",
  "type" : "topic",
  "url" : "\/documentation\/fanappodchatsdk\/chatmessagevotypes\/remove_role_from_user"
},
"doc://FanapPodChatSDK/documentation/FanapPodChatSDK/ChatMessageVOTypes/REMOVE_TAG_PARTICIPANTS": {
  "abstract" : [

  ],
  "fragments" : [
    {
      "kind" : "keyword",
      "text" : "case"
    },
    {
      "kind" : "text",
      "text" : " "
    },
    {
      "kind" : "identifier",
      "text" : "REMOVE_TAG_PARTICIPANTS"
    }
  ],
  "identifier" : "doc:\/\/FanapPodChatSDK\/documentation\/FanapPodChatSDK\/ChatMessageVOTypes\/REMOVE_TAG_PARTICIPANTS",
  "kind" : "symbol",
  "role" : "symbol",
  "title" : "ChatMessageVOTypes.REMOVE_TAG_PARTICIPANTS",
  "type" : "topic",
  "url" : "\/documentation\/fanappodchatsdk\/chatmessagevotypes\/remove_tag_participants"
},
"doc://FanapPodChatSDK/documentation/FanapPodChatSDK/ChatMessageVOTypes/RENAME": {
  "abstract" : [

  ],
  "fragments" : [
    {
      "kind" : "keyword",
      "text" : "case"
    },
    {
      "kind" : "text",
      "text" : " "
    },
    {
      "kind" : "identifier",
      "text" : "RENAME"
    }
  ],
  "identifier" : "doc:\/\/FanapPodChatSDK\/documentation\/FanapPodChatSDK\/ChatMessageVOTypes\/RENAME",
  "kind" : "symbol",
  "role" : "symbol",
  "title" : "ChatMessageVOTypes.RENAME",
  "type" : "topic",
  "url" : "\/documentation\/fanappodchatsdk\/chatmessagevotypes\/rename"
},
"doc://FanapPodChatSDK/documentation/FanapPodChatSDK/ChatMessageVOTypes/REPORT_MESSAGE": {
  "abstract" : [

  ],
  "fragments" : [
    {
      "kind" : "keyword",
      "text" : "case"
    },
    {
      "kind" : "text",
      "text" : " "
    },
    {
      "kind" : "identifier",
      "text" : "REPORT_MESSAGE"
    }
  ],
  "identifier" : "doc:\/\/FanapPodChatSDK\/documentation\/FanapPodChatSDK\/ChatMessageVOTypes\/REPORT_MESSAGE",
  "kind" : "symbol",
  "role" : "symbol",
  "title" : "ChatMessageVOTypes.REPORT_MESSAGE",
  "type" : "topic",
  "url" : "\/documentation\/fanappodchatsdk\/chatmessagevotypes\/report_message"
},
"doc://FanapPodChatSDK/documentation/FanapPodChatSDK/ChatMessageVOTypes/REPORT_THREAD": {
  "abstract" : [

  ],
  "fragments" : [
    {
      "kind" : "keyword",
      "text" : "case"
    },
    {
      "kind" : "text",
      "text" : " "
    },
    {
      "kind" : "identifier",
      "text" : "REPORT_THREAD"
    }
  ],
  "identifier" : "doc:\/\/FanapPodChatSDK\/documentation\/FanapPodChatSDK\/ChatMessageVOTypes\/REPORT_THREAD",
  "kind" : "symbol",
  "role" : "symbol",
  "title" : "ChatMessageVOTypes.REPORT_THREAD",
  "type" : "topic",
  "url" : "\/documentation\/fanappodchatsdk\/chatmessagevotypes\/report_thread"
},
"doc://FanapPodChatSDK/documentation/FanapPodChatSDK/ChatMessageVOTypes/REPORT_USER": {
  "abstract" : [

  ],
  "fragments" : [
    {
      "kind" : "keyword",
      "text" : "case"
    },
    {
      "kind" : "text",
      "text" : " "
    },
    {
      "kind" : "identifier",
      "text" : "REPORT_USER"
    }
  ],
  "identifier" : "doc:\/\/FanapPodChatSDK\/documentation\/FanapPodChatSDK\/ChatMessageVOTypes\/REPORT_USER",
  "kind" : "symbol",
  "role" : "symbol",
  "title" : "ChatMessageVOTypes.REPORT_USER",
  "type" : "topic",
  "url" : "\/documentation\/fanappodchatsdk\/chatmessagevotypes\/report_user"
},
"doc://FanapPodChatSDK/documentation/FanapPodChatSDK/ChatMessageVOTypes/RawRepresentable-Implementations": {
  "abstract" : [

  ],
  "identifier" : "doc:\/\/FanapPodChatSDK\/documentation\/FanapPodChatSDK\/ChatMessageVOTypes\/RawRepresentable-Implementations",
  "kind" : "article",
  "role" : "collectionGroup",
  "title" : "RawRepresentable Implementations",
  "type" : "topic",
  "url" : "\/documentation\/fanappodchatsdk\/chatmessagevotypes\/rawrepresentable-implementations"
},
"doc://FanapPodChatSDK/documentation/FanapPodChatSDK/ChatMessageVOTypes/SEEN": {
  "abstract" : [

  ],
  "fragments" : [
    {
      "kind" : "keyword",
      "text" : "case"
    },
    {
      "kind" : "text",
      "text" : " "
    },
    {
      "kind" : "identifier",
      "text" : "SEEN"
    }
  ],
  "identifier" : "doc:\/\/FanapPodChatSDK\/documentation\/FanapPodChatSDK\/ChatMessageVOTypes\/SEEN",
  "kind" : "symbol",
  "role" : "symbol",
  "title" : "ChatMessageVOTypes.SEEN",
  "type" : "topic",
  "url" : "\/documentation\/fanappodchatsdk\/chatmessagevotypes\/seen"
},
"doc://FanapPodChatSDK/documentation/FanapPodChatSDK/ChatMessageVOTypes/SENT": {
  "abstract" : [

  ],
  "fragments" : [
    {
      "kind" : "keyword",
      "text" : "case"
    },
    {
      "kind" : "text",
      "text" : " "
    },
    {
      "kind" : "identifier",
      "text" : "SENT"
    }
  ],
  "identifier" : "doc:\/\/FanapPodChatSDK\/documentation\/FanapPodChatSDK\/ChatMessageVOTypes\/SENT",
  "kind" : "symbol",
  "role" : "symbol",
  "title" : "ChatMessageVOTypes.SENT",
  "type" : "topic",
  "url" : "\/documentation\/fanappodchatsdk\/chatmessagevotypes\/sent"
},
"doc://FanapPodChatSDK/documentation/FanapPodChatSDK/ChatMessageVOTypes/SET_PROFILE": {
  "abstract" : [

  ],
  "fragments" : [
    {
      "kind" : "keyword",
      "text" : "case"
    },
    {
      "kind" : "text",
      "text" : " "
    },
    {
      "kind" : "identifier",
      "text" : "SET_PROFILE"
    }
  ],
  "identifier" : "doc:\/\/FanapPodChatSDK\/documentation\/FanapPodChatSDK\/ChatMessageVOTypes\/SET_PROFILE",
  "kind" : "symbol",
  "role" : "symbol",
  "title" : "ChatMessageVOTypes.SET_PROFILE",
  "type" : "topic",
  "url" : "\/documentation\/fanappodchatsdk\/chatmessagevotypes\/set_profile"
},
"doc://FanapPodChatSDK/documentation/FanapPodChatSDK/ChatMessageVOTypes/SET_RULE_TO_USER": {
  "abstract" : [

  ],
  "fragments" : [
    {
      "kind" : "keyword",
      "text" : "case"
    },
    {
      "kind" : "text",
      "text" : " "
    },
    {
      "kind" : "identifier",
      "text" : "SET_RULE_TO_USER"
    }
  ],
  "identifier" : "doc:\/\/FanapPodChatSDK\/documentation\/FanapPodChatSDK\/ChatMessageVOTypes\/SET_RULE_TO_USER",
  "kind" : "symbol",
  "role" : "symbol",
  "title" : "ChatMessageVOTypes.SET_RULE_TO_USER",
  "type" : "topic",
  "url" : "\/documentation\/fanappodchatsdk\/chatmessagevotypes\/set_rule_to_user"
},
"doc://FanapPodChatSDK/documentation/FanapPodChatSDK/ChatMessageVOTypes/SPAM_PV_THREAD": {
  "abstract" : [

  ],
  "fragments" : [
    {
      "kind" : "keyword",
      "text" : "case"
    },
    {
      "kind" : "text",
      "text" : " "
    },
    {
      "kind" : "identifier",
      "text" : "SPAM_PV_THREAD"
    }
  ],
  "identifier" : "doc:\/\/FanapPodChatSDK\/documentation\/FanapPodChatSDK\/ChatMessageVOTypes\/SPAM_PV_THREAD",
  "kind" : "symbol",
  "role" : "symbol",
  "title" : "ChatMessageVOTypes.SPAM_PV_THREAD",
  "type" : "topic",
  "url" : "\/documentation\/fanappodchatsdk\/chatmessagevotypes\/spam_pv_thread"
},
"doc://FanapPodChatSDK/documentation/FanapPodChatSDK/ChatMessageVOTypes/START_BOT": {
  "abstract" : [

  ],
  "fragments" : [
    {
      "kind" : "keyword",
      "text" : "case"
    },
    {
      "kind" : "text",
      "text" : " "
    },
    {
      "kind" : "identifier",
      "text" : "START_BOT"
    }
  ],
  "identifier" : "doc:\/\/FanapPodChatSDK\/documentation\/FanapPodChatSDK\/ChatMessageVOTypes\/START_BOT",
  "kind" : "symbol",
  "role" : "symbol",
  "title" : "ChatMessageVOTypes.START_BOT",
  "type" : "topic",
  "url" : "\/documentation\/fanappodchatsdk\/chatmessagevotypes\/start_bot"
},
"doc://FanapPodChatSDK/documentation/FanapPodChatSDK/ChatMessageVOTypes/STATUS_PING": {
  "abstract" : [

  ],
  "fragments" : [
    {
      "kind" : "keyword",
      "text" : "case"
    },
    {
      "kind" : "text",
      "text" : " "
    },
    {
      "kind" : "identifier",
      "text" : "STATUS_PING"
    }
  ],
  "identifier" : "doc:\/\/FanapPodChatSDK\/documentation\/FanapPodChatSDK\/ChatMessageVOTypes\/STATUS_PING",
  "kind" : "symbol",
  "role" : "symbol",
  "title" : "ChatMessageVOTypes.STATUS_PING",
  "type" : "topic",
  "url" : "\/documentation\/fanappodchatsdk\/chatmessagevotypes\/status_ping"
},
"doc://FanapPodChatSDK/documentation/FanapPodChatSDK/ChatMessageVOTypes/STOP_BOT": {
  "abstract" : [

  ],
  "fragments" : [
    {
      "kind" : "keyword",
      "text" : "case"
    },
    {
      "kind" : "text",
      "text" : " "
    },
    {
      "kind" : "identifier",
      "text" : "STOP_BOT"
    }
  ],
  "identifier" : "doc:\/\/FanapPodChatSDK\/documentation\/FanapPodChatSDK\/ChatMessageVOTypes\/STOP_BOT",
  "kind" : "symbol",
  "role" : "symbol",
  "title" : "ChatMessageVOTypes.STOP_BOT",
  "type" : "topic",
  "url" : "\/documentation\/fanappodchatsdk\/chatmessagevotypes\/stop_bot"
},
"doc://FanapPodChatSDK/documentation/FanapPodChatSDK/ChatMessageVOTypes/SYSTEM_MESSAGE": {
  "abstract" : [

  ],
  "fragments" : [
    {
      "kind" : "keyword",
      "text" : "case"
    },
    {
      "kind" : "text",
      "text" : " "
    },
    {
      "kind" : "identifier",
      "text" : "SYSTEM_MESSAGE"
    }
  ],
  "identifier" : "doc:\/\/FanapPodChatSDK\/documentation\/FanapPodChatSDK\/ChatMessageVOTypes\/SYSTEM_MESSAGE",
  "kind" : "symbol",
  "role" : "symbol",
  "title" : "ChatMessageVOTypes.SYSTEM_MESSAGE",
  "type" : "topic",
  "url" : "\/documentation\/fanappodchatsdk\/chatmessagevotypes\/system_message"
},
"doc://FanapPodChatSDK/documentation/FanapPodChatSDK/ChatMessageVOTypes/TAG_LIST": {
  "abstract" : [

  ],
  "fragments" : [
    {
      "kind" : "keyword",
      "text" : "case"
    },
    {
      "kind" : "text",
      "text" : " "
    },
    {
      "kind" : "identifier",
      "text" : "TAG_LIST"
    }
  ],
  "identifier" : "doc:\/\/FanapPodChatSDK\/documentation\/FanapPodChatSDK\/ChatMessageVOTypes\/TAG_LIST",
  "kind" : "symbol",
  "role" : "symbol",
  "title" : "ChatMessageVOTypes.TAG_LIST",
  "type" : "topic",
  "url" : "\/documentation\/fanappodchatsdk\/chatmessagevotypes\/tag_list"
},
"doc://FanapPodChatSDK/documentation/FanapPodChatSDK/ChatMessageVOTypes/THREAD_INFO_UPDATED": {
  "abstract" : [

  ],
  "fragments" : [
    {
      "kind" : "keyword",
      "text" : "case"
    },
    {
      "kind" : "text",
      "text" : " "
    },
    {
      "kind" : "identifier",
      "text" : "THREAD_INFO_UPDATED"
    }
  ],
  "identifier" : "doc:\/\/FanapPodChatSDK\/documentation\/FanapPodChatSDK\/ChatMessageVOTypes\/THREAD_INFO_UPDATED",
  "kind" : "symbol",
  "role" : "symbol",
  "title" : "ChatMessageVOTypes.THREAD_INFO_UPDATED",
  "type" : "topic",
  "url" : "\/documentation\/fanappodchatsdk\/chatmessagevotypes\/thread_info_updated"
},
"doc://FanapPodChatSDK/documentation/FanapPodChatSDK/ChatMessageVOTypes/THREAD_PARTICIPANTS": {
  "abstract" : [

  ],
  "fragments" : [
    {
      "kind" : "keyword",
      "text" : "case"
    },
    {
      "kind" : "text",
      "text" : " "
    },
    {
      "kind" : "identifier",
      "text" : "THREAD_PARTICIPANTS"
    }
  ],
  "identifier" : "doc:\/\/FanapPodChatSDK\/documentation\/FanapPodChatSDK\/ChatMessageVOTypes\/THREAD_PARTICIPANTS",
  "kind" : "symbol",
  "role" : "symbol",
  "title" : "ChatMessageVOTypes.THREAD_PARTICIPANTS",
  "type" : "topic",
  "url" : "\/documentation\/fanappodchatsdk\/chatmessagevotypes\/thread_participants"
},
"doc://FanapPodChatSDK/documentation/FanapPodChatSDK/ChatMessageVOTypes/UNBLOCK": {
  "abstract" : [

  ],
  "fragments" : [
    {
      "kind" : "keyword",
      "text" : "case"
    },
    {
      "kind" : "text",
      "text" : " "
    },
    {
      "kind" : "identifier",
      "text" : "UNBLOCK"
    }
  ],
  "identifier" : "doc:\/\/FanapPodChatSDK\/documentation\/FanapPodChatSDK\/ChatMessageVOTypes\/UNBLOCK",
  "kind" : "symbol",
  "role" : "symbol",
  "title" : "ChatMessageVOTypes.UNBLOCK",
  "type" : "topic",
  "url" : "\/documentation\/fanappodchatsdk\/chatmessagevotypes\/unblock"
},
"doc://FanapPodChatSDK/documentation/FanapPodChatSDK/ChatMessageVOTypes/UNBLOCK_ASSISTANT": {
  "abstract" : [

  ],
  "fragments" : [
    {
      "kind" : "keyword",
      "text" : "case"
    },
    {
      "kind" : "text",
      "text" : " "
    },
    {
      "kind" : "identifier",
      "text" : "UNBLOCK_ASSISTANT"
    }
  ],
  "identifier" : "doc:\/\/FanapPodChatSDK\/documentation\/FanapPodChatSDK\/ChatMessageVOTypes\/UNBLOCK_ASSISTANT",
  "kind" : "symbol",
  "role" : "symbol",
  "title" : "ChatMessageVOTypes.UNBLOCK_ASSISTANT",
  "type" : "topic",
  "url" : "\/documentation\/fanappodchatsdk\/chatmessagevotypes\/unblock_assistant"
},
"doc://FanapPodChatSDK/documentation/FanapPodChatSDK/ChatMessageVOTypes/UNKNOWN": {
  "abstract" : [
    {
      "text" : "Only when can’t decode a type.",
      "type" : "text"
    }
  ],
  "fragments" : [
    {
      "kind" : "keyword",
      "text" : "case"
    },
    {
      "kind" : "text",
      "text" : " "
    },
    {
      "kind" : "identifier",
      "text" : "UNKNOWN"
    }
  ],
  "identifier" : "doc:\/\/FanapPodChatSDK\/documentation\/FanapPodChatSDK\/ChatMessageVOTypes\/UNKNOWN",
  "kind" : "symbol",
  "role" : "symbol",
  "title" : "ChatMessageVOTypes.UNKNOWN",
  "type" : "topic",
  "url" : "\/documentation\/fanappodchatsdk\/chatmessagevotypes\/unknown"
},
"doc://FanapPodChatSDK/documentation/FanapPodChatSDK/ChatMessageVOTypes/UNMUTE_THREAD": {
  "abstract" : [

  ],
  "fragments" : [
    {
      "kind" : "keyword",
      "text" : "case"
    },
    {
      "kind" : "text",
      "text" : " "
    },
    {
      "kind" : "identifier",
      "text" : "UNMUTE_THREAD"
    }
  ],
  "identifier" : "doc:\/\/FanapPodChatSDK\/documentation\/FanapPodChatSDK\/ChatMessageVOTypes\/UNMUTE_THREAD",
  "kind" : "symbol",
  "role" : "symbol",
  "title" : "ChatMessageVOTypes.UNMUTE_THREAD",
  "type" : "topic",
  "url" : "\/documentation\/fanappodchatsdk\/chatmessagevotypes\/unmute_thread"
},
"doc://FanapPodChatSDK/documentation/FanapPodChatSDK/ChatMessageVOTypes/UNPIN_MESSAGE": {
  "abstract" : [

  ],
  "fragments" : [
    {
      "kind" : "keyword",
      "text" : "case"
    },
    {
      "kind" : "text",
      "text" : " "
    },
    {
      "kind" : "identifier",
      "text" : "UNPIN_MESSAGE"
    }
  ],
  "identifier" : "doc:\/\/FanapPodChatSDK\/documentation\/FanapPodChatSDK\/ChatMessageVOTypes\/UNPIN_MESSAGE",
  "kind" : "symbol",
  "role" : "symbol",
  "title" : "ChatMessageVOTypes.UNPIN_MESSAGE",
  "type" : "topic",
  "url" : "\/documentation\/fanappodchatsdk\/chatmessagevotypes\/unpin_message"
},
"doc://FanapPodChatSDK/documentation/FanapPodChatSDK/ChatMessageVOTypes/UNPIN_THREAD": {
  "abstract" : [

  ],
  "fragments" : [
    {
      "kind" : "keyword",
      "text" : "case"
    },
    {
      "kind" : "text",
      "text" : " "
    },
    {
      "kind" : "identifier",
      "text" : "UNPIN_THREAD"
    }
  ],
  "identifier" : "doc:\/\/FanapPodChatSDK\/documentation\/FanapPodChatSDK\/ChatMessageVOTypes\/UNPIN_THREAD",
  "kind" : "symbol",
  "role" : "symbol",
  "title" : "ChatMessageVOTypes.UNPIN_THREAD",
  "type" : "topic",
  "url" : "\/documentation\/fanappodchatsdk\/chatmessagevotypes\/unpin_thread"
},
"doc://FanapPodChatSDK/documentation/FanapPodChatSDK/ChatMessageVOTypes/UPDATE_THREAD_INFO": {
  "abstract" : [

  ],
  "fragments" : [
    {
      "kind" : "keyword",
      "text" : "case"
    },
    {
      "kind" : "text",
      "text" : " "
    },
    {
      "kind" : "identifier",
      "text" : "UPDATE_THREAD_INFO"
    }
  ],
  "identifier" : "doc:\/\/FanapPodChatSDK\/documentation\/FanapPodChatSDK\/ChatMessageVOTypes\/UPDATE_THREAD_INFO",
  "kind" : "symbol",
  "role" : "symbol",
  "title" : "ChatMessageVOTypes.UPDATE_THREAD_INFO",
  "type" : "topic",
  "url" : "\/documentation\/fanappodchatsdk\/chatmessagevotypes\/update_thread_info"
},
"doc://FanapPodChatSDK/documentation/FanapPodChatSDK/ChatMessageVOTypes/USER_INFO": {
  "abstract" : [

  ],
  "fragments" : [
    {
      "kind" : "keyword",
      "text" : "case"
    },
    {
      "kind" : "text",
      "text" : " "
    },
    {
      "kind" : "identifier",
      "text" : "USER_INFO"
    }
  ],
  "identifier" : "doc:\/\/FanapPodChatSDK\/documentation\/FanapPodChatSDK\/ChatMessageVOTypes\/USER_INFO",
  "kind" : "symbol",
  "role" : "symbol",
  "title" : "ChatMessageVOTypes.USER_INFO",
  "type" : "topic",
  "url" : "\/documentation\/fanappodchatsdk\/chatmessagevotypes\/user_info"
},
"doc://FanapPodChatSDK/documentation/FanapPodChatSDK/ChatMessageVOTypes/USER_STATUS": {
  "abstract" : [

  ],
  "fragments" : [
    {
      "kind" : "keyword",
      "text" : "case"
    },
    {
      "kind" : "text",
      "text" : " "
    },
    {
      "kind" : "identifier",
      "text" : "USER_STATUS"
    }
  ],
  "identifier" : "doc:\/\/FanapPodChatSDK\/documentation\/FanapPodChatSDK\/ChatMessageVOTypes\/USER_STATUS",
  "kind" : "symbol",
  "role" : "symbol",
  "title" : "ChatMessageVOTypes.USER_STATUS",
  "type" : "topic",
  "url" : "\/documentation\/fanappodchatsdk\/chatmessagevotypes\/user_status"
},
"doc://FanapPodChatSDK/documentation/FanapPodChatSDK/ChatMessageVOTypes/init(rawValue:)": {
  "abstract" : [

  ],
  "fragments" : [
    {
      "kind" : "identifier",
      "text" : "init"
    },
    {
      "kind" : "text",
      "text" : "?("
    },
    {
      "kind" : "externalParam",
      "text" : "rawValue"
    },
    {
      "kind" : "text",
      "text" : ": "
    },
    {
      "kind" : "typeIdentifier",
      "preciseIdentifier" : "s:Si",
      "text" : "Int"
    },
    {
      "kind" : "text",
      "text" : ")"
    }
  ],
  "identifier" : "doc:\/\/FanapPodChatSDK\/documentation\/FanapPodChatSDK\/ChatMessageVOTypes\/init(rawValue:)",
  "kind" : "symbol",
  "role" : "symbol",
  "title" : "init(rawValue:)",
  "type" : "topic",
  "url" : "\/documentation\/fanappodchatsdk\/chatmessagevotypes\/init(rawvalue:)"
},
"doc://FanapPodChatSDK/documentation/FanapPodChatSDK/SafeDecodable": {
  "abstract" : [

  ],
  "fragments" : [
    {
      "kind" : "keyword",
      "text" : "protocol"
    },
    {
      "kind" : "text",
      "text" : " "
    },
    {
      "kind" : "identifier",
      "text" : "SafeDecodable"
    }
  ],
  "identifier" : "doc:\/\/FanapPodChatSDK\/documentation\/FanapPodChatSDK\/SafeDecodable",
  "kind" : "symbol",
  "navigatorTitle" : [
    {
      "kind" : "identifier",
      "text" : "SafeDecodable"
    }
  ],
  "role" : "symbol",
  "title" : "SafeDecodable",
  "type" : "topic",
  "url" : "\/documentation\/fanappodchatsdk\/safedecodable"
},
"doc://FanapPodChatSDK/s12CaseIterableP": {
  "identifier" : "doc:\/\/FanapPodChatSDK\/s12CaseIterableP",
  "title" : "Swift.CaseIterable",
  "type" : "unresolvable"
}
}
}