{
  "hierarchy" : {
    "paths" : [
      [
        "doc:\/\/FanapPodChatSDK\/documentation\/FanapPodChatSDK"
      ]
    ]
  },
  "identifier" : {
    "interfaceLanguage" : "swift",
    "url" : "doc:\/\/FanapPodChatSDK\/documentation\/FanapPodChatSDK\/CMUserRole"
  },
  "kind" : "symbol",
  "metadata" : {
    "externalID" : "c:@M@FanapPodChatSDK@objc(cs)CMUserRole",
    "fragments" : [
      {
        "kind" : "keyword",
        "text" : "class"
      },
      {
        "kind" : "text",
        "text" : " "
      },
      {
        "kind" : "identifier",
        "text" : "CMUserRole"
      }
    ],
    "modules" : [
      {
        "name" : "FanapPodChatSDK"
      }
    ],
    "navigatorTitle" : [
      {
        "kind" : "identifier",
        "text" : "CMUserRole"
      }
    ],
    "role" : "symbol",
    "roleHeading" : "Class",
    "symbolKind" : "class",
    "title" : "CMUserRole"
  },
  "primaryContentSections" : [
    {
      "declarations" : [
        {
          "languages" : [
            "swift"
          ],
          "platforms" : [
            "macOS"
          ],
          "tokens" : [
            {
              "kind" : "keyword",
              "text" : "class"
            },
            {
              "kind" : "text",
              "text" : " "
            },
            {
              "kind" : "identifier",
              "text" : "CMUserRole"
            }
          ]
        }
      ],
      "kind" : "declarations"
    }
  ],
  "relationshipsSections" : [
    {
      "identifiers" : [
        "doc:\/\/FanapPodChatSDK\/objc(cs)NSManagedObject"
      ],
      "kind" : "relationships",
      "title" : "Inherits From",
      "type" : "inheritsFrom"
    },
    {
      "identifiers" : [
        "doc:\/\/FanapPodChatSDK\/7Combine16ObservableObjectP",
        "doc:\/\/FanapPodChatSDK\/objc(pl)NSFetchRequestResult",
        "doc:\/\/FanapPodChatSDK\/objc(pl)NSObject",
        "doc:\/\/FanapPodChatSDK\/s7CVarArgP",
        "doc:\/\/FanapPodChatSDK\/s28CustomDebugStringConvertibleP",
        "doc:\/\/FanapPodChatSDK\/s23CustomStringConvertibleP",
        "doc:\/\/FanapPodChatSDK\/SQ",
        "doc:\/\/FanapPodChatSDK\/SH"
      ],
      "kind" : "relationships",
      "title" : "Conforms To",
      "type" : "conformsTo"
    }
  ],
  "schemaVersion" : {
    "major" : 0,
    "minor" : 3,
    "patch" : 0
  },
  "sections" : [

  ],
  "topicSections" : [
    {
      "identifiers" : [
        "doc:\/\/FanapPodChatSDK\/documentation\/FanapPodChatSDK\/CMUserRole\/conversation",
        "doc:\/\/FanapPodChatSDK\/documentation\/FanapPodChatSDK\/CMUserRole\/id",
        "doc:\/\/FanapPodChatSDK\/documentation\/FanapPodChatSDK\/CMUserRole\/name",
        "doc:\/\/FanapPodChatSDK\/documentation\/FanapPodChatSDK\/CMUserRole\/roles",
        "doc:\/\/FanapPodChatSDK\/documentation\/FanapPodChatSDK\/CMUserRole\/threadId"
      ],
      "title" : "Instance Properties"
    },
    {
      "identifiers" : [
        "doc:\/\/FanapPodChatSDK\/documentation\/FanapPodChatSDK\/CMUserRole\/addToConversation(_:)-6ltu4",
        "doc:\/\/FanapPodChatSDK\/documentation\/FanapPodChatSDK\/CMUserRole\/addToConversation(_:)-cu14",
        "doc:\/\/FanapPodChatSDK\/documentation\/FanapPodChatSDK\/CMUserRole\/getCodable()",
        "doc:\/\/FanapPodChatSDK\/documentation\/FanapPodChatSDK\/CMUserRole\/removeFromConversation(_:)-3orir",
        "doc:\/\/FanapPodChatSDK\/documentation\/FanapPodChatSDK\/CMUserRole\/removeFromConversation(_:)-p2nq"
      ],
      "title" : "Instance Methods"
    },
    {
      "identifiers" : [
        "doc:\/\/FanapPodChatSDK\/documentation\/FanapPodChatSDK\/CMUserRole\/crud"
      ],
      "title" : "Type Properties"
    },
    {
      "identifiers" : [
        "doc:\/\/FanapPodChatSDK\/documentation\/FanapPodChatSDK\/CMUserRole\/convertToCM(userRole:entity:)",
        "doc:\/\/FanapPodChatSDK\/documentation\/FanapPodChatSDK\/CMUserRole\/insertOrUpdate(userRole:resultEntity:)"
      ],
      "title" : "Type Methods"
    }
  ],
  "variants" : [
    {
      "paths" : [
        "\/documentation\/fanappodchatsdk\/cmuserrole"
      ],
      "traits" : [
        {
          "interfaceLanguage" : "swift"
        }
      ]
    }
  ]
, 
"references": {
"doc://FanapPodChatSDK/7Combine16ObservableObjectP": {
  "identifier" : "doc:\/\/FanapPodChatSDK\/7Combine16ObservableObjectP",
  "title" : "Combine.ObservableObject",
  "type" : "unresolvable"
},
"doc://FanapPodChatSDK/SH": {
  "identifier" : "doc:\/\/FanapPodChatSDK\/SH",
  "title" : "Swift.Hashable",
  "type" : "unresolvable"
},
"doc://FanapPodChatSDK/SQ": {
  "identifier" : "doc:\/\/FanapPodChatSDK\/SQ",
  "title" : "Swift.Equatable",
  "type" : "unresolvable"
},
"doc://FanapPodChatSDK/documentation/FanapPodChatSDK": {
  "abstract" : [
    {
      "text" : "With Fanap Chat SDK you could connect to the chat server without managing the socket state and send or receive messages.",
      "type" : "text"
    }
  ],
  "identifier" : "doc:\/\/FanapPodChatSDK\/documentation\/FanapPodChatSDK",
  "kind" : "symbol",
  "role" : "collection",
  "title" : "FanapPodChatSDK",
  "type" : "topic",
  "url" : "\/documentation\/fanappodchatsdk"
},
"doc://FanapPodChatSDK/documentation/FanapPodChatSDK/CMUserRole": {
  "abstract" : [

  ],
  "fragments" : [
    {
      "kind" : "keyword",
      "text" : "class"
    },
    {
      "kind" : "text",
      "text" : " "
    },
    {
      "kind" : "identifier",
      "text" : "CMUserRole"
    }
  ],
  "identifier" : "doc:\/\/FanapPodChatSDK\/documentation\/FanapPodChatSDK\/CMUserRole",
  "kind" : "symbol",
  "navigatorTitle" : [
    {
      "kind" : "identifier",
      "text" : "CMUserRole"
    }
  ],
  "role" : "symbol",
  "title" : "CMUserRole",
  "type" : "topic",
  "url" : "\/documentation\/fanappodchatsdk\/cmuserrole"
},
"doc://FanapPodChatSDK/documentation/FanapPodChatSDK/CMUserRole/addToConversation(_:)-6ltu4": {
  "abstract" : [

  ],
  "fragments" : [
    {
      "kind" : "keyword",
      "text" : "func"
    },
    {
      "kind" : "text",
      "text" : " "
    },
    {
      "kind" : "identifier",
      "text" : "addToConversation"
    },
    {
      "kind" : "text",
      "text" : "("
    },
    {
      "kind" : "typeIdentifier",
      "preciseIdentifier" : "c:objc(cs)NSSet",
      "text" : "NSSet"
    },
    {
      "kind" : "text",
      "text" : ")"
    }
  ],
  "identifier" : "doc:\/\/FanapPodChatSDK\/documentation\/FanapPodChatSDK\/CMUserRole\/addToConversation(_:)-6ltu4",
  "kind" : "symbol",
  "role" : "symbol",
  "title" : "addToConversation(_:)",
  "type" : "topic",
  "url" : "\/documentation\/fanappodchatsdk\/cmuserrole\/addtoconversation(_:)-6ltu4"
},
"doc://FanapPodChatSDK/documentation/FanapPodChatSDK/CMUserRole/addToConversation(_:)-cu14": {
  "abstract" : [

  ],
  "fragments" : [
    {
      "kind" : "keyword",
      "text" : "func"
    },
    {
      "kind" : "text",
      "text" : " "
    },
    {
      "kind" : "identifier",
      "text" : "addToConversation"
    },
    {
      "kind" : "text",
      "text" : "("
    },
    {
      "kind" : "typeIdentifier",
      "preciseIdentifier" : "c:@M@FanapPodChatSDK@objc(cs)CMConversation",
      "text" : "CMConversation"
    },
    {
      "kind" : "text",
      "text" : ")"
    }
  ],
  "identifier" : "doc:\/\/FanapPodChatSDK\/documentation\/FanapPodChatSDK\/CMUserRole\/addToConversation(_:)-cu14",
  "kind" : "symbol",
  "role" : "symbol",
  "title" : "addToConversation(_:)",
  "type" : "topic",
  "url" : "\/documentation\/fanappodchatsdk\/cmuserrole\/addtoconversation(_:)-cu14"
},
"doc://FanapPodChatSDK/documentation/FanapPodChatSDK/CMUserRole/conversation": {
  "abstract" : [

  ],
  "fragments" : [
    {
      "kind" : "keyword",
      "text" : "var"
    },
    {
      "kind" : "text",
      "text" : " "
    },
    {
      "kind" : "identifier",
      "text" : "conversation"
    },
    {
      "kind" : "text",
      "text" : ": "
    },
    {
      "kind" : "typeIdentifier",
      "preciseIdentifier" : "c:objc(cs)NSSet",
      "text" : "NSSet"
    },
    {
      "kind" : "text",
      "text" : "?"
    }
  ],
  "identifier" : "doc:\/\/FanapPodChatSDK\/documentation\/FanapPodChatSDK\/CMUserRole\/conversation",
  "kind" : "symbol",
  "role" : "symbol",
  "title" : "conversation",
  "type" : "topic",
  "url" : "\/documentation\/fanappodchatsdk\/cmuserrole\/conversation"
},
"doc://FanapPodChatSDK/documentation/FanapPodChatSDK/CMUserRole/convertToCM(userRole:entity:)": {
  "abstract" : [

  ],
  "fragments" : [
    {
      "kind" : "keyword",
      "text" : "class"
    },
    {
      "kind" : "text",
      "text" : " "
    },
    {
      "kind" : "keyword",
      "text" : "func"
    },
    {
      "kind" : "text",
      "text" : " "
    },
    {
      "kind" : "identifier",
      "text" : "convertToCM"
    },
    {
      "kind" : "text",
      "text" : "("
    },
    {
      "kind" : "externalParam",
      "text" : "userRole"
    },
    {
      "kind" : "text",
      "text" : ": "
    },
    {
      "kind" : "typeIdentifier",
      "preciseIdentifier" : "s:15FanapPodChatSDK8UserRoleC",
      "text" : "UserRole"
    },
    {
      "kind" : "text",
      "text" : ", "
    },
    {
      "kind" : "externalParam",
      "text" : "entity"
    },
    {
      "kind" : "text",
      "text" : ": "
    },
    {
      "kind" : "typeIdentifier",
      "preciseIdentifier" : "c:@M@FanapPodChatSDK@objc(cs)CMUserRole",
      "text" : "CMUserRole"
    },
    {
      "kind" : "text",
      "text" : "?) -> "
    },
    {
      "kind" : "typeIdentifier",
      "preciseIdentifier" : "c:@M@FanapPodChatSDK@objc(cs)CMUserRole",
      "text" : "CMUserRole"
    }
  ],
  "identifier" : "doc:\/\/FanapPodChatSDK\/documentation\/FanapPodChatSDK\/CMUserRole\/convertToCM(userRole:entity:)",
  "kind" : "symbol",
  "role" : "symbol",
  "title" : "convertToCM(userRole:entity:)",
  "type" : "topic",
  "url" : "\/documentation\/fanappodchatsdk\/cmuserrole\/converttocm(userrole:entity:)"
},
"doc://FanapPodChatSDK/documentation/FanapPodChatSDK/CMUserRole/crud": {
  "abstract" : [

  ],
  "fragments" : [
    {
      "kind" : "keyword",
      "text" : "static"
    },
    {
      "kind" : "text",
      "text" : " "
    },
    {
      "kind" : "keyword",
      "text" : "let"
    },
    {
      "kind" : "text",
      "text" : " "
    },
    {
      "kind" : "identifier",
      "text" : "crud"
    },
    {
      "kind" : "text",
      "text" : ": "
    },
    {
      "kind" : "typeIdentifier",
      "preciseIdentifier" : "s:15FanapPodChatSDK12CoreDataCrudC",
      "text" : "CoreDataCrud"
    },
    {
      "kind" : "text",
      "text" : "<"
    },
    {
      "kind" : "typeIdentifier",
      "preciseIdentifier" : "c:@M@FanapPodChatSDK@objc(cs)CMUserRole",
      "text" : "CMUserRole"
    },
    {
      "kind" : "text",
      "text" : ">"
    }
  ],
  "identifier" : "doc:\/\/FanapPodChatSDK\/documentation\/FanapPodChatSDK\/CMUserRole\/crud",
  "kind" : "symbol",
  "role" : "symbol",
  "title" : "crud",
  "type" : "topic",
  "url" : "\/documentation\/fanappodchatsdk\/cmuserrole\/crud"
},
"doc://FanapPodChatSDK/documentation/FanapPodChatSDK/CMUserRole/getCodable()": {
  "abstract" : [

  ],
  "fragments" : [
    {
      "kind" : "keyword",
      "text" : "func"
    },
    {
      "kind" : "text",
      "text" : " "
    },
    {
      "kind" : "identifier",
      "text" : "getCodable"
    },
    {
      "kind" : "text",
      "text" : "() -> "
    },
    {
      "kind" : "typeIdentifier",
      "preciseIdentifier" : "s:15FanapPodChatSDK8UserRoleC",
      "text" : "UserRole"
    }
  ],
  "identifier" : "doc:\/\/FanapPodChatSDK\/documentation\/FanapPodChatSDK\/CMUserRole\/getCodable()",
  "kind" : "symbol",
  "role" : "symbol",
  "title" : "getCodable()",
  "type" : "topic",
  "url" : "\/documentation\/fanappodchatsdk\/cmuserrole\/getcodable()"
},
"doc://FanapPodChatSDK/documentation/FanapPodChatSDK/CMUserRole/id": {
  "abstract" : [

  ],
  "fragments" : [
    {
      "kind" : "keyword",
      "text" : "var"
    },
    {
      "kind" : "text",
      "text" : " "
    },
    {
      "kind" : "identifier",
      "text" : "id"
    },
    {
      "kind" : "text",
      "text" : ": "
    },
    {
      "kind" : "typeIdentifier",
      "preciseIdentifier" : "c:objc(cs)NSNumber",
      "text" : "NSNumber"
    },
    {
      "kind" : "text",
      "text" : "?"
    }
  ],
  "identifier" : "doc:\/\/FanapPodChatSDK\/documentation\/FanapPodChatSDK\/CMUserRole\/id",
  "kind" : "symbol",
  "role" : "symbol",
  "title" : "id",
  "type" : "topic",
  "url" : "\/documentation\/fanappodchatsdk\/cmuserrole\/id"
},
"doc://FanapPodChatSDK/documentation/FanapPodChatSDK/CMUserRole/insertOrUpdate(userRole:resultEntity:)": {
  "abstract" : [

  ],
  "fragments" : [
    {
      "kind" : "keyword",
      "text" : "class"
    },
    {
      "kind" : "text",
      "text" : " "
    },
    {
      "kind" : "keyword",
      "text" : "func"
    },
    {
      "kind" : "text",
      "text" : " "
    },
    {
      "kind" : "identifier",
      "text" : "insertOrUpdate"
    },
    {
      "kind" : "text",
      "text" : "("
    },
    {
      "kind" : "externalParam",
      "text" : "userRole"
    },
    {
      "kind" : "text",
      "text" : ": "
    },
    {
      "kind" : "typeIdentifier",
      "preciseIdentifier" : "s:15FanapPodChatSDK8UserRoleC",
      "text" : "UserRole"
    },
    {
      "kind" : "text",
      "text" : ", "
    },
    {
      "kind" : "externalParam",
      "text" : "resultEntity"
    },
    {
      "kind" : "text",
      "text" : ": (("
    },
    {
      "kind" : "typeIdentifier",
      "preciseIdentifier" : "c:@M@FanapPodChatSDK@objc(cs)CMUserRole",
      "text" : "CMUserRole"
    },
    {
      "kind" : "text",
      "text" : ") -> ())?)"
    }
  ],
  "identifier" : "doc:\/\/FanapPodChatSDK\/documentation\/FanapPodChatSDK\/CMUserRole\/insertOrUpdate(userRole:resultEntity:)",
  "kind" : "symbol",
  "role" : "symbol",
  "title" : "insertOrUpdate(userRole:resultEntity:)",
  "type" : "topic",
  "url" : "\/documentation\/fanappodchatsdk\/cmuserrole\/insertorupdate(userrole:resultentity:)"
},
"doc://FanapPodChatSDK/documentation/FanapPodChatSDK/CMUserRole/name": {
  "abstract" : [

  ],
  "fragments" : [
    {
      "kind" : "keyword",
      "text" : "var"
    },
    {
      "kind" : "text",
      "text" : " "
    },
    {
      "kind" : "identifier",
      "text" : "name"
    },
    {
      "kind" : "text",
      "text" : ": "
    },
    {
      "kind" : "typeIdentifier",
      "preciseIdentifier" : "s:SS",
      "text" : "String"
    },
    {
      "kind" : "text",
      "text" : "?"
    }
  ],
  "identifier" : "doc:\/\/FanapPodChatSDK\/documentation\/FanapPodChatSDK\/CMUserRole\/name",
  "kind" : "symbol",
  "role" : "symbol",
  "title" : "name",
  "type" : "topic",
  "url" : "\/documentation\/fanappodchatsdk\/cmuserrole\/name"
},
"doc://FanapPodChatSDK/documentation/FanapPodChatSDK/CMUserRole/removeFromConversation(_:)-3orir": {
  "abstract" : [

  ],
  "fragments" : [
    {
      "kind" : "keyword",
      "text" : "func"
    },
    {
      "kind" : "text",
      "text" : " "
    },
    {
      "kind" : "identifier",
      "text" : "removeFromConversation"
    },
    {
      "kind" : "text",
      "text" : "("
    },
    {
      "kind" : "typeIdentifier",
      "preciseIdentifier" : "c:@M@FanapPodChatSDK@objc(cs)CMConversation",
      "text" : "CMConversation"
    },
    {
      "kind" : "text",
      "text" : ")"
    }
  ],
  "identifier" : "doc:\/\/FanapPodChatSDK\/documentation\/FanapPodChatSDK\/CMUserRole\/removeFromConversation(_:)-3orir",
  "kind" : "symbol",
  "role" : "symbol",
  "title" : "removeFromConversation(_:)",
  "type" : "topic",
  "url" : "\/documentation\/fanappodchatsdk\/cmuserrole\/removefromconversation(_:)-3orir"
},
"doc://FanapPodChatSDK/documentation/FanapPodChatSDK/CMUserRole/removeFromConversation(_:)-p2nq": {
  "abstract" : [

  ],
  "fragments" : [
    {
      "kind" : "keyword",
      "text" : "func"
    },
    {
      "kind" : "text",
      "text" : " "
    },
    {
      "kind" : "identifier",
      "text" : "removeFromConversation"
    },
    {
      "kind" : "text",
      "text" : "("
    },
    {
      "kind" : "typeIdentifier",
      "preciseIdentifier" : "c:objc(cs)NSSet",
      "text" : "NSSet"
    },
    {
      "kind" : "text",
      "text" : ")"
    }
  ],
  "identifier" : "doc:\/\/FanapPodChatSDK\/documentation\/FanapPodChatSDK\/CMUserRole\/removeFromConversation(_:)-p2nq",
  "kind" : "symbol",
  "role" : "symbol",
  "title" : "removeFromConversation(_:)",
  "type" : "topic",
  "url" : "\/documentation\/fanappodchatsdk\/cmuserrole\/removefromconversation(_:)-p2nq"
},
"doc://FanapPodChatSDK/documentation/FanapPodChatSDK/CMUserRole/roles": {
  "abstract" : [

  ],
  "fragments" : [
    {
      "kind" : "keyword",
      "text" : "var"
    },
    {
      "kind" : "text",
      "text" : " "
    },
    {
      "kind" : "identifier",
      "text" : "roles"
    },
    {
      "kind" : "text",
      "text" : ": "
    },
    {
      "kind" : "typeIdentifier",
      "preciseIdentifier" : "c:objc(cs)NSObject",
      "text" : "NSObject"
    },
    {
      "kind" : "text",
      "text" : "?"
    }
  ],
  "identifier" : "doc:\/\/FanapPodChatSDK\/documentation\/FanapPodChatSDK\/CMUserRole\/roles",
  "kind" : "symbol",
  "role" : "symbol",
  "title" : "roles",
  "type" : "topic",
  "url" : "\/documentation\/fanappodchatsdk\/cmuserrole\/roles"
},
"doc://FanapPodChatSDK/documentation/FanapPodChatSDK/CMUserRole/threadId": {
  "abstract" : [

  ],
  "fragments" : [
    {
      "kind" : "keyword",
      "text" : "var"
    },
    {
      "kind" : "text",
      "text" : " "
    },
    {
      "kind" : "identifier",
      "text" : "threadId"
    },
    {
      "kind" : "text",
      "text" : ": "
    },
    {
      "kind" : "typeIdentifier",
      "preciseIdentifier" : "c:objc(cs)NSNumber",
      "text" : "NSNumber"
    },
    {
      "kind" : "text",
      "text" : "?"
    }
  ],
  "identifier" : "doc:\/\/FanapPodChatSDK\/documentation\/FanapPodChatSDK\/CMUserRole\/threadId",
  "kind" : "symbol",
  "role" : "symbol",
  "title" : "threadId",
  "type" : "topic",
  "url" : "\/documentation\/fanappodchatsdk\/cmuserrole\/threadid"
},
"doc://FanapPodChatSDK/objc(cs)NSManagedObject": {
  "identifier" : "doc:\/\/FanapPodChatSDK\/objc(cs)NSManagedObject",
  "title" : "CoreData.NSManagedObject",
  "type" : "unresolvable"
},
"doc://FanapPodChatSDK/objc(pl)NSFetchRequestResult": {
  "identifier" : "doc:\/\/FanapPodChatSDK\/objc(pl)NSFetchRequestResult",
  "title" : "CoreData.NSFetchRequestResult",
  "type" : "unresolvable"
},
"doc://FanapPodChatSDK/objc(pl)NSObject": {
  "identifier" : "doc:\/\/FanapPodChatSDK\/objc(pl)NSObject",
  "title" : "ObjectiveC.NSObjectProtocol",
  "type" : "unresolvable"
},
"doc://FanapPodChatSDK/s23CustomStringConvertibleP": {
  "identifier" : "doc:\/\/FanapPodChatSDK\/s23CustomStringConvertibleP",
  "title" : "Swift.CustomStringConvertible",
  "type" : "unresolvable"
},
"doc://FanapPodChatSDK/s28CustomDebugStringConvertibleP": {
  "identifier" : "doc:\/\/FanapPodChatSDK\/s28CustomDebugStringConvertibleP",
  "title" : "Swift.CustomDebugStringConvertible",
  "type" : "unresolvable"
},
"doc://FanapPodChatSDK/s7CVarArgP": {
  "identifier" : "doc:\/\/FanapPodChatSDK\/s7CVarArgP",
  "title" : "Swift.CVarArg",
  "type" : "unresolvable"
}
}
}