{
  "hierarchy" : {
    "paths" : [
      [
        "doc:\/\/FanapPodChatSDK\/documentation\/FanapPodChatSDK"
      ]
    ]
  },
  "identifier" : {
    "interfaceLanguage" : "swift",
    "url" : "doc:\/\/FanapPodChatSDK\/documentation\/FanapPodChatSDK\/ImageModel"
  },
  "kind" : "symbol",
  "metadata" : {
    "externalID" : "s:15FanapPodChatSDK10ImageModelV",
    "fragments" : [
      {
        "kind" : "keyword",
        "text" : "struct"
      },
      {
        "kind" : "text",
        "text" : " "
      },
      {
        "kind" : "identifier",
        "text" : "ImageModel"
      }
    ],
    "modules" : [
      {
        "name" : "FanapPodChatSDK"
      }
    ],
    "navigatorTitle" : [
      {
        "kind" : "identifier",
        "text" : "ImageModel"
      }
    ],
    "role" : "symbol",
    "roleHeading" : "Structure",
    "symbolKind" : "struct",
    "title" : "ImageModel"
  },
  "primaryContentSections" : [
    {
      "declarations" : [
        {
          "languages" : [
            "swift"
          ],
          "platforms" : [
            "macOS"
          ],
          "tokens" : [
            {
              "kind" : "keyword",
              "text" : "struct"
            },
            {
              "kind" : "text",
              "text" : " "
            },
            {
              "kind" : "identifier",
              "text" : "ImageModel"
            }
          ]
        }
      ],
      "kind" : "declarations"
    }
  ],
  "schemaVersion" : {
    "major" : 0,
    "minor" : 3,
    "patch" : 0
  },
  "sections" : [

  ],
  "topicSections" : [
    {
      "identifiers" : [
        "doc:\/\/FanapPodChatSDK\/documentation\/FanapPodChatSDK\/ImageModel\/actualHeight",
        "doc:\/\/FanapPodChatSDK\/documentation\/FanapPodChatSDK\/ImageModel\/actualWidth",
        "doc:\/\/FanapPodChatSDK\/documentation\/FanapPodChatSDK\/ImageModel\/hashCode",
        "doc:\/\/FanapPodChatSDK\/documentation\/FanapPodChatSDK\/ImageModel\/height",
        "doc:\/\/FanapPodChatSDK\/documentation\/FanapPodChatSDK\/ImageModel\/name",
        "doc:\/\/FanapPodChatSDK\/documentation\/FanapPodChatSDK\/ImageModel\/size",
        "doc:\/\/FanapPodChatSDK\/documentation\/FanapPodChatSDK\/ImageModel\/width"
      ],
      "title" : "Instance Properties"
    }
  ],
  "variants" : [
    {
      "paths" : [
        "\/documentation\/fanappodchatsdk\/imagemodel"
      ],
      "traits" : [
        {
          "interfaceLanguage" : "swift"
        }
      ]
    }
  ]
, 
"references": {
"doc://FanapPodChatSDK/documentation/FanapPodChatSDK": {
  "abstract" : [
    {
      "text" : "With Fanap Chat SDK you could connect to the chat server without managing the socket state and send or receive messages.",
      "type" : "text"
    }
  ],
  "identifier" : "doc:\/\/FanapPodChatSDK\/documentation\/FanapPodChatSDK",
  "kind" : "symbol",
  "role" : "collection",
  "title" : "FanapPodChatSDK",
  "type" : "topic",
  "url" : "\/documentation\/fanappodchatsdk"
},
"doc://FanapPodChatSDK/documentation/FanapPodChatSDK/ImageModel": {
  "abstract" : [

  ],
  "fragments" : [
    {
      "kind" : "keyword",
      "text" : "struct"
    },
    {
      "kind" : "text",
      "text" : " "
    },
    {
      "kind" : "identifier",
      "text" : "ImageModel"
    }
  ],
  "identifier" : "doc:\/\/FanapPodChatSDK\/documentation\/FanapPodChatSDK\/ImageModel",
  "kind" : "symbol",
  "navigatorTitle" : [
    {
      "kind" : "identifier",
      "text" : "ImageModel"
    }
  ],
  "role" : "symbol",
  "title" : "ImageModel",
  "type" : "topic",
  "url" : "\/documentation\/fanappodchatsdk\/imagemodel"
},
"doc://FanapPodChatSDK/documentation/FanapPodChatSDK/ImageModel/actualHeight": {
  "abstract" : [

  ],
  "fragments" : [
    {
      "kind" : "keyword",
      "text" : "var"
    },
    {
      "kind" : "text",
      "text" : " "
    },
    {
      "kind" : "identifier",
      "text" : "actualHeight"
    },
    {
      "kind" : "text",
      "text" : ": "
    },
    {
      "kind" : "typeIdentifier",
      "preciseIdentifier" : "s:Si",
      "text" : "Int"
    },
    {
      "kind" : "text",
      "text" : "?"
    }
  ],
  "identifier" : "doc:\/\/FanapPodChatSDK\/documentation\/FanapPodChatSDK\/ImageModel\/actualHeight",
  "kind" : "symbol",
  "role" : "symbol",
  "title" : "actualHeight",
  "type" : "topic",
  "url" : "\/documentation\/fanappodchatsdk\/imagemodel\/actualheight"
},
"doc://FanapPodChatSDK/documentation/FanapPodChatSDK/ImageModel/actualWidth": {
  "abstract" : [

  ],
  "fragments" : [
    {
      "kind" : "keyword",
      "text" : "var"
    },
    {
      "kind" : "text",
      "text" : " "
    },
    {
      "kind" : "identifier",
      "text" : "actualWidth"
    },
    {
      "kind" : "text",
      "text" : ": "
    },
    {
      "kind" : "typeIdentifier",
      "preciseIdentifier" : "s:Si",
      "text" : "Int"
    },
    {
      "kind" : "text",
      "text" : "?"
    }
  ],
  "identifier" : "doc:\/\/FanapPodChatSDK\/documentation\/FanapPodChatSDK\/ImageModel\/actualWidth",
  "kind" : "symbol",
  "role" : "symbol",
  "title" : "actualWidth",
  "type" : "topic",
  "url" : "\/documentation\/fanappodchatsdk\/imagemodel\/actualwidth"
},
"doc://FanapPodChatSDK/documentation/FanapPodChatSDK/ImageModel/hashCode": {
  "abstract" : [

  ],
  "fragments" : [
    {
      "kind" : "keyword",
      "text" : "var"
    },
    {
      "kind" : "text",
      "text" : " "
    },
    {
      "kind" : "identifier",
      "text" : "hashCode"
    },
    {
      "kind" : "text",
      "text" : ": "
    },
    {
      "kind" : "typeIdentifier",
      "preciseIdentifier" : "s:SS",
      "text" : "String"
    }
  ],
  "identifier" : "doc:\/\/FanapPodChatSDK\/documentation\/FanapPodChatSDK\/ImageModel\/hashCode",
  "kind" : "symbol",
  "role" : "symbol",
  "title" : "hashCode",
  "type" : "topic",
  "url" : "\/documentation\/fanappodchatsdk\/imagemodel\/hashcode"
},
"doc://FanapPodChatSDK/documentation/FanapPodChatSDK/ImageModel/height": {
  "abstract" : [

  ],
  "fragments" : [
    {
      "kind" : "keyword",
      "text" : "var"
    },
    {
      "kind" : "text",
      "text" : " "
    },
    {
      "kind" : "identifier",
      "text" : "height"
    },
    {
      "kind" : "text",
      "text" : ": "
    },
    {
      "kind" : "typeIdentifier",
      "preciseIdentifier" : "s:Si",
      "text" : "Int"
    },
    {
      "kind" : "text",
      "text" : "?"
    }
  ],
  "identifier" : "doc:\/\/FanapPodChatSDK\/documentation\/FanapPodChatSDK\/ImageModel\/height",
  "kind" : "symbol",
  "role" : "symbol",
  "title" : "height",
  "type" : "topic",
  "url" : "\/documentation\/fanappodchatsdk\/imagemodel\/height"
},
"doc://FanapPodChatSDK/documentation/FanapPodChatSDK/ImageModel/name": {
  "abstract" : [

  ],
  "fragments" : [
    {
      "kind" : "keyword",
      "text" : "var"
    },
    {
      "kind" : "text",
      "text" : " "
    },
    {
      "kind" : "identifier",
      "text" : "name"
    },
    {
      "kind" : "text",
      "text" : ": "
    },
    {
      "kind" : "typeIdentifier",
      "preciseIdentifier" : "s:SS",
      "text" : "String"
    }
  ],
  "identifier" : "doc:\/\/FanapPodChatSDK\/documentation\/FanapPodChatSDK\/ImageModel\/name",
  "kind" : "symbol",
  "role" : "symbol",
  "title" : "name",
  "type" : "topic",
  "url" : "\/documentation\/fanappodchatsdk\/imagemodel\/name"
},
"doc://FanapPodChatSDK/documentation/FanapPodChatSDK/ImageModel/size": {
  "abstract" : [

  ],
  "fragments" : [
    {
      "kind" : "keyword",
      "text" : "var"
    },
    {
      "kind" : "text",
      "text" : " "
    },
    {
      "kind" : "identifier",
      "text" : "size"
    },
    {
      "kind" : "text",
      "text" : ": "
    },
    {
      "kind" : "typeIdentifier",
      "preciseIdentifier" : "s:Si",
      "text" : "Int"
    },
    {
      "kind" : "text",
      "text" : "?"
    }
  ],
  "identifier" : "doc:\/\/FanapPodChatSDK\/documentation\/FanapPodChatSDK\/ImageModel\/size",
  "kind" : "symbol",
  "role" : "symbol",
  "title" : "size",
  "type" : "topic",
  "url" : "\/documentation\/fanappodchatsdk\/imagemodel\/size"
},
"doc://FanapPodChatSDK/documentation/FanapPodChatSDK/ImageModel/width": {
  "abstract" : [

  ],
  "fragments" : [
    {
      "kind" : "keyword",
      "text" : "var"
    },
    {
      "kind" : "text",
      "text" : " "
    },
    {
      "kind" : "identifier",
      "text" : "width"
    },
    {
      "kind" : "text",
      "text" : ": "
    },
    {
      "kind" : "typeIdentifier",
      "preciseIdentifier" : "s:Si",
      "text" : "Int"
    },
    {
      "kind" : "text",
      "text" : "?"
    }
  ],
  "identifier" : "doc:\/\/FanapPodChatSDK\/documentation\/FanapPodChatSDK\/ImageModel\/width",
  "kind" : "symbol",
  "role" : "symbol",
  "title" : "width",
  "type" : "topic",
  "url" : "\/documentation\/fanappodchatsdk\/imagemodel\/width"
}
}
}