{
  "hierarchy" : {
    "paths" : [
      [
        "doc:\/\/FanapPodChatSDK\/documentation\/FanapPodChatSDK"
      ]
    ]
  },
  "identifier" : {
    "interfaceLanguage" : "swift",
    "url" : "doc:\/\/FanapPodChatSDK\/documentation\/FanapPodChatSDK\/MuteThreadResponse"
  },
  "kind" : "symbol",
  "metadata" : {
    "externalID" : "s:15FanapPodChatSDK18MuteThreadResponseV",
    "fragments" : [
      {
        "kind" : "keyword",
        "text" : "struct"
      },
      {
        "kind" : "text",
        "text" : " "
      },
      {
        "kind" : "identifier",
        "text" : "MuteThreadResponse"
      }
    ],
    "modules" : [
      {
        "name" : "FanapPodChatSDK"
      }
    ],
    "navigatorTitle" : [
      {
        "kind" : "identifier",
        "text" : "MuteThreadResponse"
      }
    ],
    "role" : "symbol",
    "roleHeading" : "Structure",
    "symbolKind" : "struct",
    "title" : "MuteThreadResponse"
  },
  "primaryContentSections" : [
    {
      "declarations" : [
        {
          "languages" : [
            "swift"
          ],
          "platforms" : [
            "macOS"
          ],
          "tokens" : [
            {
              "kind" : "keyword",
              "text" : "struct"
            },
            {
              "kind" : "text",
              "text" : " "
            },
            {
              "kind" : "identifier",
              "text" : "MuteThreadResponse"
            }
          ]
        }
      ],
      "kind" : "declarations"
    }
  ],
  "relationshipsSections" : [
    {
      "identifiers" : [
        "doc:\/\/FanapPodChatSDK\/Se"
      ],
      "kind" : "relationships",
      "title" : "Conforms To",
      "type" : "conformsTo"
    }
  ],
  "schemaVersion" : {
    "major" : 0,
    "minor" : 3,
    "patch" : 0
  },
  "sections" : [

  ],
  "topicSections" : [
    {
      "identifiers" : [
        "doc:\/\/FanapPodChatSDK\/documentation\/FanapPodChatSDK\/MuteThreadResponse\/init(from:)"
      ],
      "title" : "Initializers"
    },
    {
      "identifiers" : [
        "doc:\/\/FanapPodChatSDK\/documentation\/FanapPodChatSDK\/MuteThreadResponse\/threadId"
      ],
      "title" : "Instance Properties"
    }
  ],
  "variants" : [
    {
      "paths" : [
        "\/documentation\/fanappodchatsdk\/mutethreadresponse"
      ],
      "traits" : [
        {
          "interfaceLanguage" : "swift"
        }
      ]
    }
  ]
, 
"references": {
"doc://FanapPodChatSDK/Se": {
  "identifier" : "doc:\/\/FanapPodChatSDK\/Se",
  "title" : "Swift.Decodable",
  "type" : "unresolvable"
},
"doc://FanapPodChatSDK/documentation/FanapPodChatSDK": {
  "abstract" : [
    {
      "text" : "With Fanap Chat SDK you could connect to the chat server without managing the socket state and send or receive messages.",
      "type" : "text"
    }
  ],
  "identifier" : "doc:\/\/FanapPodChatSDK\/documentation\/FanapPodChatSDK",
  "kind" : "symbol",
  "role" : "collection",
  "title" : "FanapPodChatSDK",
  "type" : "topic",
  "url" : "\/documentation\/fanappodchatsdk"
},
"doc://FanapPodChatSDK/documentation/FanapPodChatSDK/MuteThreadResponse": {
  "abstract" : [

  ],
  "fragments" : [
    {
      "kind" : "keyword",
      "text" : "struct"
    },
    {
      "kind" : "text",
      "text" : " "
    },
    {
      "kind" : "identifier",
      "text" : "MuteThreadResponse"
    }
  ],
  "identifier" : "doc:\/\/FanapPodChatSDK\/documentation\/FanapPodChatSDK\/MuteThreadResponse",
  "kind" : "symbol",
  "navigatorTitle" : [
    {
      "kind" : "identifier",
      "text" : "MuteThreadResponse"
    }
  ],
  "role" : "symbol",
  "title" : "MuteThreadResponse",
  "type" : "topic",
  "url" : "\/documentation\/fanappodchatsdk\/mutethreadresponse"
},
"doc://FanapPodChatSDK/documentation/FanapPodChatSDK/MuteThreadResponse/init(from:)": {
  "abstract" : [

  ],
  "fragments" : [
    {
      "kind" : "identifier",
      "text" : "init"
    },
    {
      "kind" : "text",
      "text" : "("
    },
    {
      "kind" : "externalParam",
      "text" : "from"
    },
    {
      "kind" : "text",
      "text" : ": "
    },
    {
      "kind" : "typeIdentifier",
      "preciseIdentifier" : "s:s7DecoderP",
      "text" : "Decoder"
    },
    {
      "kind" : "text",
      "text" : ") "
    },
    {
      "kind" : "keyword",
      "text" : "throws"
    }
  ],
  "identifier" : "doc:\/\/FanapPodChatSDK\/documentation\/FanapPodChatSDK\/MuteThreadResponse\/init(from:)",
  "kind" : "symbol",
  "role" : "symbol",
  "title" : "init(from:)",
  "type" : "topic",
  "url" : "\/documentation\/fanappodchatsdk\/mutethreadresponse\/init(from:)"
},
"doc://FanapPodChatSDK/documentation/FanapPodChatSDK/MuteThreadResponse/threadId": {
  "abstract" : [

  ],
  "fragments" : [
    {
      "kind" : "keyword",
      "text" : "var"
    },
    {
      "kind" : "text",
      "text" : " "
    },
    {
      "kind" : "identifier",
      "text" : "threadId"
    },
    {
      "kind" : "text",
      "text" : ": "
    },
    {
      "kind" : "typeIdentifier",
      "preciseIdentifier" : "s:Si",
      "text" : "Int"
    },
    {
      "kind" : "text",
      "text" : "?"
    }
  ],
  "identifier" : "doc:\/\/FanapPodChatSDK\/documentation\/FanapPodChatSDK\/MuteThreadResponse\/threadId",
  "kind" : "symbol",
  "role" : "symbol",
  "title" : "threadId",
  "type" : "topic",
  "url" : "\/documentation\/fanappodchatsdk\/mutethreadresponse\/threadid"
}
}
}