{
  "hierarchy" : {
    "paths" : [
      [
        "doc:\/\/FanapPodChatSDK\/documentation\/FanapPodChatSDK"
      ]
    ]
  },
  "identifier" : {
    "interfaceLanguage" : "swift",
    "url" : "doc:\/\/FanapPodChatSDK\/documentation\/FanapPodChatSDK\/RemoveTagParticipantsRequest"
  },
  "kind" : "symbol",
  "metadata" : {
    "externalID" : "s:15FanapPodChatSDK28RemoveTagParticipantsRequestC",
    "fragments" : [
      {
        "kind" : "keyword",
        "text" : "class"
      },
      {
        "kind" : "text",
        "text" : " "
      },
      {
        "kind" : "identifier",
        "text" : "RemoveTagParticipantsRequest"
      }
    ],
    "modules" : [
      {
        "name" : "FanapPodChatSDK"
      }
    ],
    "navigatorTitle" : [
      {
        "kind" : "identifier",
        "text" : "RemoveTagParticipantsRequest"
      }
    ],
    "role" : "symbol",
    "roleHeading" : "Class",
    "symbolKind" : "class",
    "title" : "RemoveTagParticipantsRequest"
  },
  "primaryContentSections" : [
    {
      "declarations" : [
        {
          "languages" : [
            "swift"
          ],
          "platforms" : [
            "macOS"
          ],
          "tokens" : [
            {
              "kind" : "keyword",
              "text" : "class"
            },
            {
              "kind" : "text",
              "text" : " "
            },
            {
              "kind" : "identifier",
              "text" : "RemoveTagParticipantsRequest"
            }
          ]
        }
      ],
      "kind" : "declarations"
    }
  ],
  "relationshipsSections" : [
    {
      "identifiers" : [
        "doc:\/\/FanapPodChatSDK\/documentation\/FanapPodChatSDK\/BaseRequest"
      ],
      "kind" : "relationships",
      "title" : "Inherits From",
      "type" : "inheritsFrom"
    },
    {
      "identifiers" : [
        "doc:\/\/FanapPodChatSDK\/SE"
      ],
      "kind" : "relationships",
      "title" : "Conforms To",
      "type" : "conformsTo"
    }
  ],
  "schemaVersion" : {
    "major" : 0,
    "minor" : 3,
    "patch" : 0
  },
  "sections" : [

  ],
  "topicSections" : [
    {
      "identifiers" : [
        "doc:\/\/FanapPodChatSDK\/documentation\/FanapPodChatSDK\/RemoveTagParticipantsRequest\/init(tagId:tagParticipants:uniqueId:)"
      ],
      "title" : "Initializers"
    },
    {
      "identifiers" : [
        "doc:\/\/FanapPodChatSDK\/documentation\/FanapPodChatSDK\/RemoveTagParticipantsRequest\/tagId",
        "doc:\/\/FanapPodChatSDK\/documentation\/FanapPodChatSDK\/RemoveTagParticipantsRequest\/tagParticipants"
      ],
      "title" : "Instance Properties"
    }
  ],
  "variants" : [
    {
      "paths" : [
        "\/documentation\/fanappodchatsdk\/removetagparticipantsrequest"
      ],
      "traits" : [
        {
          "interfaceLanguage" : "swift"
        }
      ]
    }
  ]
, 
"references": {
"doc://FanapPodChatSDK/SE": {
  "identifier" : "doc:\/\/FanapPodChatSDK\/SE",
  "title" : "Swift.Encodable",
  "type" : "unresolvable"
},
"doc://FanapPodChatSDK/documentation/FanapPodChatSDK": {
  "abstract" : [
    {
      "text" : "With Fanap Chat SDK you could connect to the chat server without managing the socket state and send or receive messages.",
      "type" : "text"
    }
  ],
  "identifier" : "doc:\/\/FanapPodChatSDK\/documentation\/FanapPodChatSDK",
  "kind" : "symbol",
  "role" : "collection",
  "title" : "FanapPodChatSDK",
  "type" : "topic",
  "url" : "\/documentation\/fanappodchatsdk"
},
"doc://FanapPodChatSDK/documentation/FanapPodChatSDK/BaseRequest": {
  "abstract" : [

  ],
  "fragments" : [
    {
      "kind" : "keyword",
      "text" : "class"
    },
    {
      "kind" : "text",
      "text" : " "
    },
    {
      "kind" : "identifier",
      "text" : "BaseRequest"
    }
  ],
  "identifier" : "doc:\/\/FanapPodChatSDK\/documentation\/FanapPodChatSDK\/BaseRequest",
  "kind" : "symbol",
  "navigatorTitle" : [
    {
      "kind" : "identifier",
      "text" : "BaseRequest"
    }
  ],
  "role" : "symbol",
  "title" : "BaseRequest",
  "type" : "topic",
  "url" : "\/documentation\/fanappodchatsdk\/baserequest"
},
"doc://FanapPodChatSDK/documentation/FanapPodChatSDK/RemoveTagParticipantsRequest": {
  "abstract" : [

  ],
  "fragments" : [
    {
      "kind" : "keyword",
      "text" : "class"
    },
    {
      "kind" : "text",
      "text" : " "
    },
    {
      "kind" : "identifier",
      "text" : "RemoveTagParticipantsRequest"
    }
  ],
  "identifier" : "doc:\/\/FanapPodChatSDK\/documentation\/FanapPodChatSDK\/RemoveTagParticipantsRequest",
  "kind" : "symbol",
  "navigatorTitle" : [
    {
      "kind" : "identifier",
      "text" : "RemoveTagParticipantsRequest"
    }
  ],
  "role" : "symbol",
  "title" : "RemoveTagParticipantsRequest",
  "type" : "topic",
  "url" : "\/documentation\/fanappodchatsdk\/removetagparticipantsrequest"
},
"doc://FanapPodChatSDK/documentation/FanapPodChatSDK/RemoveTagParticipantsRequest/init(tagId:tagParticipants:uniqueId:)": {
  "abstract" : [

  ],
  "fragments" : [
    {
      "kind" : "identifier",
      "text" : "init"
    },
    {
      "kind" : "text",
      "text" : "("
    },
    {
      "kind" : "externalParam",
      "text" : "tagId"
    },
    {
      "kind" : "text",
      "text" : ": "
    },
    {
      "kind" : "typeIdentifier",
      "preciseIdentifier" : "s:Si",
      "text" : "Int"
    },
    {
      "kind" : "text",
      "text" : ", "
    },
    {
      "kind" : "externalParam",
      "text" : "tagParticipants"
    },
    {
      "kind" : "text",
      "text" : ": ["
    },
    {
      "kind" : "typeIdentifier",
      "preciseIdentifier" : "s:15FanapPodChatSDK14TagParticipantV",
      "text" : "TagParticipant"
    },
    {
      "kind" : "text",
      "text" : "], "
    },
    {
      "kind" : "externalParam",
      "text" : "uniqueId"
    },
    {
      "kind" : "text",
      "text" : ": "
    },
    {
      "kind" : "typeIdentifier",
      "preciseIdentifier" : "s:SS",
      "text" : "String"
    },
    {
      "kind" : "text",
      "text" : "?)"
    }
  ],
  "identifier" : "doc:\/\/FanapPodChatSDK\/documentation\/FanapPodChatSDK\/RemoveTagParticipantsRequest\/init(tagId:tagParticipants:uniqueId:)",
  "kind" : "symbol",
  "role" : "symbol",
  "title" : "init(tagId:tagParticipants:uniqueId:)",
  "type" : "topic",
  "url" : "\/documentation\/fanappodchatsdk\/removetagparticipantsrequest\/init(tagid:tagparticipants:uniqueid:)"
},
"doc://FanapPodChatSDK/documentation/FanapPodChatSDK/RemoveTagParticipantsRequest/tagId": {
  "abstract" : [

  ],
  "fragments" : [
    {
      "kind" : "keyword",
      "text" : "var"
    },
    {
      "kind" : "text",
      "text" : " "
    },
    {
      "kind" : "identifier",
      "text" : "tagId"
    },
    {
      "kind" : "text",
      "text" : ": "
    },
    {
      "kind" : "typeIdentifier",
      "preciseIdentifier" : "s:Si",
      "text" : "Int"
    }
  ],
  "identifier" : "doc:\/\/FanapPodChatSDK\/documentation\/FanapPodChatSDK\/RemoveTagParticipantsRequest\/tagId",
  "kind" : "symbol",
  "role" : "symbol",
  "title" : "tagId",
  "type" : "topic",
  "url" : "\/documentation\/fanappodchatsdk\/removetagparticipantsrequest\/tagid"
},
"doc://FanapPodChatSDK/documentation/FanapPodChatSDK/RemoveTagParticipantsRequest/tagParticipants": {
  "abstract" : [

  ],
  "fragments" : [
    {
      "kind" : "keyword",
      "text" : "var"
    },
    {
      "kind" : "text",
      "text" : " "
    },
    {
      "kind" : "identifier",
      "text" : "tagParticipants"
    },
    {
      "kind" : "text",
      "text" : ": ["
    },
    {
      "kind" : "typeIdentifier",
      "preciseIdentifier" : "s:15FanapPodChatSDK14TagParticipantV",
      "text" : "TagParticipant"
    },
    {
      "kind" : "text",
      "text" : "]"
    }
  ],
  "identifier" : "doc:\/\/FanapPodChatSDK\/documentation\/FanapPodChatSDK\/RemoveTagParticipantsRequest\/tagParticipants",
  "kind" : "symbol",
  "role" : "symbol",
  "title" : "tagParticipants",
  "type" : "topic",
  "url" : "\/documentation\/fanappodchatsdk\/removetagparticipantsrequest\/tagparticipants"
}
}
}