{
  "hierarchy" : {
    "paths" : [
      [
        "doc:\/\/FanapPodChatSDK\/documentation\/FanapPodChatSDK"
      ]
    ]
  },
  "identifier" : {
    "interfaceLanguage" : "swift",
    "url" : "doc:\/\/FanapPodChatSDK\/documentation\/FanapPodChatSDK\/ReplyMessageRequest"
  },
  "kind" : "symbol",
  "metadata" : {
    "externalID" : "s:15FanapPodChatSDK19ReplyMessageRequestC",
    "fragments" : [
      {
        "kind" : "keyword",
        "text" : "class"
      },
      {
        "kind" : "text",
        "text" : " "
      },
      {
        "kind" : "identifier",
        "text" : "ReplyMessageRequest"
      }
    ],
    "modules" : [
      {
        "name" : "FanapPodChatSDK"
      }
    ],
    "navigatorTitle" : [
      {
        "kind" : "identifier",
        "text" : "ReplyMessageRequest"
      }
    ],
    "role" : "symbol",
    "roleHeading" : "Class",
    "symbolKind" : "class",
    "title" : "ReplyMessageRequest"
  },
  "primaryContentSections" : [
    {
      "declarations" : [
        {
          "languages" : [
            "swift"
          ],
          "platforms" : [
            "macOS"
          ],
          "tokens" : [
            {
              "kind" : "keyword",
              "text" : "class"
            },
            {
              "kind" : "text",
              "text" : " "
            },
            {
              "kind" : "identifier",
              "text" : "ReplyMessageRequest"
            }
          ]
        }
      ],
      "kind" : "declarations"
    }
  ],
  "relationshipsSections" : [
    {
      "identifiers" : [
        "doc:\/\/FanapPodChatSDK\/documentation\/FanapPodChatSDK\/SendTextMessageRequest"
      ],
      "kind" : "relationships",
      "title" : "Inherits From",
      "type" : "inheritsFrom"
    },
    {
      "identifiers" : [
        "doc:\/\/FanapPodChatSDK\/SE"
      ],
      "kind" : "relationships",
      "title" : "Conforms To",
      "type" : "conformsTo"
    }
  ],
  "schemaVersion" : {
    "major" : 0,
    "minor" : 3,
    "patch" : 0
  },
  "sections" : [

  ],
  "topicSections" : [
    {
      "identifiers" : [
        "doc:\/\/FanapPodChatSDK\/documentation\/FanapPodChatSDK\/ReplyMessageRequest\/init(threadId:repliedTo:textMessage:messageType:metadata:systemMetadata:uniqueId:)"
      ],
      "title" : "Initializers"
    }
  ],
  "variants" : [
    {
      "paths" : [
        "\/documentation\/fanappodchatsdk\/replymessagerequest"
      ],
      "traits" : [
        {
          "interfaceLanguage" : "swift"
        }
      ]
    }
  ]
, 
"references": {
"doc://FanapPodChatSDK/SE": {
  "identifier" : "doc:\/\/FanapPodChatSDK\/SE",
  "title" : "Swift.Encodable",
  "type" : "unresolvable"
},
"doc://FanapPodChatSDK/documentation/FanapPodChatSDK": {
  "abstract" : [
    {
      "text" : "With Fanap Chat SDK you could connect to the chat server without managing the socket state and send or receive messages.",
      "type" : "text"
    }
  ],
  "identifier" : "doc:\/\/FanapPodChatSDK\/documentation\/FanapPodChatSDK",
  "kind" : "symbol",
  "role" : "collection",
  "title" : "FanapPodChatSDK",
  "type" : "topic",
  "url" : "\/documentation\/fanappodchatsdk"
},
"doc://FanapPodChatSDK/documentation/FanapPodChatSDK/ReplyMessageRequest": {
  "abstract" : [

  ],
  "fragments" : [
    {
      "kind" : "keyword",
      "text" : "class"
    },
    {
      "kind" : "text",
      "text" : " "
    },
    {
      "kind" : "identifier",
      "text" : "ReplyMessageRequest"
    }
  ],
  "identifier" : "doc:\/\/FanapPodChatSDK\/documentation\/FanapPodChatSDK\/ReplyMessageRequest",
  "kind" : "symbol",
  "navigatorTitle" : [
    {
      "kind" : "identifier",
      "text" : "ReplyMessageRequest"
    }
  ],
  "role" : "symbol",
  "title" : "ReplyMessageRequest",
  "type" : "topic",
  "url" : "\/documentation\/fanappodchatsdk\/replymessagerequest"
},
"doc://FanapPodChatSDK/documentation/FanapPodChatSDK/ReplyMessageRequest/init(threadId:repliedTo:textMessage:messageType:metadata:systemMetadata:uniqueId:)": {
  "abstract" : [

  ],
  "fragments" : [
    {
      "kind" : "identifier",
      "text" : "init"
    },
    {
      "kind" : "text",
      "text" : "("
    },
    {
      "kind" : "externalParam",
      "text" : "threadId"
    },
    {
      "kind" : "text",
      "text" : ": "
    },
    {
      "kind" : "typeIdentifier",
      "preciseIdentifier" : "s:Si",
      "text" : "Int"
    },
    {
      "kind" : "text",
      "text" : ", "
    },
    {
      "kind" : "externalParam",
      "text" : "repliedTo"
    },
    {
      "kind" : "text",
      "text" : ": "
    },
    {
      "kind" : "typeIdentifier",
      "preciseIdentifier" : "s:Si",
      "text" : "Int"
    },
    {
      "kind" : "text",
      "text" : ", "
    },
    {
      "kind" : "externalParam",
      "text" : "textMessage"
    },
    {
      "kind" : "text",
      "text" : ": "
    },
    {
      "kind" : "typeIdentifier",
      "preciseIdentifier" : "s:SS",
      "text" : "String"
    },
    {
      "kind" : "text",
      "text" : ", "
    },
    {
      "kind" : "externalParam",
      "text" : "messageType"
    },
    {
      "kind" : "text",
      "text" : ": "
    },
    {
      "kind" : "typeIdentifier",
      "preciseIdentifier" : "s:15FanapPodChatSDK11MessageTypeO",
      "text" : "MessageType"
    },
    {
      "kind" : "text",
      "text" : ", "
    },
    {
      "kind" : "externalParam",
      "text" : "metadata"
    },
    {
      "kind" : "text",
      "text" : ": "
    },
    {
      "kind" : "typeIdentifier",
      "preciseIdentifier" : "s:SS",
      "text" : "String"
    },
    {
      "kind" : "text",
      "text" : "?, "
    },
    {
      "kind" : "externalParam",
      "text" : "systemMetadata"
    },
    {
      "kind" : "text",
      "text" : ": "
    },
    {
      "kind" : "typeIdentifier",
      "preciseIdentifier" : "s:SS",
      "text" : "String"
    },
    {
      "kind" : "text",
      "text" : "?, "
    },
    {
      "kind" : "externalParam",
      "text" : "uniqueId"
    },
    {
      "kind" : "text",
      "text" : ": "
    },
    {
      "kind" : "typeIdentifier",
      "preciseIdentifier" : "s:SS",
      "text" : "String"
    },
    {
      "kind" : "text",
      "text" : "?)"
    }
  ],
  "identifier" : "doc:\/\/FanapPodChatSDK\/documentation\/FanapPodChatSDK\/ReplyMessageRequest\/init(threadId:repliedTo:textMessage:messageType:metadata:systemMetadata:uniqueId:)",
  "kind" : "symbol",
  "role" : "symbol",
  "title" : "init(threadId:repliedTo:textMessage:messageType:metadata:systemMetadata:uniqueId:)",
  "type" : "topic",
  "url" : "\/documentation\/fanappodchatsdk\/replymessagerequest\/init(threadid:repliedto:textmessage:messagetype:metadata:systemmetadata:uniqueid:)"
},
"doc://FanapPodChatSDK/documentation/FanapPodChatSDK/SendTextMessageRequest": {
  "abstract" : [

  ],
  "fragments" : [
    {
      "kind" : "keyword",
      "text" : "class"
    },
    {
      "kind" : "text",
      "text" : " "
    },
    {
      "kind" : "identifier",
      "text" : "SendTextMessageRequest"
    }
  ],
  "identifier" : "doc:\/\/FanapPodChatSDK\/documentation\/FanapPodChatSDK\/SendTextMessageRequest",
  "kind" : "symbol",
  "navigatorTitle" : [
    {
      "kind" : "identifier",
      "text" : "SendTextMessageRequest"
    }
  ],
  "role" : "symbol",
  "title" : "SendTextMessageRequest",
  "type" : "topic",
  "url" : "\/documentation\/fanappodchatsdk\/sendtextmessagerequest"
}
}
}