{
  "hierarchy" : {
    "paths" : [
      [
        "doc:\/\/FanapPodChatSDK\/documentation\/FanapPodChatSDK"
      ]
    ]
  },
  "identifier" : {
    "interfaceLanguage" : "swift",
    "url" : "doc:\/\/FanapPodChatSDK\/documentation\/FanapPodChatSDK\/ThreadsRequest"
  },
  "kind" : "symbol",
  "metadata" : {
    "externalID" : "s:15FanapPodChatSDK14ThreadsRequestC",
    "fragments" : [
      {
        "kind" : "keyword",
        "text" : "class"
      },
      {
        "kind" : "text",
        "text" : " "
      },
      {
        "kind" : "identifier",
        "text" : "ThreadsRequest"
      }
    ],
    "modules" : [
      {
        "name" : "FanapPodChatSDK"
      }
    ],
    "navigatorTitle" : [
      {
        "kind" : "identifier",
        "text" : "ThreadsRequest"
      }
    ],
    "role" : "symbol",
    "roleHeading" : "Class",
    "symbolKind" : "class",
    "title" : "ThreadsRequest"
  },
  "primaryContentSections" : [
    {
      "declarations" : [
        {
          "languages" : [
            "swift"
          ],
          "platforms" : [
            "macOS"
          ],
          "tokens" : [
            {
              "kind" : "keyword",
              "text" : "class"
            },
            {
              "kind" : "text",
              "text" : " "
            },
            {
              "kind" : "identifier",
              "text" : "ThreadsRequest"
            }
          ]
        }
      ],
      "kind" : "declarations"
    }
  ],
  "relationshipsSections" : [
    {
      "identifiers" : [
        "doc:\/\/FanapPodChatSDK\/documentation\/FanapPodChatSDK\/BaseRequest"
      ],
      "kind" : "relationships",
      "title" : "Inherits From",
      "type" : "inheritsFrom"
    },
    {
      "identifiers" : [
        "doc:\/\/FanapPodChatSDK\/SE"
      ],
      "kind" : "relationships",
      "title" : "Conforms To",
      "type" : "conformsTo"
    }
  ],
  "schemaVersion" : {
    "major" : 0,
    "minor" : 3,
    "patch" : 0
  },
  "sections" : [

  ],
  "topicSections" : [
    {
      "identifiers" : [
        "doc:\/\/FanapPodChatSDK\/documentation\/FanapPodChatSDK\/ThreadsRequest\/init(count:offset:name:new:threadIds:creatorCoreUserId:partnerCoreUserId:partnerCoreContactId:metadataCriteria:uniqueId:)"
      ],
      "title" : "Initializers"
    },
    {
      "identifiers" : [
        "doc:\/\/FanapPodChatSDK\/documentation\/FanapPodChatSDK\/ThreadsRequest\/count",
        "doc:\/\/FanapPodChatSDK\/documentation\/FanapPodChatSDK\/ThreadsRequest\/creatorCoreUserId",
        "doc:\/\/FanapPodChatSDK\/documentation\/FanapPodChatSDK\/ThreadsRequest\/metadataCriteria",
        "doc:\/\/FanapPodChatSDK\/documentation\/FanapPodChatSDK\/ThreadsRequest\/name",
        "doc:\/\/FanapPodChatSDK\/documentation\/FanapPodChatSDK\/ThreadsRequest\/new",
        "doc:\/\/FanapPodChatSDK\/documentation\/FanapPodChatSDK\/ThreadsRequest\/offset",
        "doc:\/\/FanapPodChatSDK\/documentation\/FanapPodChatSDK\/ThreadsRequest\/partnerCoreContactId",
        "doc:\/\/FanapPodChatSDK\/documentation\/FanapPodChatSDK\/ThreadsRequest\/partnerCoreUserId",
        "doc:\/\/FanapPodChatSDK\/documentation\/FanapPodChatSDK\/ThreadsRequest\/threadIds"
      ],
      "title" : "Instance Properties"
    },
    {
      "identifiers" : [
        "doc:\/\/FanapPodChatSDK\/documentation\/FanapPodChatSDK\/ThreadsRequest\/encode(to:)"
      ],
      "title" : "Instance Methods"
    }
  ],
  "variants" : [
    {
      "paths" : [
        "\/documentation\/fanappodchatsdk\/threadsrequest"
      ],
      "traits" : [
        {
          "interfaceLanguage" : "swift"
        }
      ]
    }
  ]
, 
"references": {
"doc://FanapPodChatSDK/SE": {
  "identifier" : "doc:\/\/FanapPodChatSDK\/SE",
  "title" : "Swift.Encodable",
  "type" : "unresolvable"
},
"doc://FanapPodChatSDK/documentation/FanapPodChatSDK": {
  "abstract" : [
    {
      "text" : "With Fanap Chat SDK you could connect to the chat server without managing the socket state and send or receive messages.",
      "type" : "text"
    }
  ],
  "identifier" : "doc:\/\/FanapPodChatSDK\/documentation\/FanapPodChatSDK",
  "kind" : "symbol",
  "role" : "collection",
  "title" : "FanapPodChatSDK",
  "type" : "topic",
  "url" : "\/documentation\/fanappodchatsdk"
},
"doc://FanapPodChatSDK/documentation/FanapPodChatSDK/BaseRequest": {
  "abstract" : [

  ],
  "fragments" : [
    {
      "kind" : "keyword",
      "text" : "class"
    },
    {
      "kind" : "text",
      "text" : " "
    },
    {
      "kind" : "identifier",
      "text" : "BaseRequest"
    }
  ],
  "identifier" : "doc:\/\/FanapPodChatSDK\/documentation\/FanapPodChatSDK\/BaseRequest",
  "kind" : "symbol",
  "navigatorTitle" : [
    {
      "kind" : "identifier",
      "text" : "BaseRequest"
    }
  ],
  "role" : "symbol",
  "title" : "BaseRequest",
  "type" : "topic",
  "url" : "\/documentation\/fanappodchatsdk\/baserequest"
},
"doc://FanapPodChatSDK/documentation/FanapPodChatSDK/ThreadsRequest": {
  "abstract" : [

  ],
  "fragments" : [
    {
      "kind" : "keyword",
      "text" : "class"
    },
    {
      "kind" : "text",
      "text" : " "
    },
    {
      "kind" : "identifier",
      "text" : "ThreadsRequest"
    }
  ],
  "identifier" : "doc:\/\/FanapPodChatSDK\/documentation\/FanapPodChatSDK\/ThreadsRequest",
  "kind" : "symbol",
  "navigatorTitle" : [
    {
      "kind" : "identifier",
      "text" : "ThreadsRequest"
    }
  ],
  "role" : "symbol",
  "title" : "ThreadsRequest",
  "type" : "topic",
  "url" : "\/documentation\/fanappodchatsdk\/threadsrequest"
},
"doc://FanapPodChatSDK/documentation/FanapPodChatSDK/ThreadsRequest/count": {
  "abstract" : [

  ],
  "fragments" : [
    {
      "kind" : "keyword",
      "text" : "let"
    },
    {
      "kind" : "text",
      "text" : " "
    },
    {
      "kind" : "identifier",
      "text" : "count"
    },
    {
      "kind" : "text",
      "text" : ": "
    },
    {
      "kind" : "typeIdentifier",
      "preciseIdentifier" : "s:Si",
      "text" : "Int"
    }
  ],
  "identifier" : "doc:\/\/FanapPodChatSDK\/documentation\/FanapPodChatSDK\/ThreadsRequest\/count",
  "kind" : "symbol",
  "role" : "symbol",
  "title" : "count",
  "type" : "topic",
  "url" : "\/documentation\/fanappodchatsdk\/threadsrequest\/count"
},
"doc://FanapPodChatSDK/documentation/FanapPodChatSDK/ThreadsRequest/creatorCoreUserId": {
  "abstract" : [

  ],
  "fragments" : [
    {
      "kind" : "keyword",
      "text" : "let"
    },
    {
      "kind" : "text",
      "text" : " "
    },
    {
      "kind" : "identifier",
      "text" : "creatorCoreUserId"
    },
    {
      "kind" : "text",
      "text" : ": "
    },
    {
      "kind" : "typeIdentifier",
      "preciseIdentifier" : "s:Si",
      "text" : "Int"
    },
    {
      "kind" : "text",
      "text" : "?"
    }
  ],
  "identifier" : "doc:\/\/FanapPodChatSDK\/documentation\/FanapPodChatSDK\/ThreadsRequest\/creatorCoreUserId",
  "kind" : "symbol",
  "role" : "symbol",
  "title" : "creatorCoreUserId",
  "type" : "topic",
  "url" : "\/documentation\/fanappodchatsdk\/threadsrequest\/creatorcoreuserid"
},
"doc://FanapPodChatSDK/documentation/FanapPodChatSDK/ThreadsRequest/encode(to:)": {
  "abstract" : [

  ],
  "fragments" : [
    {
      "kind" : "keyword",
      "text" : "func"
    },
    {
      "kind" : "text",
      "text" : " "
    },
    {
      "kind" : "identifier",
      "text" : "encode"
    },
    {
      "kind" : "text",
      "text" : "("
    },
    {
      "kind" : "externalParam",
      "text" : "to"
    },
    {
      "kind" : "text",
      "text" : ": "
    },
    {
      "kind" : "typeIdentifier",
      "preciseIdentifier" : "s:s7EncoderP",
      "text" : "Encoder"
    },
    {
      "kind" : "text",
      "text" : ") "
    },
    {
      "kind" : "keyword",
      "text" : "throws"
    }
  ],
  "identifier" : "doc:\/\/FanapPodChatSDK\/documentation\/FanapPodChatSDK\/ThreadsRequest\/encode(to:)",
  "kind" : "symbol",
  "role" : "symbol",
  "title" : "encode(to:)",
  "type" : "topic",
  "url" : "\/documentation\/fanappodchatsdk\/threadsrequest\/encode(to:)"
},
"doc://FanapPodChatSDK/documentation/FanapPodChatSDK/ThreadsRequest/init(count:offset:name:new:threadIds:creatorCoreUserId:partnerCoreUserId:partnerCoreContactId:metadataCriteria:uniqueId:)": {
  "abstract" : [

  ],
  "fragments" : [
    {
      "kind" : "identifier",
      "text" : "init"
    },
    {
      "kind" : "text",
      "text" : "("
    },
    {
      "kind" : "externalParam",
      "text" : "count"
    },
    {
      "kind" : "text",
      "text" : ": "
    },
    {
      "kind" : "typeIdentifier",
      "preciseIdentifier" : "s:Si",
      "text" : "Int"
    },
    {
      "kind" : "text",
      "text" : ", "
    },
    {
      "kind" : "externalParam",
      "text" : "offset"
    },
    {
      "kind" : "text",
      "text" : ": "
    },
    {
      "kind" : "typeIdentifier",
      "preciseIdentifier" : "s:Si",
      "text" : "Int"
    },
    {
      "kind" : "text",
      "text" : ", "
    },
    {
      "kind" : "externalParam",
      "text" : "name"
    },
    {
      "kind" : "text",
      "text" : ": "
    },
    {
      "kind" : "typeIdentifier",
      "preciseIdentifier" : "s:SS",
      "text" : "String"
    },
    {
      "kind" : "text",
      "text" : "?, "
    },
    {
      "kind" : "externalParam",
      "text" : "new"
    },
    {
      "kind" : "text",
      "text" : ": "
    },
    {
      "kind" : "typeIdentifier",
      "preciseIdentifier" : "s:Sb",
      "text" : "Bool"
    },
    {
      "kind" : "text",
      "text" : "?, "
    },
    {
      "kind" : "externalParam",
      "text" : "threadIds"
    },
    {
      "kind" : "text",
      "text" : ": ["
    },
    {
      "kind" : "typeIdentifier",
      "preciseIdentifier" : "s:Si",
      "text" : "Int"
    },
    {
      "kind" : "text",
      "text" : "]?, "
    },
    {
      "kind" : "externalParam",
      "text" : "creatorCoreUserId"
    },
    {
      "kind" : "text",
      "text" : ": "
    },
    {
      "kind" : "typeIdentifier",
      "preciseIdentifier" : "s:Si",
      "text" : "Int"
    },
    {
      "kind" : "text",
      "text" : "?, "
    },
    {
      "kind" : "externalParam",
      "text" : "partnerCoreUserId"
    },
    {
      "kind" : "text",
      "text" : ": "
    },
    {
      "kind" : "typeIdentifier",
      "preciseIdentifier" : "s:Si",
      "text" : "Int"
    },
    {
      "kind" : "text",
      "text" : "?, "
    },
    {
      "kind" : "externalParam",
      "text" : "partnerCoreContactId"
    },
    {
      "kind" : "text",
      "text" : ": "
    },
    {
      "kind" : "typeIdentifier",
      "preciseIdentifier" : "s:Si",
      "text" : "Int"
    },
    {
      "kind" : "text",
      "text" : "?, "
    },
    {
      "kind" : "externalParam",
      "text" : "metadataCriteria"
    },
    {
      "kind" : "text",
      "text" : ": "
    },
    {
      "kind" : "typeIdentifier",
      "preciseIdentifier" : "s:SS",
      "text" : "String"
    },
    {
      "kind" : "text",
      "text" : "?, "
    },
    {
      "kind" : "externalParam",
      "text" : "uniqueId"
    },
    {
      "kind" : "text",
      "text" : ": "
    },
    {
      "kind" : "typeIdentifier",
      "preciseIdentifier" : "s:SS",
      "text" : "String"
    },
    {
      "kind" : "text",
      "text" : "?)"
    }
  ],
  "identifier" : "doc:\/\/FanapPodChatSDK\/documentation\/FanapPodChatSDK\/ThreadsRequest\/init(count:offset:name:new:threadIds:creatorCoreUserId:partnerCoreUserId:partnerCoreContactId:metadataCriteria:uniqueId:)",
  "kind" : "symbol",
  "role" : "symbol",
  "title" : "init(count:offset:name:new:threadIds:creatorCoreUserId:partnerCoreUserId:partnerCoreContactId:metadataCriteria:uniqueId:)",
  "type" : "topic",
  "url" : "\/documentation\/fanappodchatsdk\/threadsrequest\/init(count:offset:name:new:threadids:creatorcoreuserid:partnercoreuserid:partnercorecontactid:metadatacriteria:uniqueid:)"
},
"doc://FanapPodChatSDK/documentation/FanapPodChatSDK/ThreadsRequest/metadataCriteria": {
  "abstract" : [

  ],
  "fragments" : [
    {
      "kind" : "keyword",
      "text" : "var"
    },
    {
      "kind" : "text",
      "text" : " "
    },
    {
      "kind" : "identifier",
      "text" : "metadataCriteria"
    },
    {
      "kind" : "text",
      "text" : ": "
    },
    {
      "kind" : "typeIdentifier",
      "preciseIdentifier" : "s:SS",
      "text" : "String"
    },
    {
      "kind" : "text",
      "text" : "?"
    }
  ],
  "identifier" : "doc:\/\/FanapPodChatSDK\/documentation\/FanapPodChatSDK\/ThreadsRequest\/metadataCriteria",
  "kind" : "symbol",
  "role" : "symbol",
  "title" : "metadataCriteria",
  "type" : "topic",
  "url" : "\/documentation\/fanappodchatsdk\/threadsrequest\/metadatacriteria"
},
"doc://FanapPodChatSDK/documentation/FanapPodChatSDK/ThreadsRequest/name": {
  "abstract" : [

  ],
  "fragments" : [
    {
      "kind" : "keyword",
      "text" : "var"
    },
    {
      "kind" : "text",
      "text" : " "
    },
    {
      "kind" : "identifier",
      "text" : "name"
    },
    {
      "kind" : "text",
      "text" : ": "
    },
    {
      "kind" : "typeIdentifier",
      "preciseIdentifier" : "s:SS",
      "text" : "String"
    },
    {
      "kind" : "text",
      "text" : "?"
    }
  ],
  "identifier" : "doc:\/\/FanapPodChatSDK\/documentation\/FanapPodChatSDK\/ThreadsRequest\/name",
  "kind" : "symbol",
  "role" : "symbol",
  "title" : "name",
  "type" : "topic",
  "url" : "\/documentation\/fanappodchatsdk\/threadsrequest\/name"
},
"doc://FanapPodChatSDK/documentation/FanapPodChatSDK/ThreadsRequest/new": {
  "abstract" : [

  ],
  "fragments" : [
    {
      "kind" : "keyword",
      "text" : "let"
    },
    {
      "kind" : "text",
      "text" : " "
    },
    {
      "kind" : "identifier",
      "text" : "new"
    },
    {
      "kind" : "text",
      "text" : ": "
    },
    {
      "kind" : "typeIdentifier",
      "preciseIdentifier" : "s:Sb",
      "text" : "Bool"
    },
    {
      "kind" : "text",
      "text" : "?"
    }
  ],
  "identifier" : "doc:\/\/FanapPodChatSDK\/documentation\/FanapPodChatSDK\/ThreadsRequest\/new",
  "kind" : "symbol",
  "role" : "symbol",
  "title" : "new",
  "type" : "topic",
  "url" : "\/documentation\/fanappodchatsdk\/threadsrequest\/new"
},
"doc://FanapPodChatSDK/documentation/FanapPodChatSDK/ThreadsRequest/offset": {
  "abstract" : [

  ],
  "fragments" : [
    {
      "kind" : "keyword",
      "text" : "let"
    },
    {
      "kind" : "text",
      "text" : " "
    },
    {
      "kind" : "identifier",
      "text" : "offset"
    },
    {
      "kind" : "text",
      "text" : ": "
    },
    {
      "kind" : "typeIdentifier",
      "preciseIdentifier" : "s:Si",
      "text" : "Int"
    }
  ],
  "identifier" : "doc:\/\/FanapPodChatSDK\/documentation\/FanapPodChatSDK\/ThreadsRequest\/offset",
  "kind" : "symbol",
  "role" : "symbol",
  "title" : "offset",
  "type" : "topic",
  "url" : "\/documentation\/fanappodchatsdk\/threadsrequest\/offset"
},
"doc://FanapPodChatSDK/documentation/FanapPodChatSDK/ThreadsRequest/partnerCoreContactId": {
  "abstract" : [

  ],
  "fragments" : [
    {
      "kind" : "keyword",
      "text" : "let"
    },
    {
      "kind" : "text",
      "text" : " "
    },
    {
      "kind" : "identifier",
      "text" : "partnerCoreContactId"
    },
    {
      "kind" : "text",
      "text" : ": "
    },
    {
      "kind" : "typeIdentifier",
      "preciseIdentifier" : "s:Si",
      "text" : "Int"
    },
    {
      "kind" : "text",
      "text" : "?"
    }
  ],
  "identifier" : "doc:\/\/FanapPodChatSDK\/documentation\/FanapPodChatSDK\/ThreadsRequest\/partnerCoreContactId",
  "kind" : "symbol",
  "role" : "symbol",
  "title" : "partnerCoreContactId",
  "type" : "topic",
  "url" : "\/documentation\/fanappodchatsdk\/threadsrequest\/partnercorecontactid"
},
"doc://FanapPodChatSDK/documentation/FanapPodChatSDK/ThreadsRequest/partnerCoreUserId": {
  "abstract" : [

  ],
  "fragments" : [
    {
      "kind" : "keyword",
      "text" : "let"
    },
    {
      "kind" : "text",
      "text" : " "
    },
    {
      "kind" : "identifier",
      "text" : "partnerCoreUserId"
    },
    {
      "kind" : "text",
      "text" : ": "
    },
    {
      "kind" : "typeIdentifier",
      "preciseIdentifier" : "s:Si",
      "text" : "Int"
    },
    {
      "kind" : "text",
      "text" : "?"
    }
  ],
  "identifier" : "doc:\/\/FanapPodChatSDK\/documentation\/FanapPodChatSDK\/ThreadsRequest\/partnerCoreUserId",
  "kind" : "symbol",
  "role" : "symbol",
  "title" : "partnerCoreUserId",
  "type" : "topic",
  "url" : "\/documentation\/fanappodchatsdk\/threadsrequest\/partnercoreuserid"
},
"doc://FanapPodChatSDK/documentation/FanapPodChatSDK/ThreadsRequest/threadIds": {
  "abstract" : [

  ],
  "fragments" : [
    {
      "kind" : "keyword",
      "text" : "let"
    },
    {
      "kind" : "text",
      "text" : " "
    },
    {
      "kind" : "identifier",
      "text" : "threadIds"
    },
    {
      "kind" : "text",
      "text" : ": ["
    },
    {
      "kind" : "typeIdentifier",
      "preciseIdentifier" : "s:Si",
      "text" : "Int"
    },
    {
      "kind" : "text",
      "text" : "]?"
    }
  ],
  "identifier" : "doc:\/\/FanapPodChatSDK\/documentation\/FanapPodChatSDK\/ThreadsRequest\/threadIds",
  "kind" : "symbol",
  "role" : "symbol",
  "title" : "threadIds",
  "type" : "topic",
  "url" : "\/documentation\/fanappodchatsdk\/threadsrequest\/threadids"
}
}
}