{
  "hierarchy" : {
    "paths" : [
      [
        "doc:\/\/FanapPodChatSDK\/documentation\/FanapPodChatSDK"
      ]
    ]
  },
  "identifier" : {
    "interfaceLanguage" : "swift",
    "url" : "doc:\/\/FanapPodChatSDK\/documentation\/FanapPodChatSDK\/ThreadParticipantsRequest"
  },
  "kind" : "symbol",
  "metadata" : {
    "externalID" : "s:15FanapPodChatSDK25ThreadParticipantsRequestC",
    "fragments" : [
      {
        "kind" : "keyword",
        "text" : "class"
      },
      {
        "kind" : "text",
        "text" : " "
      },
      {
        "kind" : "identifier",
        "text" : "ThreadParticipantsRequest"
      }
    ],
    "modules" : [
      {
        "name" : "FanapPodChatSDK"
      }
    ],
    "navigatorTitle" : [
      {
        "kind" : "identifier",
        "text" : "ThreadParticipantsRequest"
      }
    ],
    "role" : "symbol",
    "roleHeading" : "Class",
    "symbolKind" : "class",
    "title" : "ThreadParticipantsRequest"
  },
  "primaryContentSections" : [
    {
      "declarations" : [
        {
          "languages" : [
            "swift"
          ],
          "platforms" : [
            "macOS"
          ],
          "tokens" : [
            {
              "kind" : "keyword",
              "text" : "class"
            },
            {
              "kind" : "text",
              "text" : " "
            },
            {
              "kind" : "identifier",
              "text" : "ThreadParticipantsRequest"
            }
          ]
        }
      ],
      "kind" : "declarations"
    }
  ],
  "relationshipsSections" : [
    {
      "identifiers" : [
        "doc:\/\/FanapPodChatSDK\/documentation\/FanapPodChatSDK\/BaseRequest"
      ],
      "kind" : "relationships",
      "title" : "Inherits From",
      "type" : "inheritsFrom"
    },
    {
      "identifiers" : [
        "doc:\/\/FanapPodChatSDK\/SE"
      ],
      "kind" : "relationships",
      "title" : "Conforms To",
      "type" : "conformsTo"
    }
  ],
  "schemaVersion" : {
    "major" : 0,
    "minor" : 3,
    "patch" : 0
  },
  "sections" : [

  ],
  "topicSections" : [
    {
      "identifiers" : [
        "doc:\/\/FanapPodChatSDK\/documentation\/FanapPodChatSDK\/ThreadParticipantsRequest\/init(threadId:offset:count:admin:uniqueId:)"
      ],
      "title" : "Initializers"
    },
    {
      "identifiers" : [
        "doc:\/\/FanapPodChatSDK\/documentation\/FanapPodChatSDK\/ThreadParticipantsRequest\/admin",
        "doc:\/\/FanapPodChatSDK\/documentation\/FanapPodChatSDK\/ThreadParticipantsRequest\/count",
        "doc:\/\/FanapPodChatSDK\/documentation\/FanapPodChatSDK\/ThreadParticipantsRequest\/offset",
        "doc:\/\/FanapPodChatSDK\/documentation\/FanapPodChatSDK\/ThreadParticipantsRequest\/threadId"
      ],
      "title" : "Instance Properties"
    },
    {
      "identifiers" : [
        "doc:\/\/FanapPodChatSDK\/documentation\/FanapPodChatSDK\/ThreadParticipantsRequest\/encode(to:)"
      ],
      "title" : "Instance Methods"
    }
  ],
  "variants" : [
    {
      "paths" : [
        "\/documentation\/fanappodchatsdk\/threadparticipantsrequest"
      ],
      "traits" : [
        {
          "interfaceLanguage" : "swift"
        }
      ]
    }
  ]
, 
"references": {
"doc://FanapPodChatSDK/SE": {
  "identifier" : "doc:\/\/FanapPodChatSDK\/SE",
  "title" : "Swift.Encodable",
  "type" : "unresolvable"
},
"doc://FanapPodChatSDK/documentation/FanapPodChatSDK": {
  "abstract" : [
    {
      "text" : "With Fanap Chat SDK you could connect to the chat server without managing the socket state and send or receive messages.",
      "type" : "text"
    }
  ],
  "identifier" : "doc:\/\/FanapPodChatSDK\/documentation\/FanapPodChatSDK",
  "kind" : "symbol",
  "role" : "collection",
  "title" : "FanapPodChatSDK",
  "type" : "topic",
  "url" : "\/documentation\/fanappodchatsdk"
},
"doc://FanapPodChatSDK/documentation/FanapPodChatSDK/BaseRequest": {
  "abstract" : [

  ],
  "fragments" : [
    {
      "kind" : "keyword",
      "text" : "class"
    },
    {
      "kind" : "text",
      "text" : " "
    },
    {
      "kind" : "identifier",
      "text" : "BaseRequest"
    }
  ],
  "identifier" : "doc:\/\/FanapPodChatSDK\/documentation\/FanapPodChatSDK\/BaseRequest",
  "kind" : "symbol",
  "navigatorTitle" : [
    {
      "kind" : "identifier",
      "text" : "BaseRequest"
    }
  ],
  "role" : "symbol",
  "title" : "BaseRequest",
  "type" : "topic",
  "url" : "\/documentation\/fanappodchatsdk\/baserequest"
},
"doc://FanapPodChatSDK/documentation/FanapPodChatSDK/ThreadParticipantsRequest": {
  "abstract" : [

  ],
  "fragments" : [
    {
      "kind" : "keyword",
      "text" : "class"
    },
    {
      "kind" : "text",
      "text" : " "
    },
    {
      "kind" : "identifier",
      "text" : "ThreadParticipantsRequest"
    }
  ],
  "identifier" : "doc:\/\/FanapPodChatSDK\/documentation\/FanapPodChatSDK\/ThreadParticipantsRequest",
  "kind" : "symbol",
  "navigatorTitle" : [
    {
      "kind" : "identifier",
      "text" : "ThreadParticipantsRequest"
    }
  ],
  "role" : "symbol",
  "title" : "ThreadParticipantsRequest",
  "type" : "topic",
  "url" : "\/documentation\/fanappodchatsdk\/threadparticipantsrequest"
},
"doc://FanapPodChatSDK/documentation/FanapPodChatSDK/ThreadParticipantsRequest/admin": {
  "abstract" : [
    {
      "text" : "If it set to true the request only contains the list of admins of a thread.",
      "type" : "text"
    }
  ],
  "fragments" : [
    {
      "kind" : "keyword",
      "text" : "var"
    },
    {
      "kind" : "text",
      "text" : " "
    },
    {
      "kind" : "identifier",
      "text" : "admin"
    },
    {
      "kind" : "text",
      "text" : ": "
    },
    {
      "kind" : "typeIdentifier",
      "preciseIdentifier" : "s:Sb",
      "text" : "Bool"
    }
  ],
  "identifier" : "doc:\/\/FanapPodChatSDK\/documentation\/FanapPodChatSDK\/ThreadParticipantsRequest\/admin",
  "kind" : "symbol",
  "role" : "symbol",
  "title" : "admin",
  "type" : "topic",
  "url" : "\/documentation\/fanappodchatsdk\/threadparticipantsrequest\/admin"
},
"doc://FanapPodChatSDK/documentation/FanapPodChatSDK/ThreadParticipantsRequest/count": {
  "abstract" : [

  ],
  "fragments" : [
    {
      "kind" : "keyword",
      "text" : "let"
    },
    {
      "kind" : "text",
      "text" : " "
    },
    {
      "kind" : "identifier",
      "text" : "count"
    },
    {
      "kind" : "text",
      "text" : ": "
    },
    {
      "kind" : "typeIdentifier",
      "preciseIdentifier" : "s:Si",
      "text" : "Int"
    }
  ],
  "identifier" : "doc:\/\/FanapPodChatSDK\/documentation\/FanapPodChatSDK\/ThreadParticipantsRequest\/count",
  "kind" : "symbol",
  "role" : "symbol",
  "title" : "count",
  "type" : "topic",
  "url" : "\/documentation\/fanappodchatsdk\/threadparticipantsrequest\/count"
},
"doc://FanapPodChatSDK/documentation/FanapPodChatSDK/ThreadParticipantsRequest/encode(to:)": {
  "abstract" : [

  ],
  "fragments" : [
    {
      "kind" : "keyword",
      "text" : "func"
    },
    {
      "kind" : "text",
      "text" : " "
    },
    {
      "kind" : "identifier",
      "text" : "encode"
    },
    {
      "kind" : "text",
      "text" : "("
    },
    {
      "kind" : "externalParam",
      "text" : "to"
    },
    {
      "kind" : "text",
      "text" : ": "
    },
    {
      "kind" : "typeIdentifier",
      "preciseIdentifier" : "s:s7EncoderP",
      "text" : "Encoder"
    },
    {
      "kind" : "text",
      "text" : ") "
    },
    {
      "kind" : "keyword",
      "text" : "throws"
    }
  ],
  "identifier" : "doc:\/\/FanapPodChatSDK\/documentation\/FanapPodChatSDK\/ThreadParticipantsRequest\/encode(to:)",
  "kind" : "symbol",
  "role" : "symbol",
  "title" : "encode(to:)",
  "type" : "topic",
  "url" : "\/documentation\/fanappodchatsdk\/threadparticipantsrequest\/encode(to:)"
},
"doc://FanapPodChatSDK/documentation/FanapPodChatSDK/ThreadParticipantsRequest/init(threadId:offset:count:admin:uniqueId:)": {
  "abstract" : [

  ],
  "fragments" : [
    {
      "kind" : "identifier",
      "text" : "init"
    },
    {
      "kind" : "text",
      "text" : "("
    },
    {
      "kind" : "externalParam",
      "text" : "threadId"
    },
    {
      "kind" : "text",
      "text" : ": "
    },
    {
      "kind" : "typeIdentifier",
      "preciseIdentifier" : "s:Si",
      "text" : "Int"
    },
    {
      "kind" : "text",
      "text" : ", "
    },
    {
      "kind" : "externalParam",
      "text" : "offset"
    },
    {
      "kind" : "text",
      "text" : ": "
    },
    {
      "kind" : "typeIdentifier",
      "preciseIdentifier" : "s:Si",
      "text" : "Int"
    },
    {
      "kind" : "text",
      "text" : ", "
    },
    {
      "kind" : "externalParam",
      "text" : "count"
    },
    {
      "kind" : "text",
      "text" : ": "
    },
    {
      "kind" : "typeIdentifier",
      "preciseIdentifier" : "s:Si",
      "text" : "Int"
    },
    {
      "kind" : "text",
      "text" : ", "
    },
    {
      "kind" : "externalParam",
      "text" : "admin"
    },
    {
      "kind" : "text",
      "text" : ": "
    },
    {
      "kind" : "typeIdentifier",
      "preciseIdentifier" : "s:Sb",
      "text" : "Bool"
    },
    {
      "kind" : "text",
      "text" : ", "
    },
    {
      "kind" : "externalParam",
      "text" : "uniqueId"
    },
    {
      "kind" : "text",
      "text" : ": "
    },
    {
      "kind" : "typeIdentifier",
      "preciseIdentifier" : "s:SS",
      "text" : "String"
    },
    {
      "kind" : "text",
      "text" : "?)"
    }
  ],
  "identifier" : "doc:\/\/FanapPodChatSDK\/documentation\/FanapPodChatSDK\/ThreadParticipantsRequest\/init(threadId:offset:count:admin:uniqueId:)",
  "kind" : "symbol",
  "role" : "symbol",
  "title" : "init(threadId:offset:count:admin:uniqueId:)",
  "type" : "topic",
  "url" : "\/documentation\/fanappodchatsdk\/threadparticipantsrequest\/init(threadid:offset:count:admin:uniqueid:)"
},
"doc://FanapPodChatSDK/documentation/FanapPodChatSDK/ThreadParticipantsRequest/offset": {
  "abstract" : [

  ],
  "fragments" : [
    {
      "kind" : "keyword",
      "text" : "let"
    },
    {
      "kind" : "text",
      "text" : " "
    },
    {
      "kind" : "identifier",
      "text" : "offset"
    },
    {
      "kind" : "text",
      "text" : ": "
    },
    {
      "kind" : "typeIdentifier",
      "preciseIdentifier" : "s:Si",
      "text" : "Int"
    }
  ],
  "identifier" : "doc:\/\/FanapPodChatSDK\/documentation\/FanapPodChatSDK\/ThreadParticipantsRequest\/offset",
  "kind" : "symbol",
  "role" : "symbol",
  "title" : "offset",
  "type" : "topic",
  "url" : "\/documentation\/fanappodchatsdk\/threadparticipantsrequest\/offset"
},
"doc://FanapPodChatSDK/documentation/FanapPodChatSDK/ThreadParticipantsRequest/threadId": {
  "abstract" : [

  ],
  "fragments" : [
    {
      "kind" : "keyword",
      "text" : "let"
    },
    {
      "kind" : "text",
      "text" : " "
    },
    {
      "kind" : "identifier",
      "text" : "threadId"
    },
    {
      "kind" : "text",
      "text" : ": "
    },
    {
      "kind" : "typeIdentifier",
      "preciseIdentifier" : "s:Si",
      "text" : "Int"
    }
  ],
  "identifier" : "doc:\/\/FanapPodChatSDK\/documentation\/FanapPodChatSDK\/ThreadParticipantsRequest\/threadId",
  "kind" : "symbol",
  "role" : "symbol",
  "title" : "threadId",
  "type" : "topic",
  "url" : "\/documentation\/fanappodchatsdk\/threadparticipantsrequest\/threadid"
}
}
}