{
  "hierarchy" : {
    "paths" : [
      [
        "doc:\/\/FanapPodChatSDK\/documentation\/FanapPodChatSDK"
      ]
    ]
  },
  "identifier" : {
    "interfaceLanguage" : "swift",
    "url" : "doc:\/\/FanapPodChatSDK\/documentation\/FanapPodChatSDK\/UnBlockRequest"
  },
  "kind" : "symbol",
  "metadata" : {
    "externalID" : "s:15FanapPodChatSDK14UnBlockRequestC",
    "fragments" : [
      {
        "kind" : "keyword",
        "text" : "class"
      },
      {
        "kind" : "text",
        "text" : " "
      },
      {
        "kind" : "identifier",
        "text" : "UnBlockRequest"
      }
    ],
    "modules" : [
      {
        "name" : "FanapPodChatSDK"
      }
    ],
    "navigatorTitle" : [
      {
        "kind" : "identifier",
        "text" : "UnBlockRequest"
      }
    ],
    "role" : "symbol",
    "roleHeading" : "Class",
    "symbolKind" : "class",
    "title" : "UnBlockRequest"
  },
  "primaryContentSections" : [
    {
      "declarations" : [
        {
          "languages" : [
            "swift"
          ],
          "platforms" : [
            "macOS"
          ],
          "tokens" : [
            {
              "kind" : "keyword",
              "text" : "class"
            },
            {
              "kind" : "text",
              "text" : " "
            },
            {
              "kind" : "identifier",
              "text" : "UnBlockRequest"
            }
          ]
        }
      ],
      "kind" : "declarations"
    }
  ],
  "relationshipsSections" : [
    {
      "identifiers" : [
        "doc:\/\/FanapPodChatSDK\/documentation\/FanapPodChatSDK\/BaseRequest"
      ],
      "kind" : "relationships",
      "title" : "Inherits From",
      "type" : "inheritsFrom"
    },
    {
      "identifiers" : [
        "doc:\/\/FanapPodChatSDK\/SE"
      ],
      "kind" : "relationships",
      "title" : "Conforms To",
      "type" : "conformsTo"
    }
  ],
  "schemaVersion" : {
    "major" : 0,
    "minor" : 3,
    "patch" : 0
  },
  "sections" : [

  ],
  "topicSections" : [
    {
      "identifiers" : [
        "doc:\/\/FanapPodChatSDK\/documentation\/FanapPodChatSDK\/UnBlockRequest\/init(contactId:threadId:userId:uniqueId:)"
      ],
      "title" : "Initializers"
    },
    {
      "identifiers" : [
        "doc:\/\/FanapPodChatSDK\/documentation\/FanapPodChatSDK\/UnBlockRequest\/contactId",
        "doc:\/\/FanapPodChatSDK\/documentation\/FanapPodChatSDK\/UnBlockRequest\/threadId",
        "doc:\/\/FanapPodChatSDK\/documentation\/FanapPodChatSDK\/UnBlockRequest\/userId"
      ],
      "title" : "Instance Properties"
    },
    {
      "identifiers" : [
        "doc:\/\/FanapPodChatSDK\/documentation\/FanapPodChatSDK\/UnBlockRequest\/encode(to:)"
      ],
      "title" : "Instance Methods"
    }
  ],
  "variants" : [
    {
      "paths" : [
        "\/documentation\/fanappodchatsdk\/unblockrequest"
      ],
      "traits" : [
        {
          "interfaceLanguage" : "swift"
        }
      ]
    }
  ]
, 
"references": {
"doc://FanapPodChatSDK/SE": {
  "identifier" : "doc:\/\/FanapPodChatSDK\/SE",
  "title" : "Swift.Encodable",
  "type" : "unresolvable"
},
"doc://FanapPodChatSDK/documentation/FanapPodChatSDK": {
  "abstract" : [
    {
      "text" : "With Fanap Chat SDK you could connect to the chat server without managing the socket state and send or receive messages.",
      "type" : "text"
    }
  ],
  "identifier" : "doc:\/\/FanapPodChatSDK\/documentation\/FanapPodChatSDK",
  "kind" : "symbol",
  "role" : "collection",
  "title" : "FanapPodChatSDK",
  "type" : "topic",
  "url" : "\/documentation\/fanappodchatsdk"
},
"doc://FanapPodChatSDK/documentation/FanapPodChatSDK/BaseRequest": {
  "abstract" : [

  ],
  "fragments" : [
    {
      "kind" : "keyword",
      "text" : "class"
    },
    {
      "kind" : "text",
      "text" : " "
    },
    {
      "kind" : "identifier",
      "text" : "BaseRequest"
    }
  ],
  "identifier" : "doc:\/\/FanapPodChatSDK\/documentation\/FanapPodChatSDK\/BaseRequest",
  "kind" : "symbol",
  "navigatorTitle" : [
    {
      "kind" : "identifier",
      "text" : "BaseRequest"
    }
  ],
  "role" : "symbol",
  "title" : "BaseRequest",
  "type" : "topic",
  "url" : "\/documentation\/fanappodchatsdk\/baserequest"
},
"doc://FanapPodChatSDK/documentation/FanapPodChatSDK/UnBlockRequest": {
  "abstract" : [

  ],
  "fragments" : [
    {
      "kind" : "keyword",
      "text" : "class"
    },
    {
      "kind" : "text",
      "text" : " "
    },
    {
      "kind" : "identifier",
      "text" : "UnBlockRequest"
    }
  ],
  "identifier" : "doc:\/\/FanapPodChatSDK\/documentation\/FanapPodChatSDK\/UnBlockRequest",
  "kind" : "symbol",
  "navigatorTitle" : [
    {
      "kind" : "identifier",
      "text" : "UnBlockRequest"
    }
  ],
  "role" : "symbol",
  "title" : "UnBlockRequest",
  "type" : "topic",
  "url" : "\/documentation\/fanappodchatsdk\/unblockrequest"
},
"doc://FanapPodChatSDK/documentation/FanapPodChatSDK/UnBlockRequest/contactId": {
  "abstract" : [

  ],
  "fragments" : [
    {
      "kind" : "keyword",
      "text" : "let"
    },
    {
      "kind" : "text",
      "text" : " "
    },
    {
      "kind" : "identifier",
      "text" : "contactId"
    },
    {
      "kind" : "text",
      "text" : ": "
    },
    {
      "kind" : "typeIdentifier",
      "preciseIdentifier" : "s:Si",
      "text" : "Int"
    },
    {
      "kind" : "text",
      "text" : "?"
    }
  ],
  "identifier" : "doc:\/\/FanapPodChatSDK\/documentation\/FanapPodChatSDK\/UnBlockRequest\/contactId",
  "kind" : "symbol",
  "role" : "symbol",
  "title" : "contactId",
  "type" : "topic",
  "url" : "\/documentation\/fanappodchatsdk\/unblockrequest\/contactid"
},
"doc://FanapPodChatSDK/documentation/FanapPodChatSDK/UnBlockRequest/encode(to:)": {
  "abstract" : [

  ],
  "fragments" : [
    {
      "kind" : "keyword",
      "text" : "func"
    },
    {
      "kind" : "text",
      "text" : " "
    },
    {
      "kind" : "identifier",
      "text" : "encode"
    },
    {
      "kind" : "text",
      "text" : "("
    },
    {
      "kind" : "externalParam",
      "text" : "to"
    },
    {
      "kind" : "text",
      "text" : ": "
    },
    {
      "kind" : "typeIdentifier",
      "preciseIdentifier" : "s:s7EncoderP",
      "text" : "Encoder"
    },
    {
      "kind" : "text",
      "text" : ") "
    },
    {
      "kind" : "keyword",
      "text" : "throws"
    }
  ],
  "identifier" : "doc:\/\/FanapPodChatSDK\/documentation\/FanapPodChatSDK\/UnBlockRequest\/encode(to:)",
  "kind" : "symbol",
  "role" : "symbol",
  "title" : "encode(to:)",
  "type" : "topic",
  "url" : "\/documentation\/fanappodchatsdk\/unblockrequest\/encode(to:)"
},
"doc://FanapPodChatSDK/documentation/FanapPodChatSDK/UnBlockRequest/init(contactId:threadId:userId:uniqueId:)": {
  "abstract" : [

  ],
  "fragments" : [
    {
      "kind" : "identifier",
      "text" : "init"
    },
    {
      "kind" : "text",
      "text" : "("
    },
    {
      "kind" : "externalParam",
      "text" : "contactId"
    },
    {
      "kind" : "text",
      "text" : ": "
    },
    {
      "kind" : "typeIdentifier",
      "preciseIdentifier" : "s:Si",
      "text" : "Int"
    },
    {
      "kind" : "text",
      "text" : "?, "
    },
    {
      "kind" : "externalParam",
      "text" : "threadId"
    },
    {
      "kind" : "text",
      "text" : ": "
    },
    {
      "kind" : "typeIdentifier",
      "preciseIdentifier" : "s:Si",
      "text" : "Int"
    },
    {
      "kind" : "text",
      "text" : "?, "
    },
    {
      "kind" : "externalParam",
      "text" : "userId"
    },
    {
      "kind" : "text",
      "text" : ": "
    },
    {
      "kind" : "typeIdentifier",
      "preciseIdentifier" : "s:Si",
      "text" : "Int"
    },
    {
      "kind" : "text",
      "text" : "?, "
    },
    {
      "kind" : "externalParam",
      "text" : "uniqueId"
    },
    {
      "kind" : "text",
      "text" : ": "
    },
    {
      "kind" : "typeIdentifier",
      "preciseIdentifier" : "s:SS",
      "text" : "String"
    },
    {
      "kind" : "text",
      "text" : "?)"
    }
  ],
  "identifier" : "doc:\/\/FanapPodChatSDK\/documentation\/FanapPodChatSDK\/UnBlockRequest\/init(contactId:threadId:userId:uniqueId:)",
  "kind" : "symbol",
  "role" : "symbol",
  "title" : "init(contactId:threadId:userId:uniqueId:)",
  "type" : "topic",
  "url" : "\/documentation\/fanappodchatsdk\/unblockrequest\/init(contactid:threadid:userid:uniqueid:)"
},
"doc://FanapPodChatSDK/documentation/FanapPodChatSDK/UnBlockRequest/threadId": {
  "abstract" : [

  ],
  "fragments" : [
    {
      "kind" : "keyword",
      "text" : "let"
    },
    {
      "kind" : "text",
      "text" : " "
    },
    {
      "kind" : "identifier",
      "text" : "threadId"
    },
    {
      "kind" : "text",
      "text" : ": "
    },
    {
      "kind" : "typeIdentifier",
      "preciseIdentifier" : "s:Si",
      "text" : "Int"
    },
    {
      "kind" : "text",
      "text" : "?"
    }
  ],
  "identifier" : "doc:\/\/FanapPodChatSDK\/documentation\/FanapPodChatSDK\/UnBlockRequest\/threadId",
  "kind" : "symbol",
  "role" : "symbol",
  "title" : "threadId",
  "type" : "topic",
  "url" : "\/documentation\/fanappodchatsdk\/unblockrequest\/threadid"
},
"doc://FanapPodChatSDK/documentation/FanapPodChatSDK/UnBlockRequest/userId": {
  "abstract" : [

  ],
  "fragments" : [
    {
      "kind" : "keyword",
      "text" : "let"
    },
    {
      "kind" : "text",
      "text" : " "
    },
    {
      "kind" : "identifier",
      "text" : "userId"
    },
    {
      "kind" : "text",
      "text" : ": "
    },
    {
      "kind" : "typeIdentifier",
      "preciseIdentifier" : "s:Si",
      "text" : "Int"
    },
    {
      "kind" : "text",
      "text" : "?"
    }
  ],
  "identifier" : "doc:\/\/FanapPodChatSDK\/documentation\/FanapPodChatSDK\/UnBlockRequest\/userId",
  "kind" : "symbol",
  "role" : "symbol",
  "title" : "userId",
  "type" : "topic",
  "url" : "\/documentation\/fanappodchatsdk\/unblockrequest\/userid"
}
}
}