{
  "hierarchy" : {
    "paths" : [
      [
        "doc:\/\/FanapPodChatSDK\/documentation\/FanapPodChatSDK"
      ]
    ]
  },
  "identifier" : {
    "interfaceLanguage" : "swift",
    "url" : "doc:\/\/FanapPodChatSDK\/documentation\/FanapPodChatSDK\/UploadFileProgress"
  },
  "kind" : "symbol",
  "metadata" : {
    "externalID" : "s:15FanapPodChatSDK18UploadFileProgressV",
    "fragments" : [
      {
        "kind" : "keyword",
        "text" : "struct"
      },
      {
        "kind" : "text",
        "text" : " "
      },
      {
        "kind" : "identifier",
        "text" : "UploadFileProgress"
      }
    ],
    "modules" : [
      {
        "name" : "FanapPodChatSDK"
      }
    ],
    "navigatorTitle" : [
      {
        "kind" : "identifier",
        "text" : "UploadFileProgress"
      }
    ],
    "role" : "symbol",
    "roleHeading" : "Structure",
    "symbolKind" : "struct",
    "title" : "UploadFileProgress"
  },
  "primaryContentSections" : [
    {
      "declarations" : [
        {
          "languages" : [
            "swift"
          ],
          "platforms" : [
            "macOS"
          ],
          "tokens" : [
            {
              "kind" : "keyword",
              "text" : "struct"
            },
            {
              "kind" : "text",
              "text" : " "
            },
            {
              "kind" : "identifier",
              "text" : "UploadFileProgress"
            }
          ]
        }
      ],
      "kind" : "declarations"
    }
  ],
  "schemaVersion" : {
    "major" : 0,
    "minor" : 3,
    "patch" : 0
  },
  "sections" : [

  ],
  "topicSections" : [
    {
      "identifiers" : [
        "doc:\/\/FanapPodChatSDK\/documentation\/FanapPodChatSDK\/UploadFileProgress\/bytesSend",
        "doc:\/\/FanapPodChatSDK\/documentation\/FanapPodChatSDK\/UploadFileProgress\/percent",
        "doc:\/\/FanapPodChatSDK\/documentation\/FanapPodChatSDK\/UploadFileProgress\/totalSize"
      ],
      "title" : "Instance Properties"
    }
  ],
  "variants" : [
    {
      "paths" : [
        "\/documentation\/fanappodchatsdk\/uploadfileprogress"
      ],
      "traits" : [
        {
          "interfaceLanguage" : "swift"
        }
      ]
    }
  ]
, 
"references": {
"doc://FanapPodChatSDK/documentation/FanapPodChatSDK": {
  "abstract" : [
    {
      "text" : "With Fanap Chat SDK you could connect to the chat server without managing the socket state and send or receive messages.",
      "type" : "text"
    }
  ],
  "identifier" : "doc:\/\/FanapPodChatSDK\/documentation\/FanapPodChatSDK",
  "kind" : "symbol",
  "role" : "collection",
  "title" : "FanapPodChatSDK",
  "type" : "topic",
  "url" : "\/documentation\/fanappodchatsdk"
},
"doc://FanapPodChatSDK/documentation/FanapPodChatSDK/UploadFileProgress": {
  "abstract" : [

  ],
  "fragments" : [
    {
      "kind" : "keyword",
      "text" : "struct"
    },
    {
      "kind" : "text",
      "text" : " "
    },
    {
      "kind" : "identifier",
      "text" : "UploadFileProgress"
    }
  ],
  "identifier" : "doc:\/\/FanapPodChatSDK\/documentation\/FanapPodChatSDK\/UploadFileProgress",
  "kind" : "symbol",
  "navigatorTitle" : [
    {
      "kind" : "identifier",
      "text" : "UploadFileProgress"
    }
  ],
  "role" : "symbol",
  "title" : "UploadFileProgress",
  "type" : "topic",
  "url" : "\/documentation\/fanappodchatsdk\/uploadfileprogress"
},
"doc://FanapPodChatSDK/documentation/FanapPodChatSDK/UploadFileProgress/bytesSend": {
  "abstract" : [

  ],
  "fragments" : [
    {
      "kind" : "keyword",
      "text" : "let"
    },
    {
      "kind" : "text",
      "text" : " "
    },
    {
      "kind" : "identifier",
      "text" : "bytesSend"
    },
    {
      "kind" : "text",
      "text" : ": "
    },
    {
      "kind" : "typeIdentifier",
      "preciseIdentifier" : "s:s5Int64V",
      "text" : "Int64"
    }
  ],
  "identifier" : "doc:\/\/FanapPodChatSDK\/documentation\/FanapPodChatSDK\/UploadFileProgress\/bytesSend",
  "kind" : "symbol",
  "role" : "symbol",
  "title" : "bytesSend",
  "type" : "topic",
  "url" : "\/documentation\/fanappodchatsdk\/uploadfileprogress\/bytessend"
},
"doc://FanapPodChatSDK/documentation/FanapPodChatSDK/UploadFileProgress/percent": {
  "abstract" : [

  ],
  "fragments" : [
    {
      "kind" : "keyword",
      "text" : "let"
    },
    {
      "kind" : "text",
      "text" : " "
    },
    {
      "kind" : "identifier",
      "text" : "percent"
    },
    {
      "kind" : "text",
      "text" : ": "
    },
    {
      "kind" : "typeIdentifier",
      "preciseIdentifier" : "s:s5Int64V",
      "text" : "Int64"
    }
  ],
  "identifier" : "doc:\/\/FanapPodChatSDK\/documentation\/FanapPodChatSDK\/UploadFileProgress\/percent",
  "kind" : "symbol",
  "role" : "symbol",
  "title" : "percent",
  "type" : "topic",
  "url" : "\/documentation\/fanappodchatsdk\/uploadfileprogress\/percent"
},
"doc://FanapPodChatSDK/documentation/FanapPodChatSDK/UploadFileProgress/totalSize": {
  "abstract" : [

  ],
  "fragments" : [
    {
      "kind" : "keyword",
      "text" : "let"
    },
    {
      "kind" : "text",
      "text" : " "
    },
    {
      "kind" : "identifier",
      "text" : "totalSize"
    },
    {
      "kind" : "text",
      "text" : ": "
    },
    {
      "kind" : "typeIdentifier",
      "preciseIdentifier" : "s:s5Int64V",
      "text" : "Int64"
    }
  ],
  "identifier" : "doc:\/\/FanapPodChatSDK\/documentation\/FanapPodChatSDK\/UploadFileProgress\/totalSize",
  "kind" : "symbol",
  "role" : "symbol",
  "title" : "totalSize",
  "type" : "topic",
  "url" : "\/documentation\/fanappodchatsdk\/uploadfileprogress\/totalsize"
}
}
}