{
  "hierarchy" : {
    "paths" : [
      [
        "doc:\/\/FanapPodChatSDK\/documentation\/FanapPodChatSDK",
        "doc:\/\/FanapPodChatSDK\/documentation\/FanapPodChatSDK\/CMContact"
      ]
    ]
  },
  "identifier" : {
    "interfaceLanguage" : "swift",
    "url" : "doc:\/\/FanapPodChatSDK\/documentation\/FanapPodChatSDK\/CMContact\/getCodable()"
  },
  "kind" : "symbol",
  "metadata" : {
    "extendedModule" : "FanapPodChatSDK",
    "externalID" : "s:15FanapPodChatSDK9CMContactC10getCodableAA7ContactCyF",
    "fragments" : [
      {
        "kind" : "keyword",
        "text" : "func"
      },
      {
        "kind" : "text",
        "text" : " "
      },
      {
        "kind" : "identifier",
        "text" : "getCodable"
      },
      {
        "kind" : "text",
        "text" : "() -> "
      },
      {
        "kind" : "typeIdentifier",
        "preciseIdentifier" : "s:15FanapPodChatSDK7ContactC",
        "text" : "Contact"
      }
    ],
    "modules" : [
      {
        "name" : "FanapPodChatSDK"
      }
    ],
    "role" : "symbol",
    "roleHeading" : "Instance Method",
    "symbolKind" : "method",
    "title" : "getCodable()"
  },
  "primaryContentSections" : [
    {
      "declarations" : [
        {
          "languages" : [
            "swift"
          ],
          "platforms" : [
            "macOS"
          ],
          "tokens" : [
            {
              "kind" : "keyword",
              "text" : "func"
            },
            {
              "kind" : "text",
              "text" : " "
            },
            {
              "kind" : "identifier",
              "text" : "getCodable"
            },
            {
              "kind" : "text",
              "text" : "() -> "
            },
            {
              "identifier" : "doc:\/\/FanapPodChatSDK\/documentation\/FanapPodChatSDK\/Contact",
              "kind" : "typeIdentifier",
              "preciseIdentifier" : "s:15FanapPodChatSDK7ContactC",
              "text" : "Contact"
            }
          ]
        }
      ],
      "kind" : "declarations"
    }
  ],
  "schemaVersion" : {
    "major" : 0,
    "minor" : 3,
    "patch" : 0
  },
  "sections" : [

  ],
  "variants" : [
    {
      "paths" : [
        "\/documentation\/fanappodchatsdk\/cmcontact\/getcodable()"
      ],
      "traits" : [
        {
          "interfaceLanguage" : "swift"
        }
      ]
    }
  ]
, 
"references": {
"doc://FanapPodChatSDK/documentation/FanapPodChatSDK": {
  "abstract" : [
    {
      "text" : "With Fanap Chat SDK you could connect to the chat server without managing the socket state and send or receive messages.",
      "type" : "text"
    }
  ],
  "identifier" : "doc:\/\/FanapPodChatSDK\/documentation\/FanapPodChatSDK",
  "kind" : "symbol",
  "role" : "collection",
  "title" : "FanapPodChatSDK",
  "type" : "topic",
  "url" : "\/documentation\/fanappodchatsdk"
},
"doc://FanapPodChatSDK/documentation/FanapPodChatSDK/CMContact": {
  "abstract" : [

  ],
  "fragments" : [
    {
      "kind" : "keyword",
      "text" : "class"
    },
    {
      "kind" : "text",
      "text" : " "
    },
    {
      "kind" : "identifier",
      "text" : "CMContact"
    }
  ],
  "identifier" : "doc:\/\/FanapPodChatSDK\/documentation\/FanapPodChatSDK\/CMContact",
  "kind" : "symbol",
  "navigatorTitle" : [
    {
      "kind" : "identifier",
      "text" : "CMContact"
    }
  ],
  "role" : "symbol",
  "title" : "CMContact",
  "type" : "topic",
  "url" : "\/documentation\/fanappodchatsdk\/cmcontact"
},
"doc://FanapPodChatSDK/documentation/FanapPodChatSDK/CMContact/getCodable()": {
  "abstract" : [

  ],
  "fragments" : [
    {
      "kind" : "keyword",
      "text" : "func"
    },
    {
      "kind" : "text",
      "text" : " "
    },
    {
      "kind" : "identifier",
      "text" : "getCodable"
    },
    {
      "kind" : "text",
      "text" : "() -> "
    },
    {
      "kind" : "typeIdentifier",
      "preciseIdentifier" : "s:15FanapPodChatSDK7ContactC",
      "text" : "Contact"
    }
  ],
  "identifier" : "doc:\/\/FanapPodChatSDK\/documentation\/FanapPodChatSDK\/CMContact\/getCodable()",
  "kind" : "symbol",
  "role" : "symbol",
  "title" : "getCodable()",
  "type" : "topic",
  "url" : "\/documentation\/fanappodchatsdk\/cmcontact\/getcodable()"
},
"doc://FanapPodChatSDK/documentation/FanapPodChatSDK/Contact": {
  "abstract" : [

  ],
  "fragments" : [
    {
      "kind" : "keyword",
      "text" : "class"
    },
    {
      "kind" : "text",
      "text" : " "
    },
    {
      "kind" : "identifier",
      "text" : "Contact"
    }
  ],
  "identifier" : "doc:\/\/FanapPodChatSDK\/documentation\/FanapPodChatSDK\/Contact",
  "kind" : "symbol",
  "navigatorTitle" : [
    {
      "kind" : "identifier",
      "text" : "Contact"
    }
  ],
  "role" : "symbol",
  "title" : "Contact",
  "type" : "topic",
  "url" : "\/documentation\/fanappodchatsdk\/contact"
}
}
}