{
  "hierarchy" : {
    "paths" : [
      [
        "doc:\/\/FanapPodChatSDK\/documentation\/FanapPodChatSDK",
        "doc:\/\/FanapPodChatSDK\/documentation\/FanapPodChatSDK\/UserRole"
      ]
    ]
  },
  "identifier" : {
    "interfaceLanguage" : "swift",
    "url" : "doc:\/\/FanapPodChatSDK\/documentation\/FanapPodChatSDK\/UserRole\/Encodable-Implementations"
  },
  "kind" : "article",
  "metadata" : {
    "modules" : [
      {
        "name" : "FanapPodChatSDK"
      }
    ],
    "role" : "collectionGroup",
    "title" : "Encodable Implementations"
  },
  "schemaVersion" : {
    "major" : 0,
    "minor" : 3,
    "patch" : 0
  },
  "sections" : [

  ],
  "topicSections" : [
    {
      "generated" : true,
      "identifiers" : [
        "doc:\/\/FanapPodChatSDK\/documentation\/FanapPodChatSDK\/UserRole\/string"
      ],
      "title" : "Instance Properties"
    },
    {
      "generated" : true,
      "identifiers" : [
        "doc:\/\/FanapPodChatSDK\/documentation\/FanapPodChatSDK\/UserRole\/convertCodableToString()"
      ],
      "title" : "Instance Methods"
    }
  ],
  "variants" : [
    {
      "paths" : [
        "\/documentation\/fanappodchatsdk\/userrole\/encodable-implementations"
      ],
      "traits" : [
        {
          "interfaceLanguage" : "swift"
        }
      ]
    }
  ]
, 
"references": {
"doc://FanapPodChatSDK/documentation/FanapPodChatSDK": {
  "abstract" : [
    {
      "text" : "With Fanap Chat SDK you could connect to the chat server without managing the socket state and send or receive messages.",
      "type" : "text"
    }
  ],
  "identifier" : "doc:\/\/FanapPodChatSDK\/documentation\/FanapPodChatSDK",
  "kind" : "symbol",
  "role" : "collection",
  "title" : "FanapPodChatSDK",
  "type" : "topic",
  "url" : "\/documentation\/fanappodchatsdk"
},
"doc://FanapPodChatSDK/documentation/FanapPodChatSDK/UserRole": {
  "abstract" : [

  ],
  "fragments" : [
    {
      "kind" : "keyword",
      "text" : "class"
    },
    {
      "kind" : "text",
      "text" : " "
    },
    {
      "kind" : "identifier",
      "text" : "UserRole"
    }
  ],
  "identifier" : "doc:\/\/FanapPodChatSDK\/documentation\/FanapPodChatSDK\/UserRole",
  "kind" : "symbol",
  "navigatorTitle" : [
    {
      "kind" : "identifier",
      "text" : "UserRole"
    }
  ],
  "role" : "symbol",
  "title" : "UserRole",
  "type" : "topic",
  "url" : "\/documentation\/fanappodchatsdk\/userrole"
},
"doc://FanapPodChatSDK/documentation/FanapPodChatSDK/UserRole/convertCodableToString()": {
  "abstract" : [

  ],
  "fragments" : [
    {
      "kind" : "keyword",
      "text" : "func"
    },
    {
      "kind" : "text",
      "text" : " "
    },
    {
      "kind" : "identifier",
      "text" : "convertCodableToString"
    },
    {
      "kind" : "text",
      "text" : "() -> "
    },
    {
      "kind" : "typeIdentifier",
      "preciseIdentifier" : "s:SS",
      "text" : "String"
    },
    {
      "kind" : "text",
      "text" : "?"
    }
  ],
  "identifier" : "doc:\/\/FanapPodChatSDK\/documentation\/FanapPodChatSDK\/UserRole\/convertCodableToString()",
  "kind" : "symbol",
  "role" : "symbol",
  "title" : "convertCodableToString()",
  "type" : "topic",
  "url" : "\/documentation\/fanappodchatsdk\/userrole\/convertcodabletostring()"
},
"doc://FanapPodChatSDK/documentation/FanapPodChatSDK/UserRole/string": {
  "abstract" : [

  ],
  "fragments" : [
    {
      "kind" : "keyword",
      "text" : "var"
    },
    {
      "kind" : "text",
      "text" : " "
    },
    {
      "kind" : "identifier",
      "text" : "string"
    },
    {
      "kind" : "text",
      "text" : ": "
    },
    {
      "kind" : "typeIdentifier",
      "preciseIdentifier" : "s:SS",
      "text" : "String"
    },
    {
      "kind" : "text",
      "text" : "?"
    }
  ],
  "identifier" : "doc:\/\/FanapPodChatSDK\/documentation\/FanapPodChatSDK\/UserRole\/string",
  "kind" : "symbol",
  "role" : "symbol",
  "title" : "string",
  "type" : "topic",
  "url" : "\/documentation\/fanappodchatsdk\/userrole\/string"
}
}
}