{
  "hierarchy" : {
    "paths" : [
      [
        "doc:\/\/FanapPodChatSDK\/documentation\/FanapPodChatSDK",
        "doc:\/\/FanapPodChatSDK\/documentation\/FanapPodChatSDK\/ChatState"
      ]
    ]
  },
  "identifier" : {
    "interfaceLanguage" : "swift",
    "url" : "doc:\/\/FanapPodChatSDK\/documentation\/FanapPodChatSDK\/ChatState\/Equatable-Implementations"
  },
  "kind" : "article",
  "metadata" : {
    "modules" : [
      {
        "name" : "FanapPodChatSDK"
      }
    ],
    "role" : "collectionGroup",
    "title" : "Equatable Implementations"
  },
  "schemaVersion" : {
    "major" : 0,
    "minor" : 3,
    "patch" : 0
  },
  "sections" : [

  ],
  "topicSections" : [
    {
      "generated" : true,
      "identifiers" : [
        "doc:\/\/FanapPodChatSDK\/documentation\/FanapPodChatSDK\/ChatState\/!=(_:_:)"
      ],
      "title" : "Operators"
    }
  ],
  "variants" : [
    {
      "paths" : [
        "\/documentation\/fanappodchatsdk\/chatstate\/equatable-implementations"
      ],
      "traits" : [
        {
          "interfaceLanguage" : "swift"
        }
      ]
    }
  ]
, 
"references": {
"doc://FanapPodChatSDK/documentation/FanapPodChatSDK": {
  "abstract" : [
    {
      "text" : "With Fanap Chat SDK you could connect to the chat server without managing the socket state and send or receive messages.",
      "type" : "text"
    }
  ],
  "identifier" : "doc:\/\/FanapPodChatSDK\/documentation\/FanapPodChatSDK",
  "kind" : "symbol",
  "role" : "collection",
  "title" : "FanapPodChatSDK",
  "type" : "topic",
  "url" : "\/documentation\/fanappodchatsdk"
},
"doc://FanapPodChatSDK/documentation/FanapPodChatSDK/ChatState": {
  "abstract" : [

  ],
  "fragments" : [
    {
      "kind" : "keyword",
      "text" : "enum"
    },
    {
      "kind" : "text",
      "text" : " "
    },
    {
      "kind" : "identifier",
      "text" : "ChatState"
    }
  ],
  "identifier" : "doc:\/\/FanapPodChatSDK\/documentation\/FanapPodChatSDK\/ChatState",
  "kind" : "symbol",
  "navigatorTitle" : [
    {
      "kind" : "identifier",
      "text" : "ChatState"
    }
  ],
  "role" : "symbol",
  "title" : "ChatState",
  "type" : "topic",
  "url" : "\/documentation\/fanappodchatsdk\/chatstate"
},
"doc://FanapPodChatSDK/documentation/FanapPodChatSDK/ChatState/!=(_:_:)": {
  "abstract" : [

  ],
  "fragments" : [
    {
      "kind" : "keyword",
      "text" : "static"
    },
    {
      "kind" : "text",
      "text" : " "
    },
    {
      "kind" : "keyword",
      "text" : "func"
    },
    {
      "kind" : "text",
      "text" : " "
    },
    {
      "kind" : "identifier",
      "text" : "!="
    },
    {
      "kind" : "text",
      "text" : " "
    },
    {
      "kind" : "text",
      "text" : "("
    },
    {
      "kind" : "typeIdentifier",
      "text" : "Self"
    },
    {
      "kind" : "text",
      "text" : ", "
    },
    {
      "kind" : "typeIdentifier",
      "text" : "Self"
    },
    {
      "kind" : "text",
      "text" : ") -> "
    },
    {
      "kind" : "typeIdentifier",
      "preciseIdentifier" : "s:Sb",
      "text" : "Bool"
    }
  ],
  "identifier" : "doc:\/\/FanapPodChatSDK\/documentation\/FanapPodChatSDK\/ChatState\/!=(_:_:)",
  "kind" : "symbol",
  "role" : "symbol",
  "title" : "!=(_:_:)",
  "type" : "topic",
  "url" : "\/documentation\/fanappodchatsdk\/chatstate\/!=(_:_:)"
}
}
}