{
  "hierarchy" : {
    "paths" : [
      [
        "doc:\/\/FanapPodChatSDK\/documentation\/FanapPodChatSDK",
        "doc:\/\/FanapPodChatSDK\/documentation\/FanapPodChatSDK\/CreateThreadWithMessage"
      ]
    ]
  },
  "identifier" : {
    "interfaceLanguage" : "swift",
    "url" : "doc:\/\/FanapPodChatSDK\/documentation\/FanapPodChatSDK\/CreateThreadWithMessage\/init(description:image:invitees:metadata:title:type:uniqueName:message:)"
  },
  "kind" : "symbol",
  "metadata" : {
    "externalID" : "s:15FanapPodChatSDK23CreateThreadWithMessageC11description5image8invitees8metadata5title4type10uniqueName7messageACSSSg_ALSayAA7InviteeCGALSSAA0F5TypesOSgAlA0efH0Ctcfc",
    "fragments" : [
      {
        "kind" : "identifier",
        "text" : "init"
      },
      {
        "kind" : "text",
        "text" : "("
      },
      {
        "kind" : "externalParam",
        "text" : "description"
      },
      {
        "kind" : "text",
        "text" : ": "
      },
      {
        "kind" : "typeIdentifier",
        "preciseIdentifier" : "s:SS",
        "text" : "String"
      },
      {
        "kind" : "text",
        "text" : "?, "
      },
      {
        "kind" : "externalParam",
        "text" : "image"
      },
      {
        "kind" : "text",
        "text" : ": "
      },
      {
        "kind" : "typeIdentifier",
        "preciseIdentifier" : "s:SS",
        "text" : "String"
      },
      {
        "kind" : "text",
        "text" : "?, "
      },
      {
        "kind" : "externalParam",
        "text" : "invitees"
      },
      {
        "kind" : "text",
        "text" : ": ["
      },
      {
        "kind" : "typeIdentifier",
        "preciseIdentifier" : "s:15FanapPodChatSDK7InviteeC",
        "text" : "Invitee"
      },
      {
        "kind" : "text",
        "text" : "], "
      },
      {
        "kind" : "externalParam",
        "text" : "metadata"
      },
      {
        "kind" : "text",
        "text" : ": "
      },
      {
        "kind" : "typeIdentifier",
        "preciseIdentifier" : "s:SS",
        "text" : "String"
      },
      {
        "kind" : "text",
        "text" : "?, "
      },
      {
        "kind" : "externalParam",
        "text" : "title"
      },
      {
        "kind" : "text",
        "text" : ": "
      },
      {
        "kind" : "typeIdentifier",
        "preciseIdentifier" : "s:SS",
        "text" : "String"
      },
      {
        "kind" : "text",
        "text" : ", "
      },
      {
        "kind" : "externalParam",
        "text" : "type"
      },
      {
        "kind" : "text",
        "text" : ": "
      },
      {
        "kind" : "typeIdentifier",
        "preciseIdentifier" : "s:15FanapPodChatSDK11ThreadTypesO",
        "text" : "ThreadTypes"
      },
      {
        "kind" : "text",
        "text" : "?, "
      },
      {
        "kind" : "externalParam",
        "text" : "uniqueName"
      },
      {
        "kind" : "text",
        "text" : ": "
      },
      {
        "kind" : "typeIdentifier",
        "preciseIdentifier" : "s:SS",
        "text" : "String"
      },
      {
        "kind" : "text",
        "text" : "?, "
      },
      {
        "kind" : "externalParam",
        "text" : "message"
      },
      {
        "kind" : "text",
        "text" : ": "
      },
      {
        "kind" : "typeIdentifier",
        "preciseIdentifier" : "s:15FanapPodChatSDK19CreateThreadMessageC",
        "text" : "CreateThreadMessage"
      },
      {
        "kind" : "text",
        "text" : ")"
      }
    ],
    "modules" : [
      {
        "name" : "FanapPodChatSDK"
      }
    ],
    "role" : "symbol",
    "roleHeading" : "Initializer",
    "symbolKind" : "init",
    "title" : "init(description:image:invitees:metadata:title:type:uniqueName:message:)"
  },
  "primaryContentSections" : [
    {
      "declarations" : [
        {
          "languages" : [
            "swift"
          ],
          "platforms" : [
            "macOS"
          ],
          "tokens" : [
            {
              "kind" : "keyword",
              "text" : "init"
            },
            {
              "kind" : "text",
              "text" : "("
            },
            {
              "kind" : "externalParam",
              "text" : "description"
            },
            {
              "kind" : "text",
              "text" : ": "
            },
            {
              "kind" : "typeIdentifier",
              "preciseIdentifier" : "s:SS",
              "text" : "String"
            },
            {
              "kind" : "text",
              "text" : "?, "
            },
            {
              "kind" : "externalParam",
              "text" : "image"
            },
            {
              "kind" : "text",
              "text" : ": "
            },
            {
              "kind" : "typeIdentifier",
              "preciseIdentifier" : "s:SS",
              "text" : "String"
            },
            {
              "kind" : "text",
              "text" : "?, "
            },
            {
              "kind" : "externalParam",
              "text" : "invitees"
            },
            {
              "kind" : "text",
              "text" : ": ["
            },
            {
              "identifier" : "doc:\/\/FanapPodChatSDK\/documentation\/FanapPodChatSDK\/Invitee",
              "kind" : "typeIdentifier",
              "preciseIdentifier" : "s:15FanapPodChatSDK7InviteeC",
              "text" : "Invitee"
            },
            {
              "kind" : "text",
              "text" : "], "
            },
            {
              "kind" : "externalParam",
              "text" : "metadata"
            },
            {
              "kind" : "text",
              "text" : ": "
            },
            {
              "kind" : "typeIdentifier",
              "preciseIdentifier" : "s:SS",
              "text" : "String"
            },
            {
              "kind" : "text",
              "text" : "?, "
            },
            {
              "kind" : "externalParam",
              "text" : "title"
            },
            {
              "kind" : "text",
              "text" : ": "
            },
            {
              "kind" : "typeIdentifier",
              "preciseIdentifier" : "s:SS",
              "text" : "String"
            },
            {
              "kind" : "text",
              "text" : ", "
            },
            {
              "kind" : "externalParam",
              "text" : "type"
            },
            {
              "kind" : "text",
              "text" : ": "
            },
            {
              "identifier" : "doc:\/\/FanapPodChatSDK\/documentation\/FanapPodChatSDK\/ThreadTypes",
              "kind" : "typeIdentifier",
              "preciseIdentifier" : "s:15FanapPodChatSDK11ThreadTypesO",
              "text" : "ThreadTypes"
            },
            {
              "kind" : "text",
              "text" : "?, "
            },
            {
              "kind" : "externalParam",
              "text" : "uniqueName"
            },
            {
              "kind" : "text",
              "text" : ": "
            },
            {
              "kind" : "typeIdentifier",
              "preciseIdentifier" : "s:SS",
              "text" : "String"
            },
            {
              "kind" : "text",
              "text" : "?, "
            },
            {
              "kind" : "externalParam",
              "text" : "message"
            },
            {
              "kind" : "text",
              "text" : ": "
            },
            {
              "identifier" : "doc:\/\/FanapPodChatSDK\/documentation\/FanapPodChatSDK\/CreateThreadMessage",
              "kind" : "typeIdentifier",
              "preciseIdentifier" : "s:15FanapPodChatSDK19CreateThreadMessageC",
              "text" : "CreateThreadMessage"
            },
            {
              "kind" : "text",
              "text" : ")"
            }
          ]
        }
      ],
      "kind" : "declarations"
    }
  ],
  "schemaVersion" : {
    "major" : 0,
    "minor" : 3,
    "patch" : 0
  },
  "sections" : [

  ],
  "variants" : [
    {
      "paths" : [
        "\/documentation\/fanappodchatsdk\/createthreadwithmessage\/init(description:image:invitees:metadata:title:type:uniquename:message:)"
      ],
      "traits" : [
        {
          "interfaceLanguage" : "swift"
        }
      ]
    }
  ]
, 
"references": {
"doc://FanapPodChatSDK/documentation/FanapPodChatSDK": {
  "abstract" : [
    {
      "text" : "With Fanap Chat SDK you could connect to the chat server without managing the socket state and send or receive messages.",
      "type" : "text"
    }
  ],
  "identifier" : "doc:\/\/FanapPodChatSDK\/documentation\/FanapPodChatSDK",
  "kind" : "symbol",
  "role" : "collection",
  "title" : "FanapPodChatSDK",
  "type" : "topic",
  "url" : "\/documentation\/fanappodchatsdk"
},
"doc://FanapPodChatSDK/documentation/FanapPodChatSDK/CreateThreadMessage": {
  "abstract" : [

  ],
  "fragments" : [
    {
      "kind" : "keyword",
      "text" : "class"
    },
    {
      "kind" : "text",
      "text" : " "
    },
    {
      "kind" : "identifier",
      "text" : "CreateThreadMessage"
    }
  ],
  "identifier" : "doc:\/\/FanapPodChatSDK\/documentation\/FanapPodChatSDK\/CreateThreadMessage",
  "kind" : "symbol",
  "navigatorTitle" : [
    {
      "kind" : "identifier",
      "text" : "CreateThreadMessage"
    }
  ],
  "role" : "symbol",
  "title" : "CreateThreadMessage",
  "type" : "topic",
  "url" : "\/documentation\/fanappodchatsdk\/createthreadmessage"
},
"doc://FanapPodChatSDK/documentation/FanapPodChatSDK/CreateThreadWithMessage": {
  "abstract" : [

  ],
  "fragments" : [
    {
      "kind" : "keyword",
      "text" : "class"
    },
    {
      "kind" : "text",
      "text" : " "
    },
    {
      "kind" : "identifier",
      "text" : "CreateThreadWithMessage"
    }
  ],
  "identifier" : "doc:\/\/FanapPodChatSDK\/documentation\/FanapPodChatSDK\/CreateThreadWithMessage",
  "kind" : "symbol",
  "navigatorTitle" : [
    {
      "kind" : "identifier",
      "text" : "CreateThreadWithMessage"
    }
  ],
  "role" : "symbol",
  "title" : "CreateThreadWithMessage",
  "type" : "topic",
  "url" : "\/documentation\/fanappodchatsdk\/createthreadwithmessage"
},
"doc://FanapPodChatSDK/documentation/FanapPodChatSDK/CreateThreadWithMessage/init(description:image:invitees:metadata:title:type:uniqueName:message:)": {
  "abstract" : [

  ],
  "fragments" : [
    {
      "kind" : "identifier",
      "text" : "init"
    },
    {
      "kind" : "text",
      "text" : "("
    },
    {
      "kind" : "externalParam",
      "text" : "description"
    },
    {
      "kind" : "text",
      "text" : ": "
    },
    {
      "kind" : "typeIdentifier",
      "preciseIdentifier" : "s:SS",
      "text" : "String"
    },
    {
      "kind" : "text",
      "text" : "?, "
    },
    {
      "kind" : "externalParam",
      "text" : "image"
    },
    {
      "kind" : "text",
      "text" : ": "
    },
    {
      "kind" : "typeIdentifier",
      "preciseIdentifier" : "s:SS",
      "text" : "String"
    },
    {
      "kind" : "text",
      "text" : "?, "
    },
    {
      "kind" : "externalParam",
      "text" : "invitees"
    },
    {
      "kind" : "text",
      "text" : ": ["
    },
    {
      "kind" : "typeIdentifier",
      "preciseIdentifier" : "s:15FanapPodChatSDK7InviteeC",
      "text" : "Invitee"
    },
    {
      "kind" : "text",
      "text" : "], "
    },
    {
      "kind" : "externalParam",
      "text" : "metadata"
    },
    {
      "kind" : "text",
      "text" : ": "
    },
    {
      "kind" : "typeIdentifier",
      "preciseIdentifier" : "s:SS",
      "text" : "String"
    },
    {
      "kind" : "text",
      "text" : "?, "
    },
    {
      "kind" : "externalParam",
      "text" : "title"
    },
    {
      "kind" : "text",
      "text" : ": "
    },
    {
      "kind" : "typeIdentifier",
      "preciseIdentifier" : "s:SS",
      "text" : "String"
    },
    {
      "kind" : "text",
      "text" : ", "
    },
    {
      "kind" : "externalParam",
      "text" : "type"
    },
    {
      "kind" : "text",
      "text" : ": "
    },
    {
      "kind" : "typeIdentifier",
      "preciseIdentifier" : "s:15FanapPodChatSDK11ThreadTypesO",
      "text" : "ThreadTypes"
    },
    {
      "kind" : "text",
      "text" : "?, "
    },
    {
      "kind" : "externalParam",
      "text" : "uniqueName"
    },
    {
      "kind" : "text",
      "text" : ": "
    },
    {
      "kind" : "typeIdentifier",
      "preciseIdentifier" : "s:SS",
      "text" : "String"
    },
    {
      "kind" : "text",
      "text" : "?, "
    },
    {
      "kind" : "externalParam",
      "text" : "message"
    },
    {
      "kind" : "text",
      "text" : ": "
    },
    {
      "kind" : "typeIdentifier",
      "preciseIdentifier" : "s:15FanapPodChatSDK19CreateThreadMessageC",
      "text" : "CreateThreadMessage"
    },
    {
      "kind" : "text",
      "text" : ")"
    }
  ],
  "identifier" : "doc:\/\/FanapPodChatSDK\/documentation\/FanapPodChatSDK\/CreateThreadWithMessage\/init(description:image:invitees:metadata:title:type:uniqueName:message:)",
  "kind" : "symbol",
  "role" : "symbol",
  "title" : "init(description:image:invitees:metadata:title:type:uniqueName:message:)",
  "type" : "topic",
  "url" : "\/documentation\/fanappodchatsdk\/createthreadwithmessage\/init(description:image:invitees:metadata:title:type:uniquename:message:)"
},
"doc://FanapPodChatSDK/documentation/FanapPodChatSDK/Invitee": {
  "abstract" : [

  ],
  "fragments" : [
    {
      "kind" : "keyword",
      "text" : "class"
    },
    {
      "kind" : "text",
      "text" : " "
    },
    {
      "kind" : "identifier",
      "text" : "Invitee"
    }
  ],
  "identifier" : "doc:\/\/FanapPodChatSDK\/documentation\/FanapPodChatSDK\/Invitee",
  "kind" : "symbol",
  "navigatorTitle" : [
    {
      "kind" : "identifier",
      "text" : "Invitee"
    }
  ],
  "role" : "symbol",
  "title" : "Invitee",
  "type" : "topic",
  "url" : "\/documentation\/fanappodchatsdk\/invitee"
},
"doc://FanapPodChatSDK/documentation/FanapPodChatSDK/ThreadTypes": {
  "abstract" : [
    {
      "text" : "Type of thread.",
      "type" : "text"
    }
  ],
  "fragments" : [
    {
      "kind" : "keyword",
      "text" : "enum"
    },
    {
      "kind" : "text",
      "text" : " "
    },
    {
      "kind" : "identifier",
      "text" : "ThreadTypes"
    }
  ],
  "identifier" : "doc:\/\/FanapPodChatSDK\/documentation\/FanapPodChatSDK\/ThreadTypes",
  "kind" : "symbol",
  "navigatorTitle" : [
    {
      "kind" : "identifier",
      "text" : "ThreadTypes"
    }
  ],
  "role" : "symbol",
  "title" : "ThreadTypes",
  "type" : "topic",
  "url" : "\/documentation\/fanappodchatsdk\/threadtypes"
}
}
}