{
  "hierarchy" : {
    "paths" : [
      [
        "doc:\/\/FanapPodChatSDK\/documentation\/FanapPodChatSDK",
        "doc:\/\/FanapPodChatSDK\/documentation\/FanapPodChatSDK\/CoreDataCrud"
      ]
    ]
  },
  "identifier" : {
    "interfaceLanguage" : "swift",
    "url" : "doc:\/\/FanapPodChatSDK\/documentation\/FanapPodChatSDK\/CoreDataCrud\/find(keyWithFromat:value:)"
  },
  "kind" : "symbol",
  "metadata" : {
    "externalID" : "s:15FanapPodChatSDK12CoreDataCrudC4find13keyWithFromat5valuexSgSS_s7CVarArg_ptF",
    "fragments" : [
      {
        "kind" : "keyword",
        "text" : "func"
      },
      {
        "kind" : "text",
        "text" : " "
      },
      {
        "kind" : "identifier",
        "text" : "find"
      },
      {
        "kind" : "text",
        "text" : "("
      },
      {
        "kind" : "externalParam",
        "text" : "keyWithFromat"
      },
      {
        "kind" : "text",
        "text" : ": "
      },
      {
        "kind" : "typeIdentifier",
        "preciseIdentifier" : "s:SS",
        "text" : "String"
      },
      {
        "kind" : "text",
        "text" : ", "
      },
      {
        "kind" : "externalParam",
        "text" : "value"
      },
      {
        "kind" : "text",
        "text" : ": "
      },
      {
        "kind" : "typeIdentifier",
        "preciseIdentifier" : "s:s7CVarArgP",
        "text" : "CVarArg"
      },
      {
        "kind" : "text",
        "text" : ") -> "
      },
      {
        "kind" : "typeIdentifier",
        "preciseIdentifier" : "s:15FanapPodChatSDK12CoreDataCrudC1Txmfp",
        "text" : "T"
      },
      {
        "kind" : "text",
        "text" : "?"
      }
    ],
    "modules" : [
      {
        "name" : "FanapPodChatSDK"
      }
    ],
    "role" : "symbol",
    "roleHeading" : "Instance Method",
    "symbolKind" : "method",
    "title" : "find(keyWithFromat:value:)"
  },
  "primaryContentSections" : [
    {
      "declarations" : [
        {
          "languages" : [
            "swift"
          ],
          "platforms" : [
            "macOS"
          ],
          "tokens" : [
            {
              "kind" : "keyword",
              "text" : "func"
            },
            {
              "kind" : "text",
              "text" : " "
            },
            {
              "kind" : "identifier",
              "text" : "find"
            },
            {
              "kind" : "text",
              "text" : "("
            },
            {
              "kind" : "externalParam",
              "text" : "keyWithFromat"
            },
            {
              "kind" : "text",
              "text" : ": "
            },
            {
              "kind" : "typeIdentifier",
              "preciseIdentifier" : "s:SS",
              "text" : "String"
            },
            {
              "kind" : "text",
              "text" : ", "
            },
            {
              "kind" : "externalParam",
              "text" : "value"
            },
            {
              "kind" : "text",
              "text" : ": "
            },
            {
              "kind" : "typeIdentifier",
              "preciseIdentifier" : "s:s7CVarArgP",
              "text" : "CVarArg"
            },
            {
              "kind" : "text",
              "text" : ") -> "
            },
            {
              "kind" : "typeIdentifier",
              "preciseIdentifier" : "s:15FanapPodChatSDK12CoreDataCrudC1Txmfp",
              "text" : "T"
            },
            {
              "kind" : "text",
              "text" : "?"
            }
          ]
        }
      ],
      "kind" : "declarations"
    },
    {
      "content" : [
        {
          "anchor" : "discussion",
          "level" : 2,
          "text" : "Discussion",
          "type" : "heading"
        },
        {
          "content" : [
            {
              "inlineContent" : [
                {
                  "text" : "check key equality work with @ for string or int %i float %f and …",
                  "type" : "text"
                }
              ],
              "type" : "paragraph"
            }
          ],
          "name" : "To Do",
          "style" : "note",
          "type" : "aside"
        }
      ],
      "kind" : "content"
    }
  ],
  "schemaVersion" : {
    "major" : 0,
    "minor" : 3,
    "patch" : 0
  },
  "sections" : [

  ],
  "variants" : [
    {
      "paths" : [
        "\/documentation\/fanappodchatsdk\/coredatacrud\/find(keywithfromat:value:)"
      ],
      "traits" : [
        {
          "interfaceLanguage" : "swift"
        }
      ]
    }
  ]
, 
"references": {
"doc://FanapPodChatSDK/documentation/FanapPodChatSDK": {
  "abstract" : [
    {
      "text" : "With Fanap Chat SDK you could connect to the chat server without managing the socket state and send or receive messages.",
      "type" : "text"
    }
  ],
  "identifier" : "doc:\/\/FanapPodChatSDK\/documentation\/FanapPodChatSDK",
  "kind" : "symbol",
  "role" : "collection",
  "title" : "FanapPodChatSDK",
  "type" : "topic",
  "url" : "\/documentation\/fanappodchatsdk"
},
"doc://FanapPodChatSDK/documentation/FanapPodChatSDK/CoreDataCrud": {
  "abstract" : [

  ],
  "fragments" : [
    {
      "kind" : "keyword",
      "text" : "class"
    },
    {
      "kind" : "text",
      "text" : " "
    },
    {
      "kind" : "identifier",
      "text" : "CoreDataCrud"
    }
  ],
  "identifier" : "doc:\/\/FanapPodChatSDK\/documentation\/FanapPodChatSDK\/CoreDataCrud",
  "kind" : "symbol",
  "navigatorTitle" : [
    {
      "kind" : "identifier",
      "text" : "CoreDataCrud"
    }
  ],
  "role" : "symbol",
  "title" : "CoreDataCrud",
  "type" : "topic",
  "url" : "\/documentation\/fanappodchatsdk\/coredatacrud"
},
"doc://FanapPodChatSDK/documentation/FanapPodChatSDK/CoreDataCrud/find(keyWithFromat:value:)": {
  "abstract" : [

  ],
  "fragments" : [
    {
      "kind" : "keyword",
      "text" : "func"
    },
    {
      "kind" : "text",
      "text" : " "
    },
    {
      "kind" : "identifier",
      "text" : "find"
    },
    {
      "kind" : "text",
      "text" : "("
    },
    {
      "kind" : "externalParam",
      "text" : "keyWithFromat"
    },
    {
      "kind" : "text",
      "text" : ": "
    },
    {
      "kind" : "typeIdentifier",
      "preciseIdentifier" : "s:SS",
      "text" : "String"
    },
    {
      "kind" : "text",
      "text" : ", "
    },
    {
      "kind" : "externalParam",
      "text" : "value"
    },
    {
      "kind" : "text",
      "text" : ": "
    },
    {
      "kind" : "typeIdentifier",
      "preciseIdentifier" : "s:s7CVarArgP",
      "text" : "CVarArg"
    },
    {
      "kind" : "text",
      "text" : ") -> "
    },
    {
      "kind" : "typeIdentifier",
      "preciseIdentifier" : "s:15FanapPodChatSDK12CoreDataCrudC1Txmfp",
      "text" : "T"
    },
    {
      "kind" : "text",
      "text" : "?"
    }
  ],
  "identifier" : "doc:\/\/FanapPodChatSDK\/documentation\/FanapPodChatSDK\/CoreDataCrud\/find(keyWithFromat:value:)",
  "kind" : "symbol",
  "role" : "symbol",
  "title" : "find(keyWithFromat:value:)",
  "type" : "topic",
  "url" : "\/documentation\/fanappodchatsdk\/coredatacrud\/find(keywithfromat:value:)"
}
}
}