{
  "abstract" : [
    {
      "text" : "Inherited from ",
      "type" : "text"
    },
    {
      "code" : "Encodable.convertCodableToString()",
      "type" : "codeVoice"
    },
    {
      "text" : ".",
      "type" : "text"
    }
  ],
  "hierarchy" : {
    "paths" : [
      [
        "doc:\/\/FanapPodChatSDK\/documentation\/FanapPodChatSDK",
        "doc:\/\/FanapPodChatSDK\/documentation\/FanapPodChatSDK\/InviteeTypes",
        "doc:\/\/FanapPodChatSDK\/documentation\/FanapPodChatSDK\/InviteeTypes\/Encodable-Implementations"
      ]
    ]
  },
  "identifier" : {
    "interfaceLanguage" : "swift",
    "url" : "doc:\/\/FanapPodChatSDK\/documentation\/FanapPodChatSDK\/InviteeTypes\/convertCodableToString()"
  },
  "kind" : "symbol",
  "metadata" : {
    "extendedModule" : "Swift",
    "externalID" : "s:SE15FanapPodChatSDKE22convertCodableToStringSSSgyF::SYNTHESIZED::s:15FanapPodChatSDK12InviteeTypesO",
    "fragments" : [
      {
        "kind" : "keyword",
        "text" : "func"
      },
      {
        "kind" : "text",
        "text" : " "
      },
      {
        "kind" : "identifier",
        "text" : "convertCodableToString"
      },
      {
        "kind" : "text",
        "text" : "() -> "
      },
      {
        "kind" : "typeIdentifier",
        "preciseIdentifier" : "s:SS",
        "text" : "String"
      },
      {
        "kind" : "text",
        "text" : "?"
      }
    ],
    "modules" : [
      {
        "name" : "FanapPodChatSDK"
      }
    ],
    "role" : "symbol",
    "roleHeading" : "Instance Method",
    "symbolKind" : "method",
    "title" : "convertCodableToString()"
  },
  "primaryContentSections" : [
    {
      "declarations" : [
        {
          "languages" : [
            "swift"
          ],
          "platforms" : [
            "macOS"
          ],
          "tokens" : [
            {
              "kind" : "keyword",
              "text" : "func"
            },
            {
              "kind" : "text",
              "text" : " "
            },
            {
              "kind" : "identifier",
              "text" : "convertCodableToString"
            },
            {
              "kind" : "text",
              "text" : "() -> "
            },
            {
              "kind" : "typeIdentifier",
              "preciseIdentifier" : "s:SS",
              "text" : "String"
            },
            {
              "kind" : "text",
              "text" : "?"
            }
          ]
        }
      ],
      "kind" : "declarations"
    }
  ],
  "schemaVersion" : {
    "major" : 0,
    "minor" : 3,
    "patch" : 0
  },
  "sections" : [

  ],
  "variants" : [
    {
      "paths" : [
        "\/documentation\/fanappodchatsdk\/inviteetypes\/convertcodabletostring()"
      ],
      "traits" : [
        {
          "interfaceLanguage" : "swift"
        }
      ]
    }
  ]
, 
"references": {
"doc://FanapPodChatSDK/documentation/FanapPodChatSDK": {
  "abstract" : [
    {
      "text" : "With Fanap Chat SDK you could connect to the chat server without managing the socket state and send or receive messages.",
      "type" : "text"
    }
  ],
  "identifier" : "doc:\/\/FanapPodChatSDK\/documentation\/FanapPodChatSDK",
  "kind" : "symbol",
  "role" : "collection",
  "title" : "FanapPodChatSDK",
  "type" : "topic",
  "url" : "\/documentation\/fanappodchatsdk"
},
"doc://FanapPodChatSDK/documentation/FanapPodChatSDK/InviteeTypes": {
  "abstract" : [

  ],
  "fragments" : [
    {
      "kind" : "keyword",
      "text" : "enum"
    },
    {
      "kind" : "text",
      "text" : " "
    },
    {
      "kind" : "identifier",
      "text" : "InviteeTypes"
    }
  ],
  "identifier" : "doc:\/\/FanapPodChatSDK\/documentation\/FanapPodChatSDK\/InviteeTypes",
  "kind" : "symbol",
  "navigatorTitle" : [
    {
      "kind" : "identifier",
      "text" : "InviteeTypes"
    }
  ],
  "role" : "symbol",
  "title" : "InviteeTypes",
  "type" : "topic",
  "url" : "\/documentation\/fanappodchatsdk\/inviteetypes"
},
"doc://FanapPodChatSDK/documentation/FanapPodChatSDK/InviteeTypes/Encodable-Implementations": {
  "abstract" : [

  ],
  "identifier" : "doc:\/\/FanapPodChatSDK\/documentation\/FanapPodChatSDK\/InviteeTypes\/Encodable-Implementations",
  "kind" : "article",
  "role" : "collectionGroup",
  "title" : "Encodable Implementations",
  "type" : "topic",
  "url" : "\/documentation\/fanappodchatsdk\/inviteetypes\/encodable-implementations"
},
"doc://FanapPodChatSDK/documentation/FanapPodChatSDK/InviteeTypes/convertCodableToString()": {
  "abstract" : [

  ],
  "fragments" : [
    {
      "kind" : "keyword",
      "text" : "func"
    },
    {
      "kind" : "text",
      "text" : " "
    },
    {
      "kind" : "identifier",
      "text" : "convertCodableToString"
    },
    {
      "kind" : "text",
      "text" : "() -> "
    },
    {
      "kind" : "typeIdentifier",
      "preciseIdentifier" : "s:SS",
      "text" : "String"
    },
    {
      "kind" : "text",
      "text" : "?"
    }
  ],
  "identifier" : "doc:\/\/FanapPodChatSDK\/documentation\/FanapPodChatSDK\/InviteeTypes\/convertCodableToString()",
  "kind" : "symbol",
  "role" : "symbol",
  "title" : "convertCodableToString()",
  "type" : "topic",
  "url" : "\/documentation\/fanappodchatsdk\/inviteetypes\/convertcodabletostring()"
}
}
}