{
  "abstract" : [
    {
      "text" : "Inherited from ",
      "type" : "text"
    },
    {
      "code" : "Hashable.hash(into:)",
      "type" : "codeVoice"
    },
    {
      "text" : ".",
      "type" : "text"
    }
  ],
  "hierarchy" : {
    "paths" : [
      [
        "doc:\/\/FanapPodChatSDK\/documentation\/FanapPodChatSDK",
        "doc:\/\/FanapPodChatSDK\/documentation\/FanapPodChatSDK\/Message"
      ]
    ]
  },
  "identifier" : {
    "interfaceLanguage" : "swift",
    "url" : "doc:\/\/FanapPodChatSDK\/documentation\/FanapPodChatSDK\/Message\/hash(into:)"
  },
  "kind" : "symbol",
  "metadata" : {
    "externalID" : "s:15FanapPodChatSDK7MessageC4hash4intoys6HasherVz_tF",
    "fragments" : [
      {
        "kind" : "keyword",
        "text" : "func"
      },
      {
        "kind" : "text",
        "text" : " "
      },
      {
        "kind" : "identifier",
        "text" : "hash"
      },
      {
        "kind" : "text",
        "text" : "("
      },
      {
        "kind" : "externalParam",
        "text" : "into"
      },
      {
        "kind" : "text",
        "text" : ": "
      },
      {
        "kind" : "keyword",
        "text" : "inout"
      },
      {
        "kind" : "text",
        "text" : " "
      },
      {
        "kind" : "typeIdentifier",
        "preciseIdentifier" : "s:s6HasherV",
        "text" : "Hasher"
      },
      {
        "kind" : "text",
        "text" : ")"
      }
    ],
    "modules" : [
      {
        "name" : "FanapPodChatSDK"
      }
    ],
    "role" : "symbol",
    "roleHeading" : "Instance Method",
    "symbolKind" : "method",
    "title" : "hash(into:)"
  },
  "primaryContentSections" : [
    {
      "declarations" : [
        {
          "languages" : [
            "swift"
          ],
          "platforms" : [
            "macOS"
          ],
          "tokens" : [
            {
              "kind" : "keyword",
              "text" : "func"
            },
            {
              "kind" : "text",
              "text" : " "
            },
            {
              "kind" : "identifier",
              "text" : "hash"
            },
            {
              "kind" : "text",
              "text" : "("
            },
            {
              "kind" : "externalParam",
              "text" : "into"
            },
            {
              "kind" : "text",
              "text" : " "
            },
            {
              "kind" : "internalParam",
              "text" : "hasher"
            },
            {
              "kind" : "text",
              "text" : ": "
            },
            {
              "kind" : "keyword",
              "text" : "inout"
            },
            {
              "kind" : "text",
              "text" : " "
            },
            {
              "kind" : "typeIdentifier",
              "preciseIdentifier" : "s:s6HasherV",
              "text" : "Hasher"
            },
            {
              "kind" : "text",
              "text" : ")"
            }
          ]
        }
      ],
      "kind" : "declarations"
    }
  ],
  "schemaVersion" : {
    "major" : 0,
    "minor" : 3,
    "patch" : 0
  },
  "sections" : [

  ],
  "variants" : [
    {
      "paths" : [
        "\/documentation\/fanappodchatsdk\/message\/hash(into:)"
      ],
      "traits" : [
        {
          "interfaceLanguage" : "swift"
        }
      ]
    }
  ]
, 
"references": {
"doc://FanapPodChatSDK/documentation/FanapPodChatSDK": {
  "abstract" : [
    {
      "text" : "With Fanap Chat SDK you could connect to the chat server without managing the socket state and send or receive messages.",
      "type" : "text"
    }
  ],
  "identifier" : "doc:\/\/FanapPodChatSDK\/documentation\/FanapPodChatSDK",
  "kind" : "symbol",
  "role" : "collection",
  "title" : "FanapPodChatSDK",
  "type" : "topic",
  "url" : "\/documentation\/fanappodchatsdk"
},
"doc://FanapPodChatSDK/documentation/FanapPodChatSDK/Message": {
  "abstract" : [

  ],
  "fragments" : [
    {
      "kind" : "keyword",
      "text" : "class"
    },
    {
      "kind" : "text",
      "text" : " "
    },
    {
      "kind" : "identifier",
      "text" : "Message"
    }
  ],
  "identifier" : "doc:\/\/FanapPodChatSDK\/documentation\/FanapPodChatSDK\/Message",
  "kind" : "symbol",
  "navigatorTitle" : [
    {
      "kind" : "identifier",
      "text" : "Message"
    }
  ],
  "role" : "symbol",
  "title" : "Message",
  "type" : "topic",
  "url" : "\/documentation\/fanappodchatsdk\/message"
},
"doc://FanapPodChatSDK/documentation/FanapPodChatSDK/Message/hash(into:)": {
  "abstract" : [

  ],
  "fragments" : [
    {
      "kind" : "keyword",
      "text" : "func"
    },
    {
      "kind" : "text",
      "text" : " "
    },
    {
      "kind" : "identifier",
      "text" : "hash"
    },
    {
      "kind" : "text",
      "text" : "("
    },
    {
      "kind" : "externalParam",
      "text" : "into"
    },
    {
      "kind" : "text",
      "text" : ": "
    },
    {
      "kind" : "keyword",
      "text" : "inout"
    },
    {
      "kind" : "text",
      "text" : " "
    },
    {
      "kind" : "typeIdentifier",
      "preciseIdentifier" : "s:s6HasherV",
      "text" : "Hasher"
    },
    {
      "kind" : "text",
      "text" : ")"
    }
  ],
  "identifier" : "doc:\/\/FanapPodChatSDK\/documentation\/FanapPodChatSDK\/Message\/hash(into:)",
  "kind" : "symbol",
  "role" : "symbol",
  "title" : "hash(into:)",
  "type" : "topic",
  "url" : "\/documentation\/fanappodchatsdk\/message\/hash(into:)"
}
}
}