{
  "hierarchy" : {
    "paths" : [
      [
        "doc:\/\/FanapPodChatSDK\/documentation\/FanapPodChatSDK",
        "doc:\/\/FanapPodChatSDK\/documentation\/FanapPodChatSDK\/CMMessage"
      ]
    ]
  },
  "identifier" : {
    "interfaceLanguage" : "swift",
    "url" : "doc:\/\/FanapPodChatSDK\/documentation\/FanapPodChatSDK\/CMMessage\/convertMesageToCM(message:entity:conversation:)"
  },
  "kind" : "symbol",
  "metadata" : {
    "extendedModule" : "FanapPodChatSDK",
    "externalID" : "s:15FanapPodChatSDK9CMMessageC17convertMesageToCM7message6entity12conversationAcA7MessageC_ACSgAA14CMConversationCSgtFZ",
    "fragments" : [
      {
        "kind" : "keyword",
        "text" : "class"
      },
      {
        "kind" : "text",
        "text" : " "
      },
      {
        "kind" : "keyword",
        "text" : "func"
      },
      {
        "kind" : "text",
        "text" : " "
      },
      {
        "kind" : "identifier",
        "text" : "convertMesageToCM"
      },
      {
        "kind" : "text",
        "text" : "("
      },
      {
        "kind" : "externalParam",
        "text" : "message"
      },
      {
        "kind" : "text",
        "text" : ": "
      },
      {
        "kind" : "typeIdentifier",
        "preciseIdentifier" : "s:15FanapPodChatSDK7MessageC",
        "text" : "Message"
      },
      {
        "kind" : "text",
        "text" : ", "
      },
      {
        "kind" : "externalParam",
        "text" : "entity"
      },
      {
        "kind" : "text",
        "text" : ": "
      },
      {
        "kind" : "typeIdentifier",
        "preciseIdentifier" : "c:@M@FanapPodChatSDK@objc(cs)CMMessage",
        "text" : "CMMessage"
      },
      {
        "kind" : "text",
        "text" : "?, "
      },
      {
        "kind" : "externalParam",
        "text" : "conversation"
      },
      {
        "kind" : "text",
        "text" : ": "
      },
      {
        "kind" : "typeIdentifier",
        "preciseIdentifier" : "c:@M@FanapPodChatSDK@objc(cs)CMConversation",
        "text" : "CMConversation"
      },
      {
        "kind" : "text",
        "text" : "?) -> "
      },
      {
        "kind" : "typeIdentifier",
        "preciseIdentifier" : "c:@M@FanapPodChatSDK@objc(cs)CMMessage",
        "text" : "CMMessage"
      }
    ],
    "modules" : [
      {
        "name" : "FanapPodChatSDK"
      }
    ],
    "role" : "symbol",
    "roleHeading" : "Type Method",
    "symbolKind" : "method",
    "title" : "convertMesageToCM(message:entity:conversation:)"
  },
  "primaryContentSections" : [
    {
      "declarations" : [
        {
          "languages" : [
            "swift"
          ],
          "platforms" : [
            "macOS"
          ],
          "tokens" : [
            {
              "kind" : "keyword",
              "text" : "class"
            },
            {
              "kind" : "text",
              "text" : " "
            },
            {
              "kind" : "keyword",
              "text" : "func"
            },
            {
              "kind" : "text",
              "text" : " "
            },
            {
              "kind" : "identifier",
              "text" : "convertMesageToCM"
            },
            {
              "kind" : "text",
              "text" : "("
            },
            {
              "kind" : "externalParam",
              "text" : "message"
            },
            {
              "kind" : "text",
              "text" : ": "
            },
            {
              "identifier" : "doc:\/\/FanapPodChatSDK\/documentation\/FanapPodChatSDK\/Message",
              "kind" : "typeIdentifier",
              "preciseIdentifier" : "s:15FanapPodChatSDK7MessageC",
              "text" : "Message"
            },
            {
              "kind" : "text",
              "text" : ", "
            },
            {
              "kind" : "externalParam",
              "text" : "entity"
            },
            {
              "kind" : "text",
              "text" : ": "
            },
            {
              "identifier" : "doc:\/\/FanapPodChatSDK\/documentation\/FanapPodChatSDK\/CMMessage",
              "kind" : "typeIdentifier",
              "preciseIdentifier" : "c:@M@FanapPodChatSDK@objc(cs)CMMessage",
              "text" : "CMMessage"
            },
            {
              "kind" : "text",
              "text" : "? = nil, "
            },
            {
              "kind" : "externalParam",
              "text" : "conversation"
            },
            {
              "kind" : "text",
              "text" : ": "
            },
            {
              "identifier" : "doc:\/\/FanapPodChatSDK\/documentation\/FanapPodChatSDK\/CMConversation",
              "kind" : "typeIdentifier",
              "preciseIdentifier" : "c:@M@FanapPodChatSDK@objc(cs)CMConversation",
              "text" : "CMConversation"
            },
            {
              "kind" : "text",
              "text" : "?) -> "
            },
            {
              "identifier" : "doc:\/\/FanapPodChatSDK\/documentation\/FanapPodChatSDK\/CMMessage",
              "kind" : "typeIdentifier",
              "preciseIdentifier" : "c:@M@FanapPodChatSDK@objc(cs)CMMessage",
              "text" : "CMMessage"
            }
          ]
        }
      ],
      "kind" : "declarations"
    }
  ],
  "schemaVersion" : {
    "major" : 0,
    "minor" : 3,
    "patch" : 0
  },
  "sections" : [

  ],
  "variants" : [
    {
      "paths" : [
        "\/documentation\/fanappodchatsdk\/cmmessage\/convertmesagetocm(message:entity:conversation:)"
      ],
      "traits" : [
        {
          "interfaceLanguage" : "swift"
        }
      ]
    }
  ]
, 
"references": {
"doc://FanapPodChatSDK/documentation/FanapPodChatSDK": {
  "abstract" : [
    {
      "text" : "With Fanap Chat SDK you could connect to the chat server without managing the socket state and send or receive messages.",
      "type" : "text"
    }
  ],
  "identifier" : "doc:\/\/FanapPodChatSDK\/documentation\/FanapPodChatSDK",
  "kind" : "symbol",
  "role" : "collection",
  "title" : "FanapPodChatSDK",
  "type" : "topic",
  "url" : "\/documentation\/fanappodchatsdk"
},
"doc://FanapPodChatSDK/documentation/FanapPodChatSDK/CMConversation": {
  "abstract" : [

  ],
  "fragments" : [
    {
      "kind" : "keyword",
      "text" : "class"
    },
    {
      "kind" : "text",
      "text" : " "
    },
    {
      "kind" : "identifier",
      "text" : "CMConversation"
    }
  ],
  "identifier" : "doc:\/\/FanapPodChatSDK\/documentation\/FanapPodChatSDK\/CMConversation",
  "kind" : "symbol",
  "navigatorTitle" : [
    {
      "kind" : "identifier",
      "text" : "CMConversation"
    }
  ],
  "role" : "symbol",
  "title" : "CMConversation",
  "type" : "topic",
  "url" : "\/documentation\/fanappodchatsdk\/cmconversation"
},
"doc://FanapPodChatSDK/documentation/FanapPodChatSDK/CMMessage": {
  "abstract" : [

  ],
  "fragments" : [
    {
      "kind" : "keyword",
      "text" : "class"
    },
    {
      "kind" : "text",
      "text" : " "
    },
    {
      "kind" : "identifier",
      "text" : "CMMessage"
    }
  ],
  "identifier" : "doc:\/\/FanapPodChatSDK\/documentation\/FanapPodChatSDK\/CMMessage",
  "kind" : "symbol",
  "navigatorTitle" : [
    {
      "kind" : "identifier",
      "text" : "CMMessage"
    }
  ],
  "role" : "symbol",
  "title" : "CMMessage",
  "type" : "topic",
  "url" : "\/documentation\/fanappodchatsdk\/cmmessage"
},
"doc://FanapPodChatSDK/documentation/FanapPodChatSDK/CMMessage/convertMesageToCM(message:entity:conversation:)": {
  "abstract" : [

  ],
  "fragments" : [
    {
      "kind" : "keyword",
      "text" : "class"
    },
    {
      "kind" : "text",
      "text" : " "
    },
    {
      "kind" : "keyword",
      "text" : "func"
    },
    {
      "kind" : "text",
      "text" : " "
    },
    {
      "kind" : "identifier",
      "text" : "convertMesageToCM"
    },
    {
      "kind" : "text",
      "text" : "("
    },
    {
      "kind" : "externalParam",
      "text" : "message"
    },
    {
      "kind" : "text",
      "text" : ": "
    },
    {
      "kind" : "typeIdentifier",
      "preciseIdentifier" : "s:15FanapPodChatSDK7MessageC",
      "text" : "Message"
    },
    {
      "kind" : "text",
      "text" : ", "
    },
    {
      "kind" : "externalParam",
      "text" : "entity"
    },
    {
      "kind" : "text",
      "text" : ": "
    },
    {
      "kind" : "typeIdentifier",
      "preciseIdentifier" : "c:@M@FanapPodChatSDK@objc(cs)CMMessage",
      "text" : "CMMessage"
    },
    {
      "kind" : "text",
      "text" : "?, "
    },
    {
      "kind" : "externalParam",
      "text" : "conversation"
    },
    {
      "kind" : "text",
      "text" : ": "
    },
    {
      "kind" : "typeIdentifier",
      "preciseIdentifier" : "c:@M@FanapPodChatSDK@objc(cs)CMConversation",
      "text" : "CMConversation"
    },
    {
      "kind" : "text",
      "text" : "?) -> "
    },
    {
      "kind" : "typeIdentifier",
      "preciseIdentifier" : "c:@M@FanapPodChatSDK@objc(cs)CMMessage",
      "text" : "CMMessage"
    }
  ],
  "identifier" : "doc:\/\/FanapPodChatSDK\/documentation\/FanapPodChatSDK\/CMMessage\/convertMesageToCM(message:entity:conversation:)",
  "kind" : "symbol",
  "role" : "symbol",
  "title" : "convertMesageToCM(message:entity:conversation:)",
  "type" : "topic",
  "url" : "\/documentation\/fanappodchatsdk\/cmmessage\/convertmesagetocm(message:entity:conversation:)"
},
"doc://FanapPodChatSDK/documentation/FanapPodChatSDK/Message": {
  "abstract" : [

  ],
  "fragments" : [
    {
      "kind" : "keyword",
      "text" : "class"
    },
    {
      "kind" : "text",
      "text" : " "
    },
    {
      "kind" : "identifier",
      "text" : "Message"
    }
  ],
  "identifier" : "doc:\/\/FanapPodChatSDK\/documentation\/FanapPodChatSDK\/Message",
  "kind" : "symbol",
  "navigatorTitle" : [
    {
      "kind" : "identifier",
      "text" : "Message"
    }
  ],
  "role" : "symbol",
  "title" : "Message",
  "type" : "topic",
  "url" : "\/documentation\/fanappodchatsdk\/message"
}
}
}