{
  "hierarchy" : {
    "paths" : [
      [
        "doc:\/\/FanapPodChatSDK\/documentation\/FanapPodChatSDK",
        "doc:\/\/FanapPodChatSDK\/documentation\/FanapPodChatSDK\/CMParticipant"
      ]
    ]
  },
  "identifier" : {
    "interfaceLanguage" : "swift",
    "url" : "doc:\/\/FanapPodChatSDK\/documentation\/FanapPodChatSDK\/CMParticipant\/addToDummyConversationParticipants(_:)-34z6c"
  },
  "kind" : "symbol",
  "metadata" : {
    "extendedModule" : "FanapPodChatSDK",
    "externalID" : "c:@CM@FanapPodChatSDK@objc(cs)CMParticipant(im)addDummyConversationParticipantsObject:",
    "fragments" : [
      {
        "kind" : "keyword",
        "text" : "func"
      },
      {
        "kind" : "text",
        "text" : " "
      },
      {
        "kind" : "identifier",
        "text" : "addToDummyConversationParticipants"
      },
      {
        "kind" : "text",
        "text" : "("
      },
      {
        "kind" : "typeIdentifier",
        "preciseIdentifier" : "c:@M@FanapPodChatSDK@objc(cs)CMConversation",
        "text" : "CMConversation"
      },
      {
        "kind" : "text",
        "text" : ")"
      }
    ],
    "modules" : [
      {
        "name" : "FanapPodChatSDK"
      }
    ],
    "role" : "symbol",
    "roleHeading" : "Instance Method",
    "symbolKind" : "method",
    "title" : "addToDummyConversationParticipants(_:)"
  },
  "primaryContentSections" : [
    {
      "declarations" : [
        {
          "languages" : [
            "swift"
          ],
          "platforms" : [
            "macOS"
          ],
          "tokens" : [
            {
              "kind" : "attribute",
              "text" : "@objc"
            },
            {
              "kind" : "text",
              "text" : "(addDummyConversationParticipantsObject:) "
            },
            {
              "kind" : "attribute",
              "text" : "@NSManaged"
            },
            {
              "kind" : "text",
              "text" : " "
            },
            {
              "kind" : "keyword",
              "text" : "func"
            },
            {
              "kind" : "text",
              "text" : " "
            },
            {
              "kind" : "identifier",
              "text" : "addToDummyConversationParticipants"
            },
            {
              "kind" : "text",
              "text" : "("
            },
            {
              "kind" : "externalParam",
              "text" : "_"
            },
            {
              "kind" : "text",
              "text" : " "
            },
            {
              "kind" : "internalParam",
              "text" : "value"
            },
            {
              "kind" : "text",
              "text" : ": "
            },
            {
              "identifier" : "doc:\/\/FanapPodChatSDK\/documentation\/FanapPodChatSDK\/CMConversation",
              "kind" : "typeIdentifier",
              "preciseIdentifier" : "c:@M@FanapPodChatSDK@objc(cs)CMConversation",
              "text" : "CMConversation"
            },
            {
              "kind" : "text",
              "text" : ")"
            }
          ]
        }
      ],
      "kind" : "declarations"
    }
  ],
  "schemaVersion" : {
    "major" : 0,
    "minor" : 3,
    "patch" : 0
  },
  "sections" : [

  ],
  "variants" : [
    {
      "paths" : [
        "\/documentation\/fanappodchatsdk\/cmparticipant\/addtodummyconversationparticipants(_:)-34z6c"
      ],
      "traits" : [
        {
          "interfaceLanguage" : "swift"
        }
      ]
    }
  ]
, 
"references": {
"doc://FanapPodChatSDK/documentation/FanapPodChatSDK": {
  "abstract" : [
    {
      "text" : "With Fanap Chat SDK you could connect to the chat server without managing the socket state and send or receive messages.",
      "type" : "text"
    }
  ],
  "identifier" : "doc:\/\/FanapPodChatSDK\/documentation\/FanapPodChatSDK",
  "kind" : "symbol",
  "role" : "collection",
  "title" : "FanapPodChatSDK",
  "type" : "topic",
  "url" : "\/documentation\/fanappodchatsdk"
},
"doc://FanapPodChatSDK/documentation/FanapPodChatSDK/CMConversation": {
  "abstract" : [

  ],
  "fragments" : [
    {
      "kind" : "keyword",
      "text" : "class"
    },
    {
      "kind" : "text",
      "text" : " "
    },
    {
      "kind" : "identifier",
      "text" : "CMConversation"
    }
  ],
  "identifier" : "doc:\/\/FanapPodChatSDK\/documentation\/FanapPodChatSDK\/CMConversation",
  "kind" : "symbol",
  "navigatorTitle" : [
    {
      "kind" : "identifier",
      "text" : "CMConversation"
    }
  ],
  "role" : "symbol",
  "title" : "CMConversation",
  "type" : "topic",
  "url" : "\/documentation\/fanappodchatsdk\/cmconversation"
},
"doc://FanapPodChatSDK/documentation/FanapPodChatSDK/CMParticipant": {
  "abstract" : [

  ],
  "fragments" : [
    {
      "kind" : "keyword",
      "text" : "class"
    },
    {
      "kind" : "text",
      "text" : " "
    },
    {
      "kind" : "identifier",
      "text" : "CMParticipant"
    }
  ],
  "identifier" : "doc:\/\/FanapPodChatSDK\/documentation\/FanapPodChatSDK\/CMParticipant",
  "kind" : "symbol",
  "navigatorTitle" : [
    {
      "kind" : "identifier",
      "text" : "CMParticipant"
    }
  ],
  "role" : "symbol",
  "title" : "CMParticipant",
  "type" : "topic",
  "url" : "\/documentation\/fanappodchatsdk\/cmparticipant"
},
"doc://FanapPodChatSDK/documentation/FanapPodChatSDK/CMParticipant/addToDummyConversationParticipants(_:)-34z6c": {
  "abstract" : [

  ],
  "fragments" : [
    {
      "kind" : "keyword",
      "text" : "func"
    },
    {
      "kind" : "text",
      "text" : " "
    },
    {
      "kind" : "identifier",
      "text" : "addToDummyConversationParticipants"
    },
    {
      "kind" : "text",
      "text" : "("
    },
    {
      "kind" : "typeIdentifier",
      "preciseIdentifier" : "c:@M@FanapPodChatSDK@objc(cs)CMConversation",
      "text" : "CMConversation"
    },
    {
      "kind" : "text",
      "text" : ")"
    }
  ],
  "identifier" : "doc:\/\/FanapPodChatSDK\/documentation\/FanapPodChatSDK\/CMParticipant\/addToDummyConversationParticipants(_:)-34z6c",
  "kind" : "symbol",
  "role" : "symbol",
  "title" : "addToDummyConversationParticipants(_:)",
  "type" : "topic",
  "url" : "\/documentation\/fanappodchatsdk\/cmparticipant\/addtodummyconversationparticipants(_:)-34z6c"
}
}
}