{
  "abstract" : [
    {
      "text" : "Add commands to a bot.",
      "type" : "text"
    }
  ],
  "hierarchy" : {
    "paths" : [
      [
        "doc:\/\/FanapPodChatSDK\/documentation\/FanapPodChatSDK",
        "doc:\/\/FanapPodChatSDK\/documentation\/FanapPodChatSDK\/Chat"
      ]
    ]
  },
  "identifier" : {
    "interfaceLanguage" : "swift",
    "url" : "doc:\/\/FanapPodChatSDK\/documentation\/FanapPodChatSDK\/Chat\/addBotCommand(_:completion:uniqueIdResult:)"
  },
  "kind" : "symbol",
  "metadata" : {
    "externalID" : "s:15FanapPodChatSDK0C0C13addBotCommand_10completion14uniqueIdResultyAA03AddfG7RequestC_yAA0F4InfoCSg_SSSgAA0C5ErrorVSgtcySScSgtF",
    "fragments" : [
      {
        "kind" : "keyword",
        "text" : "func"
      },
      {
        "kind" : "text",
        "text" : " "
      },
      {
        "kind" : "identifier",
        "text" : "addBotCommand"
      },
      {
        "kind" : "text",
        "text" : "("
      },
      {
        "kind" : "typeIdentifier",
        "preciseIdentifier" : "s:15FanapPodChatSDK20AddBotCommandRequestC",
        "text" : "AddBotCommandRequest"
      },
      {
        "kind" : "text",
        "text" : ", "
      },
      {
        "kind" : "externalParam",
        "text" : "completion"
      },
      {
        "kind" : "text",
        "text" : ": "
      },
      {
        "kind" : "typeIdentifier",
        "preciseIdentifier" : "s:15FanapPodChatSDK14CompletionTypea",
        "text" : "CompletionType"
      },
      {
        "kind" : "text",
        "text" : "<"
      },
      {
        "kind" : "typeIdentifier",
        "preciseIdentifier" : "s:15FanapPodChatSDK7BotInfoC",
        "text" : "BotInfo"
      },
      {
        "kind" : "text",
        "text" : ">, "
      },
      {
        "kind" : "externalParam",
        "text" : "uniqueIdResult"
      },
      {
        "kind" : "text",
        "text" : ": "
      },
      {
        "kind" : "typeIdentifier",
        "preciseIdentifier" : "s:15FanapPodChatSDK18UniqueIdResultTypea",
        "text" : "UniqueIdResultType"
      },
      {
        "kind" : "text",
        "text" : ")"
      }
    ],
    "modules" : [
      {
        "name" : "FanapPodChatSDK"
      }
    ],
    "role" : "symbol",
    "roleHeading" : "Instance Method",
    "symbolKind" : "method",
    "title" : "addBotCommand(_:completion:uniqueIdResult:)"
  },
  "primaryContentSections" : [
    {
      "declarations" : [
        {
          "languages" : [
            "swift"
          ],
          "platforms" : [
            "macOS"
          ],
          "tokens" : [
            {
              "kind" : "keyword",
              "text" : "func"
            },
            {
              "kind" : "text",
              "text" : " "
            },
            {
              "kind" : "identifier",
              "text" : "addBotCommand"
            },
            {
              "kind" : "text",
              "text" : "("
            },
            {
              "kind" : "externalParam",
              "text" : "_"
            },
            {
              "kind" : "text",
              "text" : " "
            },
            {
              "kind" : "internalParam",
              "text" : "request"
            },
            {
              "kind" : "text",
              "text" : ": "
            },
            {
              "identifier" : "doc:\/\/FanapPodChatSDK\/documentation\/FanapPodChatSDK\/AddBotCommandRequest",
              "kind" : "typeIdentifier",
              "preciseIdentifier" : "s:15FanapPodChatSDK20AddBotCommandRequestC",
              "text" : "AddBotCommandRequest"
            },
            {
              "kind" : "text",
              "text" : ", "
            },
            {
              "kind" : "externalParam",
              "text" : "completion"
            },
            {
              "kind" : "text",
              "text" : ": "
            },
            {
              "kind" : "attribute",
              "text" : "@escaping"
            },
            {
              "kind" : "text",
              "text" : " "
            },
            {
              "identifier" : "doc:\/\/FanapPodChatSDK\/documentation\/FanapPodChatSDK\/CompletionType",
              "kind" : "typeIdentifier",
              "preciseIdentifier" : "s:15FanapPodChatSDK14CompletionTypea",
              "text" : "CompletionType"
            },
            {
              "kind" : "text",
              "text" : "<"
            },
            {
              "identifier" : "doc:\/\/FanapPodChatSDK\/documentation\/FanapPodChatSDK\/BotInfo",
              "kind" : "typeIdentifier",
              "preciseIdentifier" : "s:15FanapPodChatSDK7BotInfoC",
              "text" : "BotInfo"
            },
            {
              "kind" : "text",
              "text" : ">, "
            },
            {
              "kind" : "externalParam",
              "text" : "uniqueIdResult"
            },
            {
              "kind" : "text",
              "text" : ": "
            },
            {
              "identifier" : "doc:\/\/FanapPodChatSDK\/documentation\/FanapPodChatSDK\/UniqueIdResultType",
              "kind" : "typeIdentifier",
              "preciseIdentifier" : "s:15FanapPodChatSDK18UniqueIdResultTypea",
              "text" : "UniqueIdResultType"
            },
            {
              "kind" : "text",
              "text" : " = nil)"
            }
          ]
        }
      ],
      "kind" : "declarations"
    },
    {
      "kind" : "parameters",
      "parameters" : [
        {
          "content" : [
            {
              "inlineContent" : [
                {
                  "text" : "The request that contains the name bot and list of commands.",
                  "type" : "text"
                }
              ],
              "type" : "paragraph"
            }
          ],
          "name" : "request"
        },
        {
          "content" : [
            {
              "inlineContent" : [
                {
                  "text" : "The responser of the request.",
                  "type" : "text"
                }
              ],
              "type" : "paragraph"
            }
          ],
          "name" : "completion"
        },
        {
          "content" : [
            {
              "inlineContent" : [
                {
                  "text" : "The unique id of request. If you manage the unique id by yourself you should leave this closure blank, otherwise, you must use it if you need to know what response is for what request.",
                  "type" : "text"
                }
              ],
              "type" : "paragraph"
            }
          ],
          "name" : "uniqueIdResult"
        }
      ]
    }
  ],
  "schemaVersion" : {
    "major" : 0,
    "minor" : 3,
    "patch" : 0
  },
  "sections" : [

  ],
  "variants" : [
    {
      "paths" : [
        "\/documentation\/fanappodchatsdk\/chat\/addbotcommand(_:completion:uniqueidresult:)"
      ],
      "traits" : [
        {
          "interfaceLanguage" : "swift"
        }
      ]
    }
  ]
, 
"references": {
"doc://FanapPodChatSDK/documentation/FanapPodChatSDK": {
  "abstract" : [
    {
      "text" : "With Fanap Chat SDK you could connect to the chat server without managing the socket state and send or receive messages.",
      "type" : "text"
    }
  ],
  "identifier" : "doc:\/\/FanapPodChatSDK\/documentation\/FanapPodChatSDK",
  "kind" : "symbol",
  "role" : "collection",
  "title" : "FanapPodChatSDK",
  "type" : "topic",
  "url" : "\/documentation\/fanappodchatsdk"
},
"doc://FanapPodChatSDK/documentation/FanapPodChatSDK/AddBotCommandRequest": {
  "abstract" : [

  ],
  "fragments" : [
    {
      "kind" : "keyword",
      "text" : "class"
    },
    {
      "kind" : "text",
      "text" : " "
    },
    {
      "kind" : "identifier",
      "text" : "AddBotCommandRequest"
    }
  ],
  "identifier" : "doc:\/\/FanapPodChatSDK\/documentation\/FanapPodChatSDK\/AddBotCommandRequest",
  "kind" : "symbol",
  "navigatorTitle" : [
    {
      "kind" : "identifier",
      "text" : "AddBotCommandRequest"
    }
  ],
  "role" : "symbol",
  "title" : "AddBotCommandRequest",
  "type" : "topic",
  "url" : "\/documentation\/fanappodchatsdk\/addbotcommandrequest"
},
"doc://FanapPodChatSDK/documentation/FanapPodChatSDK/BotInfo": {
  "abstract" : [
    {
      "text" : "Bot more information.",
      "type" : "text"
    }
  ],
  "fragments" : [
    {
      "kind" : "keyword",
      "text" : "class"
    },
    {
      "kind" : "text",
      "text" : " "
    },
    {
      "kind" : "identifier",
      "text" : "BotInfo"
    }
  ],
  "identifier" : "doc:\/\/FanapPodChatSDK\/documentation\/FanapPodChatSDK\/BotInfo",
  "kind" : "symbol",
  "navigatorTitle" : [
    {
      "kind" : "identifier",
      "text" : "BotInfo"
    }
  ],
  "role" : "symbol",
  "title" : "BotInfo",
  "type" : "topic",
  "url" : "\/documentation\/fanappodchatsdk\/botinfo"
},
"doc://FanapPodChatSDK/documentation/FanapPodChatSDK/Chat": {
  "abstract" : [
    {
      "text" : "The chat server manages the async connection and the rest of the job for you, and you could send or receive messages or create a channel or group chat.",
      "type" : "text"
    }
  ],
  "fragments" : [
    {
      "kind" : "keyword",
      "text" : "class"
    },
    {
      "kind" : "text",
      "text" : " "
    },
    {
      "kind" : "identifier",
      "text" : "Chat"
    }
  ],
  "identifier" : "doc:\/\/FanapPodChatSDK\/documentation\/FanapPodChatSDK\/Chat",
  "kind" : "symbol",
  "navigatorTitle" : [
    {
      "kind" : "identifier",
      "text" : "Chat"
    }
  ],
  "role" : "symbol",
  "title" : "Chat",
  "type" : "topic",
  "url" : "\/documentation\/fanappodchatsdk\/chat"
},
"doc://FanapPodChatSDK/documentation/FanapPodChatSDK/Chat/addBotCommand(_:completion:uniqueIdResult:)": {
  "abstract" : [
    {
      "text" : "Add commands to a bot.",
      "type" : "text"
    }
  ],
  "fragments" : [
    {
      "kind" : "keyword",
      "text" : "func"
    },
    {
      "kind" : "text",
      "text" : " "
    },
    {
      "kind" : "identifier",
      "text" : "addBotCommand"
    },
    {
      "kind" : "text",
      "text" : "("
    },
    {
      "kind" : "typeIdentifier",
      "preciseIdentifier" : "s:15FanapPodChatSDK20AddBotCommandRequestC",
      "text" : "AddBotCommandRequest"
    },
    {
      "kind" : "text",
      "text" : ", "
    },
    {
      "kind" : "externalParam",
      "text" : "completion"
    },
    {
      "kind" : "text",
      "text" : ": "
    },
    {
      "kind" : "typeIdentifier",
      "preciseIdentifier" : "s:15FanapPodChatSDK14CompletionTypea",
      "text" : "CompletionType"
    },
    {
      "kind" : "text",
      "text" : "<"
    },
    {
      "kind" : "typeIdentifier",
      "preciseIdentifier" : "s:15FanapPodChatSDK7BotInfoC",
      "text" : "BotInfo"
    },
    {
      "kind" : "text",
      "text" : ">, "
    },
    {
      "kind" : "externalParam",
      "text" : "uniqueIdResult"
    },
    {
      "kind" : "text",
      "text" : ": "
    },
    {
      "kind" : "typeIdentifier",
      "preciseIdentifier" : "s:15FanapPodChatSDK18UniqueIdResultTypea",
      "text" : "UniqueIdResultType"
    },
    {
      "kind" : "text",
      "text" : ")"
    }
  ],
  "identifier" : "doc:\/\/FanapPodChatSDK\/documentation\/FanapPodChatSDK\/Chat\/addBotCommand(_:completion:uniqueIdResult:)",
  "kind" : "symbol",
  "role" : "symbol",
  "title" : "addBotCommand(_:completion:uniqueIdResult:)",
  "type" : "topic",
  "url" : "\/documentation\/fanappodchatsdk\/chat\/addbotcommand(_:completion:uniqueidresult:)"
},
"doc://FanapPodChatSDK/documentation/FanapPodChatSDK/CompletionType": {
  "abstract" : [

  ],
  "fragments" : [
    {
      "kind" : "keyword",
      "text" : "typealias"
    },
    {
      "kind" : "text",
      "text" : " "
    },
    {
      "kind" : "identifier",
      "text" : "CompletionType"
    }
  ],
  "identifier" : "doc:\/\/FanapPodChatSDK\/documentation\/FanapPodChatSDK\/CompletionType",
  "kind" : "symbol",
  "navigatorTitle" : [
    {
      "kind" : "identifier",
      "text" : "CompletionType"
    }
  ],
  "role" : "symbol",
  "title" : "CompletionType",
  "type" : "topic",
  "url" : "\/documentation\/fanappodchatsdk\/completiontype"
},
"doc://FanapPodChatSDK/documentation/FanapPodChatSDK/UniqueIdResultType": {
  "abstract" : [

  ],
  "fragments" : [
    {
      "kind" : "keyword",
      "text" : "typealias"
    },
    {
      "kind" : "text",
      "text" : " "
    },
    {
      "kind" : "identifier",
      "text" : "UniqueIdResultType"
    }
  ],
  "identifier" : "doc:\/\/FanapPodChatSDK\/documentation\/FanapPodChatSDK\/UniqueIdResultType",
  "kind" : "symbol",
  "navigatorTitle" : [
    {
      "kind" : "identifier",
      "text" : "UniqueIdResultType"
    }
  ],
  "role" : "symbol",
  "title" : "UniqueIdResultType",
  "type" : "topic",
  "url" : "\/documentation\/fanappodchatsdk\/uniqueidresulttype"
}
}
}