{
  "abstract" : [
    {
      "text" : "Get the roles of the current user in a thread.",
      "type" : "text"
    }
  ],
  "hierarchy" : {
    "paths" : [
      [
        "doc:\/\/FanapPodChatSDK\/documentation\/FanapPodChatSDK",
        "doc:\/\/FanapPodChatSDK\/documentation\/FanapPodChatSDK\/Chat"
      ]
    ]
  },
  "identifier" : {
    "interfaceLanguage" : "swift",
    "url" : "doc:\/\/FanapPodChatSDK\/documentation\/FanapPodChatSDK\/Chat\/getCurrentUserRoles(_:completion:cacheResponse:uniqueIdResult:)"
  },
  "kind" : "symbol",
  "metadata" : {
    "externalID" : "s:15FanapPodChatSDK0C0C19getCurrentUserRoles_10completion13cacheResponse14uniqueIdResultyAA0fgH7RequestC_ySayAA0H0OGSg_SSSgAA0C5ErrorVSgtcyAM_AnQtcSgySScSgtF",
    "fragments" : [
      {
        "kind" : "keyword",
        "text" : "func"
      },
      {
        "kind" : "text",
        "text" : " "
      },
      {
        "kind" : "identifier",
        "text" : "getCurrentUserRoles"
      },
      {
        "kind" : "text",
        "text" : "("
      },
      {
        "kind" : "typeIdentifier",
        "preciseIdentifier" : "s:15FanapPodChatSDK23CurrentUserRolesRequestC",
        "text" : "CurrentUserRolesRequest"
      },
      {
        "kind" : "text",
        "text" : ", "
      },
      {
        "kind" : "externalParam",
        "text" : "completion"
      },
      {
        "kind" : "text",
        "text" : ": "
      },
      {
        "kind" : "typeIdentifier",
        "preciseIdentifier" : "s:15FanapPodChatSDK14CompletionTypea",
        "text" : "CompletionType"
      },
      {
        "kind" : "text",
        "text" : "<["
      },
      {
        "kind" : "typeIdentifier",
        "preciseIdentifier" : "s:15FanapPodChatSDK5RolesO",
        "text" : "Roles"
      },
      {
        "kind" : "text",
        "text" : "]>, "
      },
      {
        "kind" : "externalParam",
        "text" : "cacheResponse"
      },
      {
        "kind" : "text",
        "text" : ": "
      },
      {
        "kind" : "typeIdentifier",
        "preciseIdentifier" : "s:15FanapPodChatSDK17CacheResponseTypea",
        "text" : "CacheResponseType"
      },
      {
        "kind" : "text",
        "text" : "<["
      },
      {
        "kind" : "typeIdentifier",
        "preciseIdentifier" : "s:15FanapPodChatSDK5RolesO",
        "text" : "Roles"
      },
      {
        "kind" : "text",
        "text" : "]>?, "
      },
      {
        "kind" : "externalParam",
        "text" : "uniqueIdResult"
      },
      {
        "kind" : "text",
        "text" : ": "
      },
      {
        "kind" : "typeIdentifier",
        "preciseIdentifier" : "s:15FanapPodChatSDK18UniqueIdResultTypea",
        "text" : "UniqueIdResultType"
      },
      {
        "kind" : "text",
        "text" : ")"
      }
    ],
    "modules" : [
      {
        "name" : "FanapPodChatSDK"
      }
    ],
    "role" : "symbol",
    "roleHeading" : "Instance Method",
    "symbolKind" : "method",
    "title" : "getCurrentUserRoles(_:completion:cacheResponse:uniqueIdResult:)"
  },
  "primaryContentSections" : [
    {
      "declarations" : [
        {
          "languages" : [
            "swift"
          ],
          "platforms" : [
            "macOS"
          ],
          "tokens" : [
            {
              "kind" : "keyword",
              "text" : "func"
            },
            {
              "kind" : "text",
              "text" : " "
            },
            {
              "kind" : "identifier",
              "text" : "getCurrentUserRoles"
            },
            {
              "kind" : "text",
              "text" : "("
            },
            {
              "kind" : "externalParam",
              "text" : "_"
            },
            {
              "kind" : "text",
              "text" : " "
            },
            {
              "kind" : "internalParam",
              "text" : "request"
            },
            {
              "kind" : "text",
              "text" : ": "
            },
            {
              "identifier" : "doc:\/\/FanapPodChatSDK\/documentation\/FanapPodChatSDK\/CurrentUserRolesRequest",
              "kind" : "typeIdentifier",
              "preciseIdentifier" : "s:15FanapPodChatSDK23CurrentUserRolesRequestC",
              "text" : "CurrentUserRolesRequest"
            },
            {
              "kind" : "text",
              "text" : ", "
            },
            {
              "kind" : "externalParam",
              "text" : "completion"
            },
            {
              "kind" : "text",
              "text" : ": "
            },
            {
              "kind" : "attribute",
              "text" : "@escaping"
            },
            {
              "kind" : "text",
              "text" : " "
            },
            {
              "identifier" : "doc:\/\/FanapPodChatSDK\/documentation\/FanapPodChatSDK\/CompletionType",
              "kind" : "typeIdentifier",
              "preciseIdentifier" : "s:15FanapPodChatSDK14CompletionTypea",
              "text" : "CompletionType"
            },
            {
              "kind" : "text",
              "text" : "<["
            },
            {
              "identifier" : "doc:\/\/FanapPodChatSDK\/documentation\/FanapPodChatSDK\/Roles",
              "kind" : "typeIdentifier",
              "preciseIdentifier" : "s:15FanapPodChatSDK5RolesO",
              "text" : "Roles"
            },
            {
              "kind" : "text",
              "text" : "]>, "
            },
            {
              "kind" : "externalParam",
              "text" : "cacheResponse"
            },
            {
              "kind" : "text",
              "text" : ": "
            },
            {
              "identifier" : "doc:\/\/FanapPodChatSDK\/documentation\/FanapPodChatSDK\/CacheResponseType",
              "kind" : "typeIdentifier",
              "preciseIdentifier" : "s:15FanapPodChatSDK17CacheResponseTypea",
              "text" : "CacheResponseType"
            },
            {
              "kind" : "text",
              "text" : "<["
            },
            {
              "identifier" : "doc:\/\/FanapPodChatSDK\/documentation\/FanapPodChatSDK\/Roles",
              "kind" : "typeIdentifier",
              "preciseIdentifier" : "s:15FanapPodChatSDK5RolesO",
              "text" : "Roles"
            },
            {
              "kind" : "text",
              "text" : "]>? = nil, "
            },
            {
              "kind" : "externalParam",
              "text" : "uniqueIdResult"
            },
            {
              "kind" : "text",
              "text" : ": "
            },
            {
              "identifier" : "doc:\/\/FanapPodChatSDK\/documentation\/FanapPodChatSDK\/UniqueIdResultType",
              "kind" : "typeIdentifier",
              "preciseIdentifier" : "s:15FanapPodChatSDK18UniqueIdResultTypea",
              "text" : "UniqueIdResultType"
            },
            {
              "kind" : "text",
              "text" : " = nil)"
            }
          ]
        }
      ],
      "kind" : "declarations"
    },
    {
      "kind" : "parameters",
      "parameters" : [
        {
          "content" : [
            {
              "inlineContent" : [
                {
                  "text" : "A request that contains a threadId.",
                  "type" : "text"
                }
              ],
              "type" : "paragraph"
            }
          ],
          "name" : "request"
        },
        {
          "content" : [
            {
              "inlineContent" : [
                {
                  "text" : "List of the roles of a user.",
                  "type" : "text"
                }
              ],
              "type" : "paragraph"
            }
          ],
          "name" : "completion"
        },
        {
          "content" : [
            {
              "inlineContent" : [
                {
                  "text" : "The cache response of roles.",
                  "type" : "text"
                }
              ],
              "type" : "paragraph"
            }
          ],
          "name" : "cacheResponse"
        },
        {
          "content" : [
            {
              "inlineContent" : [
                {
                  "text" : "The unique id of request. If you manage the unique id by yourself you should leave this closure blank, otherwise, you must use it if you need to know what response is for what request.",
                  "type" : "text"
                }
              ],
              "type" : "paragraph"
            }
          ],
          "name" : "uniqueIdResult"
        }
      ]
    }
  ],
  "schemaVersion" : {
    "major" : 0,
    "minor" : 3,
    "patch" : 0
  },
  "sections" : [

  ],
  "variants" : [
    {
      "paths" : [
        "\/documentation\/fanappodchatsdk\/chat\/getcurrentuserroles(_:completion:cacheresponse:uniqueidresult:)"
      ],
      "traits" : [
        {
          "interfaceLanguage" : "swift"
        }
      ]
    }
  ]
, 
"references": {
"doc://FanapPodChatSDK/documentation/FanapPodChatSDK": {
  "abstract" : [
    {
      "text" : "With Fanap Chat SDK you could connect to the chat server without managing the socket state and send or receive messages.",
      "type" : "text"
    }
  ],
  "identifier" : "doc:\/\/FanapPodChatSDK\/documentation\/FanapPodChatSDK",
  "kind" : "symbol",
  "role" : "collection",
  "title" : "FanapPodChatSDK",
  "type" : "topic",
  "url" : "\/documentation\/fanappodchatsdk"
},
"doc://FanapPodChatSDK/documentation/FanapPodChatSDK/CacheResponseType": {
  "abstract" : [

  ],
  "fragments" : [
    {
      "kind" : "keyword",
      "text" : "typealias"
    },
    {
      "kind" : "text",
      "text" : " "
    },
    {
      "kind" : "identifier",
      "text" : "CacheResponseType"
    }
  ],
  "identifier" : "doc:\/\/FanapPodChatSDK\/documentation\/FanapPodChatSDK\/CacheResponseType",
  "kind" : "symbol",
  "navigatorTitle" : [
    {
      "kind" : "identifier",
      "text" : "CacheResponseType"
    }
  ],
  "role" : "symbol",
  "title" : "CacheResponseType",
  "type" : "topic",
  "url" : "\/documentation\/fanappodchatsdk\/cacheresponsetype"
},
"doc://FanapPodChatSDK/documentation/FanapPodChatSDK/Chat": {
  "abstract" : [
    {
      "text" : "The chat server manages the async connection and the rest of the job for you, and you could send or receive messages or create a channel or group chat.",
      "type" : "text"
    }
  ],
  "fragments" : [
    {
      "kind" : "keyword",
      "text" : "class"
    },
    {
      "kind" : "text",
      "text" : " "
    },
    {
      "kind" : "identifier",
      "text" : "Chat"
    }
  ],
  "identifier" : "doc:\/\/FanapPodChatSDK\/documentation\/FanapPodChatSDK\/Chat",
  "kind" : "symbol",
  "navigatorTitle" : [
    {
      "kind" : "identifier",
      "text" : "Chat"
    }
  ],
  "role" : "symbol",
  "title" : "Chat",
  "type" : "topic",
  "url" : "\/documentation\/fanappodchatsdk\/chat"
},
"doc://FanapPodChatSDK/documentation/FanapPodChatSDK/Chat/getCurrentUserRoles(_:completion:cacheResponse:uniqueIdResult:)": {
  "abstract" : [
    {
      "text" : "Get the roles of the current user in a thread.",
      "type" : "text"
    }
  ],
  "fragments" : [
    {
      "kind" : "keyword",
      "text" : "func"
    },
    {
      "kind" : "text",
      "text" : " "
    },
    {
      "kind" : "identifier",
      "text" : "getCurrentUserRoles"
    },
    {
      "kind" : "text",
      "text" : "("
    },
    {
      "kind" : "typeIdentifier",
      "preciseIdentifier" : "s:15FanapPodChatSDK23CurrentUserRolesRequestC",
      "text" : "CurrentUserRolesRequest"
    },
    {
      "kind" : "text",
      "text" : ", "
    },
    {
      "kind" : "externalParam",
      "text" : "completion"
    },
    {
      "kind" : "text",
      "text" : ": "
    },
    {
      "kind" : "typeIdentifier",
      "preciseIdentifier" : "s:15FanapPodChatSDK14CompletionTypea",
      "text" : "CompletionType"
    },
    {
      "kind" : "text",
      "text" : "<["
    },
    {
      "kind" : "typeIdentifier",
      "preciseIdentifier" : "s:15FanapPodChatSDK5RolesO",
      "text" : "Roles"
    },
    {
      "kind" : "text",
      "text" : "]>, "
    },
    {
      "kind" : "externalParam",
      "text" : "cacheResponse"
    },
    {
      "kind" : "text",
      "text" : ": "
    },
    {
      "kind" : "typeIdentifier",
      "preciseIdentifier" : "s:15FanapPodChatSDK17CacheResponseTypea",
      "text" : "CacheResponseType"
    },
    {
      "kind" : "text",
      "text" : "<["
    },
    {
      "kind" : "typeIdentifier",
      "preciseIdentifier" : "s:15FanapPodChatSDK5RolesO",
      "text" : "Roles"
    },
    {
      "kind" : "text",
      "text" : "]>?, "
    },
    {
      "kind" : "externalParam",
      "text" : "uniqueIdResult"
    },
    {
      "kind" : "text",
      "text" : ": "
    },
    {
      "kind" : "typeIdentifier",
      "preciseIdentifier" : "s:15FanapPodChatSDK18UniqueIdResultTypea",
      "text" : "UniqueIdResultType"
    },
    {
      "kind" : "text",
      "text" : ")"
    }
  ],
  "identifier" : "doc:\/\/FanapPodChatSDK\/documentation\/FanapPodChatSDK\/Chat\/getCurrentUserRoles(_:completion:cacheResponse:uniqueIdResult:)",
  "kind" : "symbol",
  "role" : "symbol",
  "title" : "getCurrentUserRoles(_:completion:cacheResponse:uniqueIdResult:)",
  "type" : "topic",
  "url" : "\/documentation\/fanappodchatsdk\/chat\/getcurrentuserroles(_:completion:cacheresponse:uniqueidresult:)"
},
"doc://FanapPodChatSDK/documentation/FanapPodChatSDK/CompletionType": {
  "abstract" : [

  ],
  "fragments" : [
    {
      "kind" : "keyword",
      "text" : "typealias"
    },
    {
      "kind" : "text",
      "text" : " "
    },
    {
      "kind" : "identifier",
      "text" : "CompletionType"
    }
  ],
  "identifier" : "doc:\/\/FanapPodChatSDK\/documentation\/FanapPodChatSDK\/CompletionType",
  "kind" : "symbol",
  "navigatorTitle" : [
    {
      "kind" : "identifier",
      "text" : "CompletionType"
    }
  ],
  "role" : "symbol",
  "title" : "CompletionType",
  "type" : "topic",
  "url" : "\/documentation\/fanappodchatsdk\/completiontype"
},
"doc://FanapPodChatSDK/documentation/FanapPodChatSDK/CurrentUserRolesRequest": {
  "abstract" : [

  ],
  "fragments" : [
    {
      "kind" : "keyword",
      "text" : "class"
    },
    {
      "kind" : "text",
      "text" : " "
    },
    {
      "kind" : "identifier",
      "text" : "CurrentUserRolesRequest"
    }
  ],
  "identifier" : "doc:\/\/FanapPodChatSDK\/documentation\/FanapPodChatSDK\/CurrentUserRolesRequest",
  "kind" : "symbol",
  "navigatorTitle" : [
    {
      "kind" : "identifier",
      "text" : "CurrentUserRolesRequest"
    }
  ],
  "role" : "symbol",
  "title" : "CurrentUserRolesRequest",
  "type" : "topic",
  "url" : "\/documentation\/fanappodchatsdk\/currentuserrolesrequest"
},
"doc://FanapPodChatSDK/documentation/FanapPodChatSDK/Roles": {
  "abstract" : [

  ],
  "fragments" : [
    {
      "kind" : "keyword",
      "text" : "enum"
    },
    {
      "kind" : "text",
      "text" : " "
    },
    {
      "kind" : "identifier",
      "text" : "Roles"
    }
  ],
  "identifier" : "doc:\/\/FanapPodChatSDK\/documentation\/FanapPodChatSDK\/Roles",
  "kind" : "symbol",
  "navigatorTitle" : [
    {
      "kind" : "identifier",
      "text" : "Roles"
    }
  ],
  "role" : "symbol",
  "title" : "Roles",
  "type" : "topic",
  "url" : "\/documentation\/fanappodchatsdk\/roles"
},
"doc://FanapPodChatSDK/documentation/FanapPodChatSDK/UniqueIdResultType": {
  "abstract" : [

  ],
  "fragments" : [
    {
      "kind" : "keyword",
      "text" : "typealias"
    },
    {
      "kind" : "text",
      "text" : " "
    },
    {
      "kind" : "identifier",
      "text" : "UniqueIdResultType"
    }
  ],
  "identifier" : "doc:\/\/FanapPodChatSDK\/documentation\/FanapPodChatSDK\/UniqueIdResultType",
  "kind" : "symbol",
  "navigatorTitle" : [
    {
      "kind" : "identifier",
      "text" : "UniqueIdResultType"
    }
  ],
  "role" : "symbol",
  "title" : "UniqueIdResultType",
  "type" : "topic",
  "url" : "\/documentation\/fanappodchatsdk\/uniqueidresulttype"
}
}
}