{
  "abstract" : [
    {
      "text" : "Get thread participants.",
      "type" : "text"
    }
  ],
  "hierarchy" : {
    "paths" : [
      [
        "doc:\/\/FanapPodChatSDK\/documentation\/FanapPodChatSDK",
        "doc:\/\/FanapPodChatSDK\/documentation\/FanapPodChatSDK\/Chat"
      ]
    ]
  },
  "identifier" : {
    "interfaceLanguage" : "swift",
    "url" : "doc:\/\/FanapPodChatSDK\/documentation\/FanapPodChatSDK\/Chat\/getThreadParticipants(_:completion:cacheResponse:uniqueIdResult:)"
  },
  "kind" : "symbol",
  "metadata" : {
    "externalID" : "s:15FanapPodChatSDK0C0C21getThreadParticipants_10completion13cacheResponse14uniqueIdResultyAA0fG7RequestC_ySayAA11ParticipantCGSg_SSSgAA10PaginationCSgAA0C5ErrorVSgtcyAM_AnqTtcSgySScSgtF",
    "fragments" : [
      {
        "kind" : "keyword",
        "text" : "func"
      },
      {
        "kind" : "text",
        "text" : " "
      },
      {
        "kind" : "identifier",
        "text" : "getThreadParticipants"
      },
      {
        "kind" : "text",
        "text" : "("
      },
      {
        "kind" : "typeIdentifier",
        "preciseIdentifier" : "s:15FanapPodChatSDK25ThreadParticipantsRequestC",
        "text" : "ThreadParticipantsRequest"
      },
      {
        "kind" : "text",
        "text" : ", "
      },
      {
        "kind" : "externalParam",
        "text" : "completion"
      },
      {
        "kind" : "text",
        "text" : ": "
      },
      {
        "kind" : "typeIdentifier",
        "preciseIdentifier" : "s:15FanapPodChatSDK24PaginationCompletionTypea",
        "text" : "PaginationCompletionType"
      },
      {
        "kind" : "text",
        "text" : "<["
      },
      {
        "kind" : "typeIdentifier",
        "preciseIdentifier" : "s:15FanapPodChatSDK11ParticipantC",
        "text" : "Participant"
      },
      {
        "kind" : "text",
        "text" : "]>, "
      },
      {
        "kind" : "externalParam",
        "text" : "cacheResponse"
      },
      {
        "kind" : "text",
        "text" : ": "
      },
      {
        "kind" : "typeIdentifier",
        "preciseIdentifier" : "s:15FanapPodChatSDK27PaginationCacheResponseTypea",
        "text" : "PaginationCacheResponseType"
      },
      {
        "kind" : "text",
        "text" : "<["
      },
      {
        "kind" : "typeIdentifier",
        "preciseIdentifier" : "s:15FanapPodChatSDK11ParticipantC",
        "text" : "Participant"
      },
      {
        "kind" : "text",
        "text" : "]>?, "
      },
      {
        "kind" : "externalParam",
        "text" : "uniqueIdResult"
      },
      {
        "kind" : "text",
        "text" : ": "
      },
      {
        "kind" : "typeIdentifier",
        "preciseIdentifier" : "s:15FanapPodChatSDK18UniqueIdResultTypea",
        "text" : "UniqueIdResultType"
      },
      {
        "kind" : "text",
        "text" : ")"
      }
    ],
    "modules" : [
      {
        "name" : "FanapPodChatSDK"
      }
    ],
    "role" : "symbol",
    "roleHeading" : "Instance Method",
    "symbolKind" : "method",
    "title" : "getThreadParticipants(_:completion:cacheResponse:uniqueIdResult:)"
  },
  "primaryContentSections" : [
    {
      "declarations" : [
        {
          "languages" : [
            "swift"
          ],
          "platforms" : [
            "macOS"
          ],
          "tokens" : [
            {
              "kind" : "keyword",
              "text" : "func"
            },
            {
              "kind" : "text",
              "text" : " "
            },
            {
              "kind" : "identifier",
              "text" : "getThreadParticipants"
            },
            {
              "kind" : "text",
              "text" : "("
            },
            {
              "kind" : "externalParam",
              "text" : "_"
            },
            {
              "kind" : "text",
              "text" : " "
            },
            {
              "kind" : "internalParam",
              "text" : "request"
            },
            {
              "kind" : "text",
              "text" : ": "
            },
            {
              "identifier" : "doc:\/\/FanapPodChatSDK\/documentation\/FanapPodChatSDK\/ThreadParticipantsRequest",
              "kind" : "typeIdentifier",
              "preciseIdentifier" : "s:15FanapPodChatSDK25ThreadParticipantsRequestC",
              "text" : "ThreadParticipantsRequest"
            },
            {
              "kind" : "text",
              "text" : ", "
            },
            {
              "kind" : "externalParam",
              "text" : "completion"
            },
            {
              "kind" : "text",
              "text" : ": "
            },
            {
              "kind" : "attribute",
              "text" : "@escaping"
            },
            {
              "kind" : "text",
              "text" : " "
            },
            {
              "identifier" : "doc:\/\/FanapPodChatSDK\/documentation\/FanapPodChatSDK\/PaginationCompletionType",
              "kind" : "typeIdentifier",
              "preciseIdentifier" : "s:15FanapPodChatSDK24PaginationCompletionTypea",
              "text" : "PaginationCompletionType"
            },
            {
              "kind" : "text",
              "text" : "<["
            },
            {
              "identifier" : "doc:\/\/FanapPodChatSDK\/documentation\/FanapPodChatSDK\/Participant",
              "kind" : "typeIdentifier",
              "preciseIdentifier" : "s:15FanapPodChatSDK11ParticipantC",
              "text" : "Participant"
            },
            {
              "kind" : "text",
              "text" : "]>, "
            },
            {
              "kind" : "externalParam",
              "text" : "cacheResponse"
            },
            {
              "kind" : "text",
              "text" : ": "
            },
            {
              "identifier" : "doc:\/\/FanapPodChatSDK\/documentation\/FanapPodChatSDK\/PaginationCacheResponseType",
              "kind" : "typeIdentifier",
              "preciseIdentifier" : "s:15FanapPodChatSDK27PaginationCacheResponseTypea",
              "text" : "PaginationCacheResponseType"
            },
            {
              "kind" : "text",
              "text" : "<["
            },
            {
              "identifier" : "doc:\/\/FanapPodChatSDK\/documentation\/FanapPodChatSDK\/Participant",
              "kind" : "typeIdentifier",
              "preciseIdentifier" : "s:15FanapPodChatSDK11ParticipantC",
              "text" : "Participant"
            },
            {
              "kind" : "text",
              "text" : "]>? = nil, "
            },
            {
              "kind" : "externalParam",
              "text" : "uniqueIdResult"
            },
            {
              "kind" : "text",
              "text" : ": "
            },
            {
              "identifier" : "doc:\/\/FanapPodChatSDK\/documentation\/FanapPodChatSDK\/UniqueIdResultType",
              "kind" : "typeIdentifier",
              "preciseIdentifier" : "s:15FanapPodChatSDK18UniqueIdResultTypea",
              "text" : "UniqueIdResultType"
            },
            {
              "kind" : "text",
              "text" : " = nil)"
            }
          ]
        }
      ],
      "kind" : "declarations"
    },
    {
      "kind" : "parameters",
      "parameters" : [
        {
          "content" : [
            {
              "inlineContent" : [
                {
                  "text" : "The request that contain threadId and count and offset.",
                  "type" : "text"
                }
              ],
              "type" : "paragraph"
            }
          ],
          "name" : "request"
        },
        {
          "content" : [
            {
              "inlineContent" : [
                {
                  "text" : "Pagination list of participants.",
                  "type" : "text"
                }
              ],
              "type" : "paragraph"
            }
          ],
          "name" : "completion"
        },
        {
          "content" : [
            {
              "inlineContent" : [
                {
                  "text" : "Cache response of participants inside a thread.",
                  "type" : "text"
                }
              ],
              "type" : "paragraph"
            }
          ],
          "name" : "cacheResponse"
        },
        {
          "content" : [
            {
              "inlineContent" : [
                {
                  "text" : "The unique id of request. If you manage the unique id by yourself you should leave this closure blank, otherwise, you must use it if you need to know what response is for what request.",
                  "type" : "text"
                }
              ],
              "type" : "paragraph"
            }
          ],
          "name" : "uniqueIdResult"
        }
      ]
    }
  ],
  "schemaVersion" : {
    "major" : 0,
    "minor" : 3,
    "patch" : 0
  },
  "sections" : [

  ],
  "variants" : [
    {
      "paths" : [
        "\/documentation\/fanappodchatsdk\/chat\/getthreadparticipants(_:completion:cacheresponse:uniqueidresult:)"
      ],
      "traits" : [
        {
          "interfaceLanguage" : "swift"
        }
      ]
    }
  ]
, 
"references": {
"doc://FanapPodChatSDK/documentation/FanapPodChatSDK": {
  "abstract" : [
    {
      "text" : "With Fanap Chat SDK you could connect to the chat server without managing the socket state and send or receive messages.",
      "type" : "text"
    }
  ],
  "identifier" : "doc:\/\/FanapPodChatSDK\/documentation\/FanapPodChatSDK",
  "kind" : "symbol",
  "role" : "collection",
  "title" : "FanapPodChatSDK",
  "type" : "topic",
  "url" : "\/documentation\/fanappodchatsdk"
},
"doc://FanapPodChatSDK/documentation/FanapPodChatSDK/Chat": {
  "abstract" : [
    {
      "text" : "The chat server manages the async connection and the rest of the job for you, and you could send or receive messages or create a channel or group chat.",
      "type" : "text"
    }
  ],
  "fragments" : [
    {
      "kind" : "keyword",
      "text" : "class"
    },
    {
      "kind" : "text",
      "text" : " "
    },
    {
      "kind" : "identifier",
      "text" : "Chat"
    }
  ],
  "identifier" : "doc:\/\/FanapPodChatSDK\/documentation\/FanapPodChatSDK\/Chat",
  "kind" : "symbol",
  "navigatorTitle" : [
    {
      "kind" : "identifier",
      "text" : "Chat"
    }
  ],
  "role" : "symbol",
  "title" : "Chat",
  "type" : "topic",
  "url" : "\/documentation\/fanappodchatsdk\/chat"
},
"doc://FanapPodChatSDK/documentation/FanapPodChatSDK/Chat/getThreadParticipants(_:completion:cacheResponse:uniqueIdResult:)": {
  "abstract" : [
    {
      "text" : "Get thread participants.",
      "type" : "text"
    }
  ],
  "fragments" : [
    {
      "kind" : "keyword",
      "text" : "func"
    },
    {
      "kind" : "text",
      "text" : " "
    },
    {
      "kind" : "identifier",
      "text" : "getThreadParticipants"
    },
    {
      "kind" : "text",
      "text" : "("
    },
    {
      "kind" : "typeIdentifier",
      "preciseIdentifier" : "s:15FanapPodChatSDK25ThreadParticipantsRequestC",
      "text" : "ThreadParticipantsRequest"
    },
    {
      "kind" : "text",
      "text" : ", "
    },
    {
      "kind" : "externalParam",
      "text" : "completion"
    },
    {
      "kind" : "text",
      "text" : ": "
    },
    {
      "kind" : "typeIdentifier",
      "preciseIdentifier" : "s:15FanapPodChatSDK24PaginationCompletionTypea",
      "text" : "PaginationCompletionType"
    },
    {
      "kind" : "text",
      "text" : "<["
    },
    {
      "kind" : "typeIdentifier",
      "preciseIdentifier" : "s:15FanapPodChatSDK11ParticipantC",
      "text" : "Participant"
    },
    {
      "kind" : "text",
      "text" : "]>, "
    },
    {
      "kind" : "externalParam",
      "text" : "cacheResponse"
    },
    {
      "kind" : "text",
      "text" : ": "
    },
    {
      "kind" : "typeIdentifier",
      "preciseIdentifier" : "s:15FanapPodChatSDK27PaginationCacheResponseTypea",
      "text" : "PaginationCacheResponseType"
    },
    {
      "kind" : "text",
      "text" : "<["
    },
    {
      "kind" : "typeIdentifier",
      "preciseIdentifier" : "s:15FanapPodChatSDK11ParticipantC",
      "text" : "Participant"
    },
    {
      "kind" : "text",
      "text" : "]>?, "
    },
    {
      "kind" : "externalParam",
      "text" : "uniqueIdResult"
    },
    {
      "kind" : "text",
      "text" : ": "
    },
    {
      "kind" : "typeIdentifier",
      "preciseIdentifier" : "s:15FanapPodChatSDK18UniqueIdResultTypea",
      "text" : "UniqueIdResultType"
    },
    {
      "kind" : "text",
      "text" : ")"
    }
  ],
  "identifier" : "doc:\/\/FanapPodChatSDK\/documentation\/FanapPodChatSDK\/Chat\/getThreadParticipants(_:completion:cacheResponse:uniqueIdResult:)",
  "kind" : "symbol",
  "role" : "symbol",
  "title" : "getThreadParticipants(_:completion:cacheResponse:uniqueIdResult:)",
  "type" : "topic",
  "url" : "\/documentation\/fanappodchatsdk\/chat\/getthreadparticipants(_:completion:cacheresponse:uniqueidresult:)"
},
"doc://FanapPodChatSDK/documentation/FanapPodChatSDK/PaginationCacheResponseType": {
  "abstract" : [

  ],
  "fragments" : [
    {
      "kind" : "keyword",
      "text" : "typealias"
    },
    {
      "kind" : "text",
      "text" : " "
    },
    {
      "kind" : "identifier",
      "text" : "PaginationCacheResponseType"
    }
  ],
  "identifier" : "doc:\/\/FanapPodChatSDK\/documentation\/FanapPodChatSDK\/PaginationCacheResponseType",
  "kind" : "symbol",
  "navigatorTitle" : [
    {
      "kind" : "identifier",
      "text" : "PaginationCacheResponseType"
    }
  ],
  "role" : "symbol",
  "title" : "PaginationCacheResponseType",
  "type" : "topic",
  "url" : "\/documentation\/fanappodchatsdk\/paginationcacheresponsetype"
},
"doc://FanapPodChatSDK/documentation/FanapPodChatSDK/PaginationCompletionType": {
  "abstract" : [

  ],
  "fragments" : [
    {
      "kind" : "keyword",
      "text" : "typealias"
    },
    {
      "kind" : "text",
      "text" : " "
    },
    {
      "kind" : "identifier",
      "text" : "PaginationCompletionType"
    }
  ],
  "identifier" : "doc:\/\/FanapPodChatSDK\/documentation\/FanapPodChatSDK\/PaginationCompletionType",
  "kind" : "symbol",
  "navigatorTitle" : [
    {
      "kind" : "identifier",
      "text" : "PaginationCompletionType"
    }
  ],
  "role" : "symbol",
  "title" : "PaginationCompletionType",
  "type" : "topic",
  "url" : "\/documentation\/fanappodchatsdk\/paginationcompletiontype"
},
"doc://FanapPodChatSDK/documentation/FanapPodChatSDK/Participant": {
  "abstract" : [

  ],
  "fragments" : [
    {
      "kind" : "keyword",
      "text" : "class"
    },
    {
      "kind" : "text",
      "text" : " "
    },
    {
      "kind" : "identifier",
      "text" : "Participant"
    }
  ],
  "identifier" : "doc:\/\/FanapPodChatSDK\/documentation\/FanapPodChatSDK\/Participant",
  "kind" : "symbol",
  "navigatorTitle" : [
    {
      "kind" : "identifier",
      "text" : "Participant"
    }
  ],
  "role" : "symbol",
  "title" : "Participant",
  "type" : "topic",
  "url" : "\/documentation\/fanappodchatsdk\/participant"
},
"doc://FanapPodChatSDK/documentation/FanapPodChatSDK/ThreadParticipantsRequest": {
  "abstract" : [

  ],
  "fragments" : [
    {
      "kind" : "keyword",
      "text" : "class"
    },
    {
      "kind" : "text",
      "text" : " "
    },
    {
      "kind" : "identifier",
      "text" : "ThreadParticipantsRequest"
    }
  ],
  "identifier" : "doc:\/\/FanapPodChatSDK\/documentation\/FanapPodChatSDK\/ThreadParticipantsRequest",
  "kind" : "symbol",
  "navigatorTitle" : [
    {
      "kind" : "identifier",
      "text" : "ThreadParticipantsRequest"
    }
  ],
  "role" : "symbol",
  "title" : "ThreadParticipantsRequest",
  "type" : "topic",
  "url" : "\/documentation\/fanappodchatsdk\/threadparticipantsrequest"
},
"doc://FanapPodChatSDK/documentation/FanapPodChatSDK/UniqueIdResultType": {
  "abstract" : [

  ],
  "fragments" : [
    {
      "kind" : "keyword",
      "text" : "typealias"
    },
    {
      "kind" : "text",
      "text" : " "
    },
    {
      "kind" : "identifier",
      "text" : "UniqueIdResultType"
    }
  ],
  "identifier" : "doc:\/\/FanapPodChatSDK\/documentation\/FanapPodChatSDK\/UniqueIdResultType",
  "kind" : "symbol",
  "navigatorTitle" : [
    {
      "kind" : "identifier",
      "text" : "UniqueIdResultType"
    }
  ],
  "role" : "symbol",
  "title" : "UniqueIdResultType",
  "type" : "topic",
  "url" : "\/documentation\/fanappodchatsdk\/uniqueidresulttype"
}
}
}