{
  "abstract" : [
    {
      "text" : "Send seen to participants of a thread that informs you have seen the message already.",
      "type" : "text"
    }
  ],
  "hierarchy" : {
    "paths" : [
      [
        "doc:\/\/FanapPodChatSDK\/documentation\/FanapPodChatSDK",
        "doc:\/\/FanapPodChatSDK\/documentation\/FanapPodChatSDK\/Chat"
      ]
    ]
  },
  "identifier" : {
    "interfaceLanguage" : "swift",
    "url" : "doc:\/\/FanapPodChatSDK\/documentation\/FanapPodChatSDK\/Chat\/seen(_:uniqueIdResult:)"
  },
  "kind" : "symbol",
  "metadata" : {
    "externalID" : "s:15FanapPodChatSDK0C0C4seen_14uniqueIdResultyAA18MessageSeenRequestC_ySScSgtF",
    "fragments" : [
      {
        "kind" : "keyword",
        "text" : "func"
      },
      {
        "kind" : "text",
        "text" : " "
      },
      {
        "kind" : "identifier",
        "text" : "seen"
      },
      {
        "kind" : "text",
        "text" : "("
      },
      {
        "kind" : "typeIdentifier",
        "preciseIdentifier" : "s:15FanapPodChatSDK18MessageSeenRequestC",
        "text" : "MessageSeenRequest"
      },
      {
        "kind" : "text",
        "text" : ", "
      },
      {
        "kind" : "externalParam",
        "text" : "uniqueIdResult"
      },
      {
        "kind" : "text",
        "text" : ": "
      },
      {
        "kind" : "typeIdentifier",
        "preciseIdentifier" : "s:15FanapPodChatSDK18UniqueIdResultTypea",
        "text" : "UniqueIdResultType"
      },
      {
        "kind" : "text",
        "text" : ")"
      }
    ],
    "modules" : [
      {
        "name" : "FanapPodChatSDK"
      }
    ],
    "role" : "symbol",
    "roleHeading" : "Instance Method",
    "symbolKind" : "method",
    "title" : "seen(_:uniqueIdResult:)"
  },
  "primaryContentSections" : [
    {
      "declarations" : [
        {
          "languages" : [
            "swift"
          ],
          "platforms" : [
            "macOS"
          ],
          "tokens" : [
            {
              "kind" : "keyword",
              "text" : "func"
            },
            {
              "kind" : "text",
              "text" : " "
            },
            {
              "kind" : "identifier",
              "text" : "seen"
            },
            {
              "kind" : "text",
              "text" : "("
            },
            {
              "kind" : "externalParam",
              "text" : "_"
            },
            {
              "kind" : "text",
              "text" : " "
            },
            {
              "kind" : "internalParam",
              "text" : "request"
            },
            {
              "kind" : "text",
              "text" : ": "
            },
            {
              "identifier" : "doc:\/\/FanapPodChatSDK\/documentation\/FanapPodChatSDK\/MessageSeenRequest",
              "kind" : "typeIdentifier",
              "preciseIdentifier" : "s:15FanapPodChatSDK18MessageSeenRequestC",
              "text" : "MessageSeenRequest"
            },
            {
              "kind" : "text",
              "text" : ", "
            },
            {
              "kind" : "externalParam",
              "text" : "uniqueIdResult"
            },
            {
              "kind" : "text",
              "text" : ": "
            },
            {
              "identifier" : "doc:\/\/FanapPodChatSDK\/documentation\/FanapPodChatSDK\/UniqueIdResultType",
              "kind" : "typeIdentifier",
              "preciseIdentifier" : "s:15FanapPodChatSDK18UniqueIdResultTypea",
              "text" : "UniqueIdResultType"
            },
            {
              "kind" : "text",
              "text" : " = nil)"
            }
          ]
        }
      ],
      "kind" : "declarations"
    },
    {
      "kind" : "parameters",
      "parameters" : [
        {
          "content" : [
            {
              "inlineContent" : [
                {
                  "text" : "The id of the message.",
                  "type" : "text"
                }
              ],
              "type" : "paragraph"
            }
          ],
          "name" : "request"
        },
        {
          "content" : [
            {
              "inlineContent" : [
                {
                  "text" : "The unique id of request. If you manage the unique id by yourself you should leave this closure blank, otherwise, you must use it if you need to know what response is for what request.",
                  "type" : "text"
                }
              ],
              "type" : "paragraph"
            }
          ],
          "name" : "uniqueIdResult"
        }
      ]
    }
  ],
  "schemaVersion" : {
    "major" : 0,
    "minor" : 3,
    "patch" : 0
  },
  "sections" : [

  ],
  "variants" : [
    {
      "paths" : [
        "\/documentation\/fanappodchatsdk\/chat\/seen(_:uniqueidresult:)"
      ],
      "traits" : [
        {
          "interfaceLanguage" : "swift"
        }
      ]
    }
  ]
, 
"references": {
"doc://FanapPodChatSDK/documentation/FanapPodChatSDK": {
  "abstract" : [
    {
      "text" : "With Fanap Chat SDK you could connect to the chat server without managing the socket state and send or receive messages.",
      "type" : "text"
    }
  ],
  "identifier" : "doc:\/\/FanapPodChatSDK\/documentation\/FanapPodChatSDK",
  "kind" : "symbol",
  "role" : "collection",
  "title" : "FanapPodChatSDK",
  "type" : "topic",
  "url" : "\/documentation\/fanappodchatsdk"
},
"doc://FanapPodChatSDK/documentation/FanapPodChatSDK/Chat": {
  "abstract" : [
    {
      "text" : "The chat server manages the async connection and the rest of the job for you, and you could send or receive messages or create a channel or group chat.",
      "type" : "text"
    }
  ],
  "fragments" : [
    {
      "kind" : "keyword",
      "text" : "class"
    },
    {
      "kind" : "text",
      "text" : " "
    },
    {
      "kind" : "identifier",
      "text" : "Chat"
    }
  ],
  "identifier" : "doc:\/\/FanapPodChatSDK\/documentation\/FanapPodChatSDK\/Chat",
  "kind" : "symbol",
  "navigatorTitle" : [
    {
      "kind" : "identifier",
      "text" : "Chat"
    }
  ],
  "role" : "symbol",
  "title" : "Chat",
  "type" : "topic",
  "url" : "\/documentation\/fanappodchatsdk\/chat"
},
"doc://FanapPodChatSDK/documentation/FanapPodChatSDK/Chat/seen(_:uniqueIdResult:)": {
  "abstract" : [
    {
      "text" : "Send seen to participants of a thread that informs you have seen the message already.",
      "type" : "text"
    }
  ],
  "fragments" : [
    {
      "kind" : "keyword",
      "text" : "func"
    },
    {
      "kind" : "text",
      "text" : " "
    },
    {
      "kind" : "identifier",
      "text" : "seen"
    },
    {
      "kind" : "text",
      "text" : "("
    },
    {
      "kind" : "typeIdentifier",
      "preciseIdentifier" : "s:15FanapPodChatSDK18MessageSeenRequestC",
      "text" : "MessageSeenRequest"
    },
    {
      "kind" : "text",
      "text" : ", "
    },
    {
      "kind" : "externalParam",
      "text" : "uniqueIdResult"
    },
    {
      "kind" : "text",
      "text" : ": "
    },
    {
      "kind" : "typeIdentifier",
      "preciseIdentifier" : "s:15FanapPodChatSDK18UniqueIdResultTypea",
      "text" : "UniqueIdResultType"
    },
    {
      "kind" : "text",
      "text" : ")"
    }
  ],
  "identifier" : "doc:\/\/FanapPodChatSDK\/documentation\/FanapPodChatSDK\/Chat\/seen(_:uniqueIdResult:)",
  "kind" : "symbol",
  "role" : "symbol",
  "title" : "seen(_:uniqueIdResult:)",
  "type" : "topic",
  "url" : "\/documentation\/fanappodchatsdk\/chat\/seen(_:uniqueidresult:)"
},
"doc://FanapPodChatSDK/documentation/FanapPodChatSDK/MessageSeenRequest": {
  "abstract" : [

  ],
  "fragments" : [
    {
      "kind" : "keyword",
      "text" : "class"
    },
    {
      "kind" : "text",
      "text" : " "
    },
    {
      "kind" : "identifier",
      "text" : "MessageSeenRequest"
    }
  ],
  "identifier" : "doc:\/\/FanapPodChatSDK\/documentation\/FanapPodChatSDK\/MessageSeenRequest",
  "kind" : "symbol",
  "navigatorTitle" : [
    {
      "kind" : "identifier",
      "text" : "MessageSeenRequest"
    }
  ],
  "role" : "symbol",
  "title" : "MessageSeenRequest",
  "type" : "topic",
  "url" : "\/documentation\/fanappodchatsdk\/messageseenrequest"
},
"doc://FanapPodChatSDK/documentation/FanapPodChatSDK/UniqueIdResultType": {
  "abstract" : [

  ],
  "fragments" : [
    {
      "kind" : "keyword",
      "text" : "typealias"
    },
    {
      "kind" : "text",
      "text" : " "
    },
    {
      "kind" : "identifier",
      "text" : "UniqueIdResultType"
    }
  ],
  "identifier" : "doc:\/\/FanapPodChatSDK\/documentation\/FanapPodChatSDK\/UniqueIdResultType",
  "kind" : "symbol",
  "navigatorTitle" : [
    {
      "kind" : "identifier",
      "text" : "UniqueIdResultType"
    }
  ],
  "role" : "symbol",
  "title" : "UniqueIdResultType",
  "type" : "topic",
  "url" : "\/documentation\/fanappodchatsdk\/uniqueidresulttype"
}
}
}