{
  "abstract" : [
    {
      "text" : "Singleton instance of chat SDK.",
      "type" : "text"
    }
  ],
  "hierarchy" : {
    "paths" : [
      [
        "doc:\/\/FanapPodChatSDK\/documentation\/FanapPodChatSDK",
        "doc:\/\/FanapPodChatSDK\/documentation\/FanapPodChatSDK\/Chat"
      ]
    ]
  },
  "identifier" : {
    "interfaceLanguage" : "swift",
    "url" : "doc:\/\/FanapPodChatSDK\/documentation\/FanapPodChatSDK\/Chat\/sharedInstance"
  },
  "kind" : "symbol",
  "metadata" : {
    "externalID" : "s:15FanapPodChatSDK0C0C14sharedInstanceACvpZ",
    "fragments" : [
      {
        "kind" : "keyword",
        "text" : "class"
      },
      {
        "kind" : "text",
        "text" : " "
      },
      {
        "kind" : "keyword",
        "text" : "var"
      },
      {
        "kind" : "text",
        "text" : " "
      },
      {
        "kind" : "identifier",
        "text" : "sharedInstance"
      },
      {
        "kind" : "text",
        "text" : ": "
      },
      {
        "kind" : "typeIdentifier",
        "preciseIdentifier" : "s:15FanapPodChatSDK0C0C",
        "text" : "Chat"
      }
    ],
    "modules" : [
      {
        "name" : "FanapPodChatSDK"
      }
    ],
    "role" : "symbol",
    "roleHeading" : "Type Property",
    "symbolKind" : "property",
    "title" : "sharedInstance"
  },
  "primaryContentSections" : [
    {
      "declarations" : [
        {
          "languages" : [
            "swift"
          ],
          "platforms" : [
            "macOS"
          ],
          "tokens" : [
            {
              "kind" : "keyword",
              "text" : "class"
            },
            {
              "kind" : "text",
              "text" : " "
            },
            {
              "kind" : "keyword",
              "text" : "var"
            },
            {
              "kind" : "text",
              "text" : " "
            },
            {
              "kind" : "identifier",
              "text" : "sharedInstance"
            },
            {
              "kind" : "text",
              "text" : ": "
            },
            {
              "identifier" : "doc:\/\/FanapPodChatSDK\/documentation\/FanapPodChatSDK\/Chat",
              "kind" : "typeIdentifier",
              "preciseIdentifier" : "s:15FanapPodChatSDK0C0C",
              "text" : "Chat"
            },
            {
              "kind" : "text",
              "text" : " { "
            },
            {
              "kind" : "keyword",
              "text" : "get"
            },
            {
              "kind" : "text",
              "text" : " }"
            }
          ]
        }
      ],
      "kind" : "declarations"
    }
  ],
  "schemaVersion" : {
    "major" : 0,
    "minor" : 3,
    "patch" : 0
  },
  "sections" : [

  ],
  "variants" : [
    {
      "paths" : [
        "\/documentation\/fanappodchatsdk\/chat\/sharedinstance"
      ],
      "traits" : [
        {
          "interfaceLanguage" : "swift"
        }
      ]
    }
  ]
, 
"references": {
"doc://FanapPodChatSDK/documentation/FanapPodChatSDK": {
  "abstract" : [
    {
      "text" : "With Fanap Chat SDK you could connect to the chat server without managing the socket state and send or receive messages.",
      "type" : "text"
    }
  ],
  "identifier" : "doc:\/\/FanapPodChatSDK\/documentation\/FanapPodChatSDK",
  "kind" : "symbol",
  "role" : "collection",
  "title" : "FanapPodChatSDK",
  "type" : "topic",
  "url" : "\/documentation\/fanappodchatsdk"
},
"doc://FanapPodChatSDK/documentation/FanapPodChatSDK/Chat": {
  "abstract" : [
    {
      "text" : "The chat server manages the async connection and the rest of the job for you, and you could send or receive messages or create a channel or group chat.",
      "type" : "text"
    }
  ],
  "fragments" : [
    {
      "kind" : "keyword",
      "text" : "class"
    },
    {
      "kind" : "text",
      "text" : " "
    },
    {
      "kind" : "identifier",
      "text" : "Chat"
    }
  ],
  "identifier" : "doc:\/\/FanapPodChatSDK\/documentation\/FanapPodChatSDK\/Chat",
  "kind" : "symbol",
  "navigatorTitle" : [
    {
      "kind" : "identifier",
      "text" : "Chat"
    }
  ],
  "role" : "symbol",
  "title" : "Chat",
  "type" : "topic",
  "url" : "\/documentation\/fanappodchatsdk\/chat"
},
"doc://FanapPodChatSDK/documentation/FanapPodChatSDK/Chat/sharedInstance": {
  "abstract" : [
    {
      "text" : "Singleton instance of chat SDK.",
      "type" : "text"
    }
  ],
  "fragments" : [
    {
      "kind" : "keyword",
      "text" : "class"
    },
    {
      "kind" : "text",
      "text" : " "
    },
    {
      "kind" : "keyword",
      "text" : "var"
    },
    {
      "kind" : "text",
      "text" : " "
    },
    {
      "kind" : "identifier",
      "text" : "sharedInstance"
    },
    {
      "kind" : "text",
      "text" : ": "
    },
    {
      "kind" : "typeIdentifier",
      "preciseIdentifier" : "s:15FanapPodChatSDK0C0C",
      "text" : "Chat"
    }
  ],
  "identifier" : "doc:\/\/FanapPodChatSDK\/documentation\/FanapPodChatSDK\/Chat\/sharedInstance",
  "kind" : "symbol",
  "role" : "symbol",
  "title" : "sharedInstance",
  "type" : "topic",
  "url" : "\/documentation\/fanappodchatsdk\/chat\/sharedinstance"
}
}
}