{
  "abstract" : [
    {
      "text" : "Upload an image.",
      "type" : "text"
    }
  ],
  "hierarchy" : {
    "paths" : [
      [
        "doc:\/\/FanapPodChatSDK\/documentation\/FanapPodChatSDK",
        "doc:\/\/FanapPodChatSDK\/documentation\/FanapPodChatSDK\/Chat"
      ]
    ]
  },
  "identifier" : {
    "interfaceLanguage" : "swift",
    "url" : "doc:\/\/FanapPodChatSDK\/documentation\/FanapPodChatSDK\/Chat\/uploadImage(req:uploadUniqueIdResult:uploadProgress:uploadCompletion:)"
  },
  "kind" : "symbol",
  "metadata" : {
    "externalID" : "s:15FanapPodChatSDK0C0C11uploadImage3req0E14UniqueIdResult0E8Progress0E10CompletionyAA06UploadF7RequestC_ySScSgyAA0m4FileK0VSg_AA0C5ErrorVSgtcSgyAA0mO8ResponseCSg_AA0O8MetaDataCSgAQtcSgtF",
    "fragments" : [
      {
        "kind" : "keyword",
        "text" : "func"
      },
      {
        "kind" : "text",
        "text" : " "
      },
      {
        "kind" : "identifier",
        "text" : "uploadImage"
      },
      {
        "kind" : "text",
        "text" : "("
      },
      {
        "kind" : "externalParam",
        "text" : "req"
      },
      {
        "kind" : "text",
        "text" : ": "
      },
      {
        "kind" : "typeIdentifier",
        "preciseIdentifier" : "s:15FanapPodChatSDK18UploadImageRequestC",
        "text" : "UploadImageRequest"
      },
      {
        "kind" : "text",
        "text" : ", "
      },
      {
        "kind" : "externalParam",
        "text" : "uploadUniqueIdResult"
      },
      {
        "kind" : "text",
        "text" : ": "
      },
      {
        "kind" : "typeIdentifier",
        "preciseIdentifier" : "s:15FanapPodChatSDK18UniqueIdResultTypea",
        "text" : "UniqueIdResultType"
      },
      {
        "kind" : "text",
        "text" : ", "
      },
      {
        "kind" : "externalParam",
        "text" : "uploadProgress"
      },
      {
        "kind" : "text",
        "text" : ": "
      },
      {
        "kind" : "typeIdentifier",
        "preciseIdentifier" : "s:15FanapPodChatSDK22UploadFileProgressTypea",
        "text" : "UploadFileProgressType"
      },
      {
        "kind" : "text",
        "text" : "?, "
      },
      {
        "kind" : "externalParam",
        "text" : "uploadCompletion"
      },
      {
        "kind" : "text",
        "text" : ": "
      },
      {
        "kind" : "typeIdentifier",
        "preciseIdentifier" : "s:15FanapPodChatSDK20UploadCompletionTypea",
        "text" : "UploadCompletionType"
      },
      {
        "kind" : "text",
        "text" : "?)"
      }
    ],
    "modules" : [
      {
        "name" : "FanapPodChatSDK"
      }
    ],
    "role" : "symbol",
    "roleHeading" : "Instance Method",
    "symbolKind" : "method",
    "title" : "uploadImage(req:uploadUniqueIdResult:uploadProgress:uploadCompletion:)"
  },
  "primaryContentSections" : [
    {
      "declarations" : [
        {
          "languages" : [
            "swift"
          ],
          "platforms" : [
            "macOS"
          ],
          "tokens" : [
            {
              "kind" : "keyword",
              "text" : "func"
            },
            {
              "kind" : "text",
              "text" : " "
            },
            {
              "kind" : "identifier",
              "text" : "uploadImage"
            },
            {
              "kind" : "text",
              "text" : "("
            },
            {
              "kind" : "externalParam",
              "text" : "req"
            },
            {
              "kind" : "text",
              "text" : ": "
            },
            {
              "identifier" : "doc:\/\/FanapPodChatSDK\/documentation\/FanapPodChatSDK\/UploadImageRequest",
              "kind" : "typeIdentifier",
              "preciseIdentifier" : "s:15FanapPodChatSDK18UploadImageRequestC",
              "text" : "UploadImageRequest"
            },
            {
              "kind" : "text",
              "text" : ", "
            },
            {
              "kind" : "externalParam",
              "text" : "uploadUniqueIdResult"
            },
            {
              "kind" : "text",
              "text" : ": "
            },
            {
              "identifier" : "doc:\/\/FanapPodChatSDK\/documentation\/FanapPodChatSDK\/UniqueIdResultType",
              "kind" : "typeIdentifier",
              "preciseIdentifier" : "s:15FanapPodChatSDK18UniqueIdResultTypea",
              "text" : "UniqueIdResultType"
            },
            {
              "kind" : "text",
              "text" : " = nil, "
            },
            {
              "kind" : "externalParam",
              "text" : "uploadProgress"
            },
            {
              "kind" : "text",
              "text" : ": "
            },
            {
              "identifier" : "doc:\/\/FanapPodChatSDK\/documentation\/FanapPodChatSDK\/UploadFileProgressType",
              "kind" : "typeIdentifier",
              "preciseIdentifier" : "s:15FanapPodChatSDK22UploadFileProgressTypea",
              "text" : "UploadFileProgressType"
            },
            {
              "kind" : "text",
              "text" : "? = nil, "
            },
            {
              "kind" : "externalParam",
              "text" : "uploadCompletion"
            },
            {
              "kind" : "text",
              "text" : ": "
            },
            {
              "identifier" : "doc:\/\/FanapPodChatSDK\/documentation\/FanapPodChatSDK\/UploadCompletionType",
              "kind" : "typeIdentifier",
              "preciseIdentifier" : "s:15FanapPodChatSDK20UploadCompletionTypea",
              "text" : "UploadCompletionType"
            },
            {
              "kind" : "text",
              "text" : "? = nil)"
            }
          ]
        }
      ],
      "kind" : "declarations"
    },
    {
      "kind" : "parameters",
      "parameters" : [
        {
          "content" : [
            {
              "inlineContent" : [
                {
                  "text" : "The request that contains the data of an image and other image properties.",
                  "type" : "text"
                }
              ],
              "type" : "paragraph"
            }
          ],
          "name" : "req"
        },
        {
          "content" : [
            {
              "inlineContent" : [
                {
                  "text" : "The unique id of request. If you manage the unique id by yourself you should leave this closure blank, otherwise, you must use it if you need to know what response is for what request.",
                  "type" : "text"
                }
              ],
              "type" : "paragraph"
            }
          ],
          "name" : "uploadUniqueIdResult"
        },
        {
          "content" : [
            {
              "inlineContent" : [
                {
                  "text" : "The progress of uploading the image.",
                  "type" : "text"
                }
              ],
              "type" : "paragraph"
            }
          ],
          "name" : "uploadProgress"
        },
        {
          "content" : [
            {
              "inlineContent" : [
                {
                  "text" : "The result shows whether the upload was successful or not.",
                  "type" : "text"
                }
              ],
              "type" : "paragraph"
            }
          ],
          "name" : "uploadCompletion"
        }
      ]
    }
  ],
  "schemaVersion" : {
    "major" : 0,
    "minor" : 3,
    "patch" : 0
  },
  "sections" : [

  ],
  "variants" : [
    {
      "paths" : [
        "\/documentation\/fanappodchatsdk\/chat\/uploadimage(req:uploaduniqueidresult:uploadprogress:uploadcompletion:)"
      ],
      "traits" : [
        {
          "interfaceLanguage" : "swift"
        }
      ]
    }
  ]
, 
"references": {
"doc://FanapPodChatSDK/documentation/FanapPodChatSDK": {
  "abstract" : [
    {
      "text" : "With Fanap Chat SDK you could connect to the chat server without managing the socket state and send or receive messages.",
      "type" : "text"
    }
  ],
  "identifier" : "doc:\/\/FanapPodChatSDK\/documentation\/FanapPodChatSDK",
  "kind" : "symbol",
  "role" : "collection",
  "title" : "FanapPodChatSDK",
  "type" : "topic",
  "url" : "\/documentation\/fanappodchatsdk"
},
"doc://FanapPodChatSDK/documentation/FanapPodChatSDK/Chat": {
  "abstract" : [
    {
      "text" : "The chat server manages the async connection and the rest of the job for you, and you could send or receive messages or create a channel or group chat.",
      "type" : "text"
    }
  ],
  "fragments" : [
    {
      "kind" : "keyword",
      "text" : "class"
    },
    {
      "kind" : "text",
      "text" : " "
    },
    {
      "kind" : "identifier",
      "text" : "Chat"
    }
  ],
  "identifier" : "doc:\/\/FanapPodChatSDK\/documentation\/FanapPodChatSDK\/Chat",
  "kind" : "symbol",
  "navigatorTitle" : [
    {
      "kind" : "identifier",
      "text" : "Chat"
    }
  ],
  "role" : "symbol",
  "title" : "Chat",
  "type" : "topic",
  "url" : "\/documentation\/fanappodchatsdk\/chat"
},
"doc://FanapPodChatSDK/documentation/FanapPodChatSDK/Chat/uploadImage(req:uploadUniqueIdResult:uploadProgress:uploadCompletion:)": {
  "abstract" : [
    {
      "text" : "Upload an image.",
      "type" : "text"
    }
  ],
  "fragments" : [
    {
      "kind" : "keyword",
      "text" : "func"
    },
    {
      "kind" : "text",
      "text" : " "
    },
    {
      "kind" : "identifier",
      "text" : "uploadImage"
    },
    {
      "kind" : "text",
      "text" : "("
    },
    {
      "kind" : "externalParam",
      "text" : "req"
    },
    {
      "kind" : "text",
      "text" : ": "
    },
    {
      "kind" : "typeIdentifier",
      "preciseIdentifier" : "s:15FanapPodChatSDK18UploadImageRequestC",
      "text" : "UploadImageRequest"
    },
    {
      "kind" : "text",
      "text" : ", "
    },
    {
      "kind" : "externalParam",
      "text" : "uploadUniqueIdResult"
    },
    {
      "kind" : "text",
      "text" : ": "
    },
    {
      "kind" : "typeIdentifier",
      "preciseIdentifier" : "s:15FanapPodChatSDK18UniqueIdResultTypea",
      "text" : "UniqueIdResultType"
    },
    {
      "kind" : "text",
      "text" : ", "
    },
    {
      "kind" : "externalParam",
      "text" : "uploadProgress"
    },
    {
      "kind" : "text",
      "text" : ": "
    },
    {
      "kind" : "typeIdentifier",
      "preciseIdentifier" : "s:15FanapPodChatSDK22UploadFileProgressTypea",
      "text" : "UploadFileProgressType"
    },
    {
      "kind" : "text",
      "text" : "?, "
    },
    {
      "kind" : "externalParam",
      "text" : "uploadCompletion"
    },
    {
      "kind" : "text",
      "text" : ": "
    },
    {
      "kind" : "typeIdentifier",
      "preciseIdentifier" : "s:15FanapPodChatSDK20UploadCompletionTypea",
      "text" : "UploadCompletionType"
    },
    {
      "kind" : "text",
      "text" : "?)"
    }
  ],
  "identifier" : "doc:\/\/FanapPodChatSDK\/documentation\/FanapPodChatSDK\/Chat\/uploadImage(req:uploadUniqueIdResult:uploadProgress:uploadCompletion:)",
  "kind" : "symbol",
  "role" : "symbol",
  "title" : "uploadImage(req:uploadUniqueIdResult:uploadProgress:uploadCompletion:)",
  "type" : "topic",
  "url" : "\/documentation\/fanappodchatsdk\/chat\/uploadimage(req:uploaduniqueidresult:uploadprogress:uploadcompletion:)"
},
"doc://FanapPodChatSDK/documentation/FanapPodChatSDK/UniqueIdResultType": {
  "abstract" : [

  ],
  "fragments" : [
    {
      "kind" : "keyword",
      "text" : "typealias"
    },
    {
      "kind" : "text",
      "text" : " "
    },
    {
      "kind" : "identifier",
      "text" : "UniqueIdResultType"
    }
  ],
  "identifier" : "doc:\/\/FanapPodChatSDK\/documentation\/FanapPodChatSDK\/UniqueIdResultType",
  "kind" : "symbol",
  "navigatorTitle" : [
    {
      "kind" : "identifier",
      "text" : "UniqueIdResultType"
    }
  ],
  "role" : "symbol",
  "title" : "UniqueIdResultType",
  "type" : "topic",
  "url" : "\/documentation\/fanappodchatsdk\/uniqueidresulttype"
},
"doc://FanapPodChatSDK/documentation/FanapPodChatSDK/UploadCompletionType": {
  "abstract" : [

  ],
  "fragments" : [
    {
      "kind" : "keyword",
      "text" : "typealias"
    },
    {
      "kind" : "text",
      "text" : " "
    },
    {
      "kind" : "identifier",
      "text" : "UploadCompletionType"
    }
  ],
  "identifier" : "doc:\/\/FanapPodChatSDK\/documentation\/FanapPodChatSDK\/UploadCompletionType",
  "kind" : "symbol",
  "navigatorTitle" : [
    {
      "kind" : "identifier",
      "text" : "UploadCompletionType"
    }
  ],
  "role" : "symbol",
  "title" : "UploadCompletionType",
  "type" : "topic",
  "url" : "\/documentation\/fanappodchatsdk\/uploadcompletiontype"
},
"doc://FanapPodChatSDK/documentation/FanapPodChatSDK/UploadFileProgressType": {
  "abstract" : [

  ],
  "fragments" : [
    {
      "kind" : "keyword",
      "text" : "typealias"
    },
    {
      "kind" : "text",
      "text" : " "
    },
    {
      "kind" : "identifier",
      "text" : "UploadFileProgressType"
    }
  ],
  "identifier" : "doc:\/\/FanapPodChatSDK\/documentation\/FanapPodChatSDK\/UploadFileProgressType",
  "kind" : "symbol",
  "navigatorTitle" : [
    {
      "kind" : "identifier",
      "text" : "UploadFileProgressType"
    }
  ],
  "role" : "symbol",
  "title" : "UploadFileProgressType",
  "type" : "topic",
  "url" : "\/documentation\/fanappodchatsdk\/uploadfileprogresstype"
},
"doc://FanapPodChatSDK/documentation/FanapPodChatSDK/UploadImageRequest": {
  "abstract" : [

  ],
  "fragments" : [
    {
      "kind" : "keyword",
      "text" : "class"
    },
    {
      "kind" : "text",
      "text" : " "
    },
    {
      "kind" : "identifier",
      "text" : "UploadImageRequest"
    }
  ],
  "identifier" : "doc:\/\/FanapPodChatSDK\/documentation\/FanapPodChatSDK\/UploadImageRequest",
  "kind" : "symbol",
  "navigatorTitle" : [
    {
      "kind" : "identifier",
      "text" : "UploadImageRequest"
    }
  ],
  "role" : "symbol",
  "title" : "UploadImageRequest",
  "type" : "topic",
  "url" : "\/documentation\/fanappodchatsdk\/uploadimagerequest"
}
}
}