{
  "abstract" : [
    {
      "text" : "Current user info of the application it’ll be filled after chat is in the ",
      "type" : "text"
    },
    {
      "identifier" : "doc:\/\/FanapPodChatSDK\/documentation\/FanapPodChatSDK\/ChatState\/CHAT_READY",
      "isActive" : true,
      "type" : "reference"
    },
    {
      "text" : "  state.",
      "type" : "text"
    }
  ],
  "hierarchy" : {
    "paths" : [
      [
        "doc:\/\/FanapPodChatSDK\/documentation\/FanapPodChatSDK",
        "doc:\/\/FanapPodChatSDK\/documentation\/FanapPodChatSDK\/Chat"
      ]
    ]
  },
  "identifier" : {
    "interfaceLanguage" : "swift",
    "url" : "doc:\/\/FanapPodChatSDK\/documentation\/FanapPodChatSDK\/Chat\/userInfo"
  },
  "kind" : "symbol",
  "metadata" : {
    "externalID" : "s:15FanapPodChatSDK0C0C8userInfoAA4UserCSgvp",
    "fragments" : [
      {
        "kind" : "keyword",
        "text" : "var"
      },
      {
        "kind" : "text",
        "text" : " "
      },
      {
        "kind" : "identifier",
        "text" : "userInfo"
      },
      {
        "kind" : "text",
        "text" : ": "
      },
      {
        "kind" : "typeIdentifier",
        "preciseIdentifier" : "s:15FanapPodChatSDK4UserC",
        "text" : "User"
      },
      {
        "kind" : "text",
        "text" : "?"
      }
    ],
    "modules" : [
      {
        "name" : "FanapPodChatSDK"
      }
    ],
    "role" : "symbol",
    "roleHeading" : "Instance Property",
    "symbolKind" : "property",
    "title" : "userInfo"
  },
  "primaryContentSections" : [
    {
      "declarations" : [
        {
          "languages" : [
            "swift"
          ],
          "platforms" : [
            "macOS"
          ],
          "tokens" : [
            {
              "kind" : "keyword",
              "text" : "var"
            },
            {
              "kind" : "text",
              "text" : " "
            },
            {
              "kind" : "identifier",
              "text" : "userInfo"
            },
            {
              "kind" : "text",
              "text" : ": "
            },
            {
              "identifier" : "doc:\/\/FanapPodChatSDK\/documentation\/FanapPodChatSDK\/User",
              "kind" : "typeIdentifier",
              "preciseIdentifier" : "s:15FanapPodChatSDK4UserC",
              "text" : "User"
            },
            {
              "kind" : "text",
              "text" : "? { get }"
            }
          ]
        }
      ],
      "kind" : "declarations"
    }
  ],
  "schemaVersion" : {
    "major" : 0,
    "minor" : 3,
    "patch" : 0
  },
  "sections" : [

  ],
  "variants" : [
    {
      "paths" : [
        "\/documentation\/fanappodchatsdk\/chat\/userinfo"
      ],
      "traits" : [
        {
          "interfaceLanguage" : "swift"
        }
      ]
    }
  ]
, 
"references": {
"doc://FanapPodChatSDK/documentation/FanapPodChatSDK": {
  "abstract" : [
    {
      "text" : "With Fanap Chat SDK you could connect to the chat server without managing the socket state and send or receive messages.",
      "type" : "text"
    }
  ],
  "identifier" : "doc:\/\/FanapPodChatSDK\/documentation\/FanapPodChatSDK",
  "kind" : "symbol",
  "role" : "collection",
  "title" : "FanapPodChatSDK",
  "type" : "topic",
  "url" : "\/documentation\/fanappodchatsdk"
},
"doc://FanapPodChatSDK/documentation/FanapPodChatSDK/Chat": {
  "abstract" : [
    {
      "text" : "The chat server manages the async connection and the rest of the job for you, and you could send or receive messages or create a channel or group chat.",
      "type" : "text"
    }
  ],
  "fragments" : [
    {
      "kind" : "keyword",
      "text" : "class"
    },
    {
      "kind" : "text",
      "text" : " "
    },
    {
      "kind" : "identifier",
      "text" : "Chat"
    }
  ],
  "identifier" : "doc:\/\/FanapPodChatSDK\/documentation\/FanapPodChatSDK\/Chat",
  "kind" : "symbol",
  "navigatorTitle" : [
    {
      "kind" : "identifier",
      "text" : "Chat"
    }
  ],
  "role" : "symbol",
  "title" : "Chat",
  "type" : "topic",
  "url" : "\/documentation\/fanappodchatsdk\/chat"
},
"doc://FanapPodChatSDK/documentation/FanapPodChatSDK/Chat/userInfo": {
  "abstract" : [
    {
      "text" : "Current user info of the application it’ll be filled after chat is in the ",
      "type" : "text"
    },
    {
      "identifier" : "doc:\/\/FanapPodChatSDK\/documentation\/FanapPodChatSDK\/ChatState\/CHAT_READY",
      "isActive" : true,
      "type" : "reference"
    },
    {
      "text" : "  state.",
      "type" : "text"
    }
  ],
  "fragments" : [
    {
      "kind" : "keyword",
      "text" : "var"
    },
    {
      "kind" : "text",
      "text" : " "
    },
    {
      "kind" : "identifier",
      "text" : "userInfo"
    },
    {
      "kind" : "text",
      "text" : ": "
    },
    {
      "kind" : "typeIdentifier",
      "preciseIdentifier" : "s:15FanapPodChatSDK4UserC",
      "text" : "User"
    },
    {
      "kind" : "text",
      "text" : "?"
    }
  ],
  "identifier" : "doc:\/\/FanapPodChatSDK\/documentation\/FanapPodChatSDK\/Chat\/userInfo",
  "kind" : "symbol",
  "role" : "symbol",
  "title" : "userInfo",
  "type" : "topic",
  "url" : "\/documentation\/fanappodchatsdk\/chat\/userinfo"
},
"doc://FanapPodChatSDK/documentation/FanapPodChatSDK/ChatState/CHAT_READY": {
  "abstract" : [

  ],
  "fragments" : [
    {
      "kind" : "keyword",
      "text" : "case"
    },
    {
      "kind" : "text",
      "text" : " "
    },
    {
      "kind" : "identifier",
      "text" : "CHAT_READY"
    }
  ],
  "identifier" : "doc:\/\/FanapPodChatSDK\/documentation\/FanapPodChatSDK\/ChatState\/CHAT_READY",
  "kind" : "symbol",
  "role" : "symbol",
  "title" : "ChatState.CHAT_READY",
  "type" : "topic",
  "url" : "\/documentation\/fanappodchatsdk\/chatstate\/chat_ready"
},
"doc://FanapPodChatSDK/documentation/FanapPodChatSDK/User": {
  "abstract" : [

  ],
  "fragments" : [
    {
      "kind" : "keyword",
      "text" : "class"
    },
    {
      "kind" : "text",
      "text" : " "
    },
    {
      "kind" : "identifier",
      "text" : "User"
    }
  ],
  "identifier" : "doc:\/\/FanapPodChatSDK\/documentation\/FanapPodChatSDK\/User",
  "kind" : "symbol",
  "navigatorTitle" : [
    {
      "kind" : "identifier",
      "text" : "User"
    }
  ],
  "role" : "symbol",
  "title" : "User",
  "type" : "topic",
  "url" : "\/documentation\/fanappodchatsdk\/user"
}
}
}