{
  "abstract" : [
    {
      "text" : "Inherited from ",
      "type" : "text"
    },
    {
      "code" : "Equatable.!=(_:_:)",
      "type" : "codeVoice"
    },
    {
      "text" : ".",
      "type" : "text"
    }
  ],
  "hierarchy" : {
    "paths" : [
      [
        "doc:\/\/FanapPodChatSDK\/documentation\/FanapPodChatSDK",
        "doc:\/\/FanapPodChatSDK\/documentation\/FanapPodChatSDK\/ThreadTypes",
        "doc:\/\/FanapPodChatSDK\/documentation\/FanapPodChatSDK\/ThreadTypes\/Equatable-Implementations"
      ]
    ]
  },
  "identifier" : {
    "interfaceLanguage" : "swift",
    "url" : "doc:\/\/FanapPodChatSDK\/documentation\/FanapPodChatSDK\/ThreadTypes\/!=(_:_:)"
  },
  "kind" : "symbol",
  "metadata" : {
    "extendedModule" : "Swift",
    "externalID" : "s:SQsE2neoiySbx_xtFZ::SYNTHESIZED::s:15FanapPodChatSDK11ThreadTypesO",
    "fragments" : [
      {
        "kind" : "keyword",
        "text" : "static"
      },
      {
        "kind" : "text",
        "text" : " "
      },
      {
        "kind" : "keyword",
        "text" : "func"
      },
      {
        "kind" : "text",
        "text" : " "
      },
      {
        "kind" : "identifier",
        "text" : "!="
      },
      {
        "kind" : "text",
        "text" : " "
      },
      {
        "kind" : "text",
        "text" : "("
      },
      {
        "kind" : "typeIdentifier",
        "text" : "Self"
      },
      {
        "kind" : "text",
        "text" : ", "
      },
      {
        "kind" : "typeIdentifier",
        "text" : "Self"
      },
      {
        "kind" : "text",
        "text" : ") -> "
      },
      {
        "kind" : "typeIdentifier",
        "preciseIdentifier" : "s:Sb",
        "text" : "Bool"
      }
    ],
    "modules" : [
      {
        "name" : "FanapPodChatSDK"
      }
    ],
    "role" : "symbol",
    "roleHeading" : "Operator",
    "symbolKind" : "op",
    "title" : "!=(_:_:)"
  },
  "primaryContentSections" : [
    {
      "declarations" : [
        {
          "languages" : [
            "swift"
          ],
          "platforms" : [
            "macOS"
          ],
          "tokens" : [
            {
              "kind" : "keyword",
              "text" : "static"
            },
            {
              "kind" : "text",
              "text" : " "
            },
            {
              "kind" : "keyword",
              "text" : "func"
            },
            {
              "kind" : "text",
              "text" : " "
            },
            {
              "kind" : "identifier",
              "text" : "!="
            },
            {
              "kind" : "text",
              "text" : " "
            },
            {
              "kind" : "text",
              "text" : "("
            },
            {
              "kind" : "internalParam",
              "text" : "lhs"
            },
            {
              "kind" : "text",
              "text" : ": "
            },
            {
              "kind" : "typeIdentifier",
              "text" : "Self"
            },
            {
              "kind" : "text",
              "text" : ", "
            },
            {
              "kind" : "internalParam",
              "text" : "rhs"
            },
            {
              "kind" : "text",
              "text" : ": "
            },
            {
              "kind" : "typeIdentifier",
              "text" : "Self"
            },
            {
              "kind" : "text",
              "text" : ") -> "
            },
            {
              "kind" : "typeIdentifier",
              "preciseIdentifier" : "s:Sb",
              "text" : "Bool"
            }
          ]
        }
      ],
      "kind" : "declarations"
    }
  ],
  "schemaVersion" : {
    "major" : 0,
    "minor" : 3,
    "patch" : 0
  },
  "sections" : [

  ],
  "variants" : [
    {
      "paths" : [
        "\/documentation\/fanappodchatsdk\/threadtypes\/!=(_:_:)"
      ],
      "traits" : [
        {
          "interfaceLanguage" : "swift"
        }
      ]
    }
  ]
, 
"references": {
"doc://FanapPodChatSDK/documentation/FanapPodChatSDK": {
  "abstract" : [
    {
      "text" : "With Fanap Chat SDK you could connect to the chat server without managing the socket state and send or receive messages.",
      "type" : "text"
    }
  ],
  "identifier" : "doc:\/\/FanapPodChatSDK\/documentation\/FanapPodChatSDK",
  "kind" : "symbol",
  "role" : "collection",
  "title" : "FanapPodChatSDK",
  "type" : "topic",
  "url" : "\/documentation\/fanappodchatsdk"
},
"doc://FanapPodChatSDK/documentation/FanapPodChatSDK/ThreadTypes": {
  "abstract" : [
    {
      "text" : "Type of thread.",
      "type" : "text"
    }
  ],
  "fragments" : [
    {
      "kind" : "keyword",
      "text" : "enum"
    },
    {
      "kind" : "text",
      "text" : " "
    },
    {
      "kind" : "identifier",
      "text" : "ThreadTypes"
    }
  ],
  "identifier" : "doc:\/\/FanapPodChatSDK\/documentation\/FanapPodChatSDK\/ThreadTypes",
  "kind" : "symbol",
  "navigatorTitle" : [
    {
      "kind" : "identifier",
      "text" : "ThreadTypes"
    }
  ],
  "role" : "symbol",
  "title" : "ThreadTypes",
  "type" : "topic",
  "url" : "\/documentation\/fanappodchatsdk\/threadtypes"
},
"doc://FanapPodChatSDK/documentation/FanapPodChatSDK/ThreadTypes/!=(_:_:)": {
  "abstract" : [

  ],
  "fragments" : [
    {
      "kind" : "keyword",
      "text" : "static"
    },
    {
      "kind" : "text",
      "text" : " "
    },
    {
      "kind" : "keyword",
      "text" : "func"
    },
    {
      "kind" : "text",
      "text" : " "
    },
    {
      "kind" : "identifier",
      "text" : "!="
    },
    {
      "kind" : "text",
      "text" : " "
    },
    {
      "kind" : "text",
      "text" : "("
    },
    {
      "kind" : "typeIdentifier",
      "text" : "Self"
    },
    {
      "kind" : "text",
      "text" : ", "
    },
    {
      "kind" : "typeIdentifier",
      "text" : "Self"
    },
    {
      "kind" : "text",
      "text" : ") -> "
    },
    {
      "kind" : "typeIdentifier",
      "preciseIdentifier" : "s:Sb",
      "text" : "Bool"
    }
  ],
  "identifier" : "doc:\/\/FanapPodChatSDK\/documentation\/FanapPodChatSDK\/ThreadTypes\/!=(_:_:)",
  "kind" : "symbol",
  "role" : "symbol",
  "title" : "!=(_:_:)",
  "type" : "topic",
  "url" : "\/documentation\/fanappodchatsdk\/threadtypes\/!=(_:_:)"
},
"doc://FanapPodChatSDK/documentation/FanapPodChatSDK/ThreadTypes/Equatable-Implementations": {
  "abstract" : [

  ],
  "identifier" : "doc:\/\/FanapPodChatSDK\/documentation\/FanapPodChatSDK\/ThreadTypes\/Equatable-Implementations",
  "kind" : "article",
  "role" : "collectionGroup",
  "title" : "Equatable Implementations",
  "type" : "topic",
  "url" : "\/documentation\/fanappodchatsdk\/threadtypes\/equatable-implementations"
}
}
}