{
  "abstract" : [
    {
      "text" : "Private Channel - Only the admin can send an invitation to someone to join this thread.",
      "type" : "text"
    }
  ],
  "hierarchy" : {
    "paths" : [
      [
        "doc:\/\/FanapPodChatSDK\/documentation\/FanapPodChatSDK",
        "doc:\/\/FanapPodChatSDK\/documentation\/FanapPodChatSDK\/ThreadTypes"
      ]
    ]
  },
  "identifier" : {
    "interfaceLanguage" : "swift",
    "url" : "doc:\/\/FanapPodChatSDK\/documentation\/FanapPodChatSDK\/ThreadTypes\/CHANNEL"
  },
  "kind" : "symbol",
  "metadata" : {
    "externalID" : "s:15FanapPodChatSDK11ThreadTypesO7CHANNELyA2CmF",
    "fragments" : [
      {
        "kind" : "keyword",
        "text" : "case"
      },
      {
        "kind" : "text",
        "text" : " "
      },
      {
        "kind" : "identifier",
        "text" : "CHANNEL"
      }
    ],
    "modules" : [
      {
        "name" : "FanapPodChatSDK"
      }
    ],
    "role" : "symbol",
    "roleHeading" : "Case",
    "symbolKind" : "case",
    "title" : "ThreadTypes.CHANNEL"
  },
  "primaryContentSections" : [
    {
      "declarations" : [
        {
          "languages" : [
            "swift"
          ],
          "platforms" : [
            "macOS"
          ],
          "tokens" : [
            {
              "kind" : "keyword",
              "text" : "case"
            },
            {
              "kind" : "text",
              "text" : " "
            },
            {
              "kind" : "identifier",
              "text" : "CHANNEL"
            }
          ]
        }
      ],
      "kind" : "declarations"
    },
    {
      "content" : [
        {
          "anchor" : "discussion",
          "level" : 2,
          "text" : "Discussion",
          "type" : "heading"
        },
        {
          "items" : [
            {
              "content" : [
                {
                  "inlineContent" : [
                    {
                      "text" : "Only admin can send message to this thread.",
                      "type" : "text"
                    }
                  ],
                  "type" : "paragraph"
                }
              ]
            }
          ],
          "type" : "unorderedList"
        }
      ],
      "kind" : "content"
    }
  ],
  "schemaVersion" : {
    "major" : 0,
    "minor" : 3,
    "patch" : 0
  },
  "sections" : [

  ],
  "variants" : [
    {
      "paths" : [
        "\/documentation\/fanappodchatsdk\/threadtypes\/channel"
      ],
      "traits" : [
        {
          "interfaceLanguage" : "swift"
        }
      ]
    }
  ]
, 
"references": {
"doc://FanapPodChatSDK/documentation/FanapPodChatSDK": {
  "abstract" : [
    {
      "text" : "With Fanap Chat SDK you could connect to the chat server without managing the socket state and send or receive messages.",
      "type" : "text"
    }
  ],
  "identifier" : "doc:\/\/FanapPodChatSDK\/documentation\/FanapPodChatSDK",
  "kind" : "symbol",
  "role" : "collection",
  "title" : "FanapPodChatSDK",
  "type" : "topic",
  "url" : "\/documentation\/fanappodchatsdk"
},
"doc://FanapPodChatSDK/documentation/FanapPodChatSDK/ThreadTypes": {
  "abstract" : [
    {
      "text" : "Type of thread.",
      "type" : "text"
    }
  ],
  "fragments" : [
    {
      "kind" : "keyword",
      "text" : "enum"
    },
    {
      "kind" : "text",
      "text" : " "
    },
    {
      "kind" : "identifier",
      "text" : "ThreadTypes"
    }
  ],
  "identifier" : "doc:\/\/FanapPodChatSDK\/documentation\/FanapPodChatSDK\/ThreadTypes",
  "kind" : "symbol",
  "navigatorTitle" : [
    {
      "kind" : "identifier",
      "text" : "ThreadTypes"
    }
  ],
  "role" : "symbol",
  "title" : "ThreadTypes",
  "type" : "topic",
  "url" : "\/documentation\/fanappodchatsdk\/threadtypes"
},
"doc://FanapPodChatSDK/documentation/FanapPodChatSDK/ThreadTypes/CHANNEL": {
  "abstract" : [
    {
      "text" : "Private Channel - Only the admin can send an invitation to someone to join this thread.",
      "type" : "text"
    }
  ],
  "fragments" : [
    {
      "kind" : "keyword",
      "text" : "case"
    },
    {
      "kind" : "text",
      "text" : " "
    },
    {
      "kind" : "identifier",
      "text" : "CHANNEL"
    }
  ],
  "identifier" : "doc:\/\/FanapPodChatSDK\/documentation\/FanapPodChatSDK\/ThreadTypes\/CHANNEL",
  "kind" : "symbol",
  "role" : "symbol",
  "title" : "ThreadTypes.CHANNEL",
  "type" : "topic",
  "url" : "\/documentation\/fanappodchatsdk\/threadtypes\/channel"
}
}
}