{
  "abstract" : [
    {
      "text" : "Inherited from ",
      "type" : "text"
    },
    {
      "code" : "RawRepresentable.init(from:)",
      "type" : "codeVoice"
    },
    {
      "text" : ".",
      "type" : "text"
    }
  ],
  "hierarchy" : {
    "paths" : [
      [
        "doc:\/\/FanapPodChatSDK\/documentation\/FanapPodChatSDK",
        "doc:\/\/FanapPodChatSDK\/documentation\/FanapPodChatSDK\/ThreadTypes",
        "doc:\/\/FanapPodChatSDK\/documentation\/FanapPodChatSDK\/ThreadTypes\/RawRepresentable-Implementations"
      ]
    ]
  },
  "identifier" : {
    "interfaceLanguage" : "swift",
    "url" : "doc:\/\/FanapPodChatSDK\/documentation\/FanapPodChatSDK\/ThreadTypes\/init(from:)-6dhzb"
  },
  "kind" : "symbol",
  "metadata" : {
    "conformance" : {
      "availabilityPrefix" : [
        {
          "text" : "Available when",
          "type" : "text"
        }
      ],
      "conformancePrefix" : [
        {
          "text" : "Conforms when",
          "type" : "text"
        }
      ],
      "constraints" : [
        {
          "code" : "Self",
          "type" : "codeVoice"
        },
        {
          "text" : " conforms to ",
          "type" : "text"
        },
        {
          "code" : "Decodable",
          "type" : "codeVoice"
        },
        {
          "text" : " and ",
          "type" : "text"
        },
        {
          "code" : "RawValue",
          "type" : "codeVoice"
        },
        {
          "text" : " is ",
          "type" : "text"
        },
        {
          "code" : "Int",
          "type" : "codeVoice"
        },
        {
          "text" : ".",
          "type" : "text"
        }
      ]
    },
    "extendedModule" : "Swift",
    "externalID" : "s:SYsSeRzSi8RawValueSYRtzrlE4fromxs7Decoder_p_tKcfc::SYNTHESIZED::s:15FanapPodChatSDK11ThreadTypesO",
    "fragments" : [
      {
        "kind" : "identifier",
        "text" : "init"
      },
      {
        "kind" : "text",
        "text" : "("
      },
      {
        "kind" : "externalParam",
        "text" : "from"
      },
      {
        "kind" : "text",
        "text" : ": "
      },
      {
        "kind" : "typeIdentifier",
        "preciseIdentifier" : "s:s7DecoderP",
        "text" : "Decoder"
      },
      {
        "kind" : "text",
        "text" : ") "
      },
      {
        "kind" : "keyword",
        "text" : "throws"
      }
    ],
    "modules" : [
      {
        "name" : "FanapPodChatSDK"
      }
    ],
    "role" : "symbol",
    "roleHeading" : "Initializer",
    "symbolKind" : "init",
    "title" : "init(from:)"
  },
  "primaryContentSections" : [
    {
      "declarations" : [
        {
          "languages" : [
            "swift"
          ],
          "platforms" : [
            "macOS"
          ],
          "tokens" : [
            {
              "kind" : "keyword",
              "text" : "init"
            },
            {
              "kind" : "text",
              "text" : "("
            },
            {
              "kind" : "externalParam",
              "text" : "from"
            },
            {
              "kind" : "text",
              "text" : " "
            },
            {
              "kind" : "internalParam",
              "text" : "decoder"
            },
            {
              "kind" : "text",
              "text" : ": "
            },
            {
              "kind" : "typeIdentifier",
              "preciseIdentifier" : "s:s7DecoderP",
              "text" : "Decoder"
            },
            {
              "kind" : "text",
              "text" : ") "
            },
            {
              "kind" : "keyword",
              "text" : "throws"
            }
          ]
        }
      ],
      "kind" : "declarations"
    }
  ],
  "schemaVersion" : {
    "major" : 0,
    "minor" : 3,
    "patch" : 0
  },
  "sections" : [

  ],
  "variants" : [
    {
      "paths" : [
        "\/documentation\/fanappodchatsdk\/threadtypes\/init(from:)-6dhzb"
      ],
      "traits" : [
        {
          "interfaceLanguage" : "swift"
        }
      ]
    }
  ]
, 
"references": {
"doc://FanapPodChatSDK/documentation/FanapPodChatSDK": {
  "abstract" : [
    {
      "text" : "With Fanap Chat SDK you could connect to the chat server without managing the socket state and send or receive messages.",
      "type" : "text"
    }
  ],
  "identifier" : "doc:\/\/FanapPodChatSDK\/documentation\/FanapPodChatSDK",
  "kind" : "symbol",
  "role" : "collection",
  "title" : "FanapPodChatSDK",
  "type" : "topic",
  "url" : "\/documentation\/fanappodchatsdk"
},
"doc://FanapPodChatSDK/documentation/FanapPodChatSDK/ThreadTypes": {
  "abstract" : [
    {
      "text" : "Type of thread.",
      "type" : "text"
    }
  ],
  "fragments" : [
    {
      "kind" : "keyword",
      "text" : "enum"
    },
    {
      "kind" : "text",
      "text" : " "
    },
    {
      "kind" : "identifier",
      "text" : "ThreadTypes"
    }
  ],
  "identifier" : "doc:\/\/FanapPodChatSDK\/documentation\/FanapPodChatSDK\/ThreadTypes",
  "kind" : "symbol",
  "navigatorTitle" : [
    {
      "kind" : "identifier",
      "text" : "ThreadTypes"
    }
  ],
  "role" : "symbol",
  "title" : "ThreadTypes",
  "type" : "topic",
  "url" : "\/documentation\/fanappodchatsdk\/threadtypes"
},
"doc://FanapPodChatSDK/documentation/FanapPodChatSDK/ThreadTypes/RawRepresentable-Implementations": {
  "abstract" : [

  ],
  "identifier" : "doc:\/\/FanapPodChatSDK\/documentation\/FanapPodChatSDK\/ThreadTypes\/RawRepresentable-Implementations",
  "kind" : "article",
  "role" : "collectionGroup",
  "title" : "RawRepresentable Implementations",
  "type" : "topic",
  "url" : "\/documentation\/fanappodchatsdk\/threadtypes\/rawrepresentable-implementations"
},
"doc://FanapPodChatSDK/documentation/FanapPodChatSDK/ThreadTypes/init(from:)-6dhzb": {
  "abstract" : [

  ],
  "conformance" : {
    "availabilityPrefix" : [
      {
        "text" : "Available when",
        "type" : "text"
      }
    ],
    "conformancePrefix" : [
      {
        "text" : "Conforms when",
        "type" : "text"
      }
    ],
    "constraints" : [
      {
        "code" : "Self",
        "type" : "codeVoice"
      },
      {
        "text" : " conforms to ",
        "type" : "text"
      },
      {
        "code" : "Decodable",
        "type" : "codeVoice"
      },
      {
        "text" : " and ",
        "type" : "text"
      },
      {
        "code" : "RawValue",
        "type" : "codeVoice"
      },
      {
        "text" : " is ",
        "type" : "text"
      },
      {
        "code" : "Int",
        "type" : "codeVoice"
      },
      {
        "text" : ".",
        "type" : "text"
      }
    ]
  },
  "fragments" : [
    {
      "kind" : "identifier",
      "text" : "init"
    },
    {
      "kind" : "text",
      "text" : "("
    },
    {
      "kind" : "externalParam",
      "text" : "from"
    },
    {
      "kind" : "text",
      "text" : ": "
    },
    {
      "kind" : "typeIdentifier",
      "preciseIdentifier" : "s:s7DecoderP",
      "text" : "Decoder"
    },
    {
      "kind" : "text",
      "text" : ") "
    },
    {
      "kind" : "keyword",
      "text" : "throws"
    }
  ],
  "identifier" : "doc:\/\/FanapPodChatSDK\/documentation\/FanapPodChatSDK\/ThreadTypes\/init(from:)-6dhzb",
  "kind" : "symbol",
  "role" : "symbol",
  "title" : "init(from:)",
  "type" : "topic",
  "url" : "\/documentation\/fanappodchatsdk\/threadtypes\/init(from:)-6dhzb"
}
}
}