{
  "hierarchy" : {
    "paths" : [
      [
        "doc:\/\/FanapPodChatSDK\/documentation\/FanapPodChatSDK",
        "doc:\/\/FanapPodChatSDK\/documentation\/FanapPodChatSDK\/ThreadEventTypes"
      ]
    ]
  },
  "identifier" : {
    "interfaceLanguage" : "swift",
    "url" : "doc:\/\/FanapPodChatSDK\/documentation\/FanapPodChatSDK\/ThreadEventTypes\/MESSAGE_PIN(threadId:_:)"
  },
  "kind" : "symbol",
  "metadata" : {
    "externalID" : "s:15FanapPodChatSDK16ThreadEventTypesO11MESSAGE_PINyACSiSg_AA15PinUnpinMessageCtcACmF",
    "fragments" : [
      {
        "kind" : "keyword",
        "text" : "case"
      },
      {
        "kind" : "text",
        "text" : " "
      },
      {
        "kind" : "identifier",
        "text" : "MESSAGE_PIN"
      },
      {
        "kind" : "text",
        "text" : "("
      },
      {
        "kind" : "externalParam",
        "text" : "threadId"
      },
      {
        "kind" : "text",
        "text" : ": "
      },
      {
        "kind" : "typeIdentifier",
        "preciseIdentifier" : "s:Si",
        "text" : "Int"
      },
      {
        "kind" : "text",
        "text" : "?, "
      },
      {
        "kind" : "typeIdentifier",
        "preciseIdentifier" : "s:15FanapPodChatSDK15PinUnpinMessageC",
        "text" : "PinUnpinMessage"
      },
      {
        "kind" : "text",
        "text" : ")"
      }
    ],
    "modules" : [
      {
        "name" : "FanapPodChatSDK"
      }
    ],
    "role" : "symbol",
    "roleHeading" : "Case",
    "symbolKind" : "case",
    "title" : "ThreadEventTypes.MESSAGE_PIN(threadId:_:)"
  },
  "primaryContentSections" : [
    {
      "declarations" : [
        {
          "languages" : [
            "swift"
          ],
          "platforms" : [
            "macOS"
          ],
          "tokens" : [
            {
              "kind" : "keyword",
              "text" : "case"
            },
            {
              "kind" : "text",
              "text" : " "
            },
            {
              "kind" : "identifier",
              "text" : "MESSAGE_PIN"
            },
            {
              "kind" : "text",
              "text" : "("
            },
            {
              "kind" : "externalParam",
              "text" : "threadId"
            },
            {
              "kind" : "text",
              "text" : ": "
            },
            {
              "kind" : "typeIdentifier",
              "preciseIdentifier" : "s:Si",
              "text" : "Int"
            },
            {
              "kind" : "text",
              "text" : "?, "
            },
            {
              "identifier" : "doc:\/\/FanapPodChatSDK\/documentation\/FanapPodChatSDK\/PinUnpinMessage",
              "kind" : "typeIdentifier",
              "preciseIdentifier" : "s:15FanapPodChatSDK15PinUnpinMessageC",
              "text" : "PinUnpinMessage"
            },
            {
              "kind" : "text",
              "text" : ")"
            }
          ]
        }
      ],
      "kind" : "declarations"
    }
  ],
  "schemaVersion" : {
    "major" : 0,
    "minor" : 3,
    "patch" : 0
  },
  "sections" : [

  ],
  "variants" : [
    {
      "paths" : [
        "\/documentation\/fanappodchatsdk\/threadeventtypes\/message_pin(threadid:_:)"
      ],
      "traits" : [
        {
          "interfaceLanguage" : "swift"
        }
      ]
    }
  ]
, 
"references": {
"doc://FanapPodChatSDK/documentation/FanapPodChatSDK": {
  "abstract" : [
    {
      "text" : "With Fanap Chat SDK you could connect to the chat server without managing the socket state and send or receive messages.",
      "type" : "text"
    }
  ],
  "identifier" : "doc:\/\/FanapPodChatSDK\/documentation\/FanapPodChatSDK",
  "kind" : "symbol",
  "role" : "collection",
  "title" : "FanapPodChatSDK",
  "type" : "topic",
  "url" : "\/documentation\/fanappodchatsdk"
},
"doc://FanapPodChatSDK/documentation/FanapPodChatSDK/PinUnpinMessage": {
  "abstract" : [

  ],
  "fragments" : [
    {
      "kind" : "keyword",
      "text" : "class"
    },
    {
      "kind" : "text",
      "text" : " "
    },
    {
      "kind" : "identifier",
      "text" : "PinUnpinMessage"
    }
  ],
  "identifier" : "doc:\/\/FanapPodChatSDK\/documentation\/FanapPodChatSDK\/PinUnpinMessage",
  "kind" : "symbol",
  "navigatorTitle" : [
    {
      "kind" : "identifier",
      "text" : "PinUnpinMessage"
    }
  ],
  "role" : "symbol",
  "title" : "PinUnpinMessage",
  "type" : "topic",
  "url" : "\/documentation\/fanappodchatsdk\/pinunpinmessage"
},
"doc://FanapPodChatSDK/documentation/FanapPodChatSDK/ThreadEventTypes": {
  "abstract" : [

  ],
  "fragments" : [
    {
      "kind" : "keyword",
      "text" : "enum"
    },
    {
      "kind" : "text",
      "text" : " "
    },
    {
      "kind" : "identifier",
      "text" : "ThreadEventTypes"
    }
  ],
  "identifier" : "doc:\/\/FanapPodChatSDK\/documentation\/FanapPodChatSDK\/ThreadEventTypes",
  "kind" : "symbol",
  "navigatorTitle" : [
    {
      "kind" : "identifier",
      "text" : "ThreadEventTypes"
    }
  ],
  "role" : "symbol",
  "title" : "ThreadEventTypes",
  "type" : "topic",
  "url" : "\/documentation\/fanappodchatsdk\/threadeventtypes"
},
"doc://FanapPodChatSDK/documentation/FanapPodChatSDK/ThreadEventTypes/MESSAGE_PIN(threadId:_:)": {
  "abstract" : [

  ],
  "fragments" : [
    {
      "kind" : "keyword",
      "text" : "case"
    },
    {
      "kind" : "text",
      "text" : " "
    },
    {
      "kind" : "identifier",
      "text" : "MESSAGE_PIN"
    },
    {
      "kind" : "text",
      "text" : "("
    },
    {
      "kind" : "externalParam",
      "text" : "threadId"
    },
    {
      "kind" : "text",
      "text" : ": "
    },
    {
      "kind" : "typeIdentifier",
      "preciseIdentifier" : "s:Si",
      "text" : "Int"
    },
    {
      "kind" : "text",
      "text" : "?, "
    },
    {
      "kind" : "typeIdentifier",
      "preciseIdentifier" : "s:15FanapPodChatSDK15PinUnpinMessageC",
      "text" : "PinUnpinMessage"
    },
    {
      "kind" : "text",
      "text" : ")"
    }
  ],
  "identifier" : "doc:\/\/FanapPodChatSDK\/documentation\/FanapPodChatSDK\/ThreadEventTypes\/MESSAGE_PIN(threadId:_:)",
  "kind" : "symbol",
  "role" : "symbol",
  "title" : "ThreadEventTypes.MESSAGE_PIN(threadId:_:)",
  "type" : "topic",
  "url" : "\/documentation\/fanappodchatsdk\/threadeventtypes\/message_pin(threadid:_:)"
}
}
}